%YAML 1.1
%TAG !u! tag:unity3d.com,2011:
--- !u!29 &1
SceneSettings:
  m_ObjectHideFlags: 0
  m_PVSData: 
  m_PVSObjectsArray: []
  m_PVSPortalsArray: []
  m_OcclusionBakeSettings:
    smallestOccluder: 5
    smallestHole: 0.25
    backfaceThreshold: 100
--- !u!104 &2
RenderSettings:
  m_ObjectHideFlags: 0
  serializedVersion: 6
  m_Fog: 0
  m_FogColor: {r: 0.5, g: 0.5, b: 0.5, a: 1}
  m_FogMode: 3
  m_FogDensity: 0.01
  m_LinearFogStart: 0
  m_LinearFogEnd: 300
  m_AmbientSkyColor: {r: 0.2, g: 0.2, b: 0.2, a: 1}
  m_AmbientEquatorColor: {r: 0.2, g: 0.2, b: 0.2, a: 1}
  m_AmbientGroundColor: {r: 0.2, g: 0.2, b: 0.2, a: 1}
  m_AmbientIntensity: 1
  m_AmbientMode: 3
  m_SkyboxMaterial: {fileID: 0}
  m_HaloStrength: 0.5
  m_FlareStrength: 1
  m_FlareFadeSpeed: 3
  m_HaloTexture: {fileID: 0}
  m_SpotCookie: {fileID: 10001, guid: 0000000000000000e000000000000000, type: 0}
  m_DefaultReflectionMode: 0
  m_DefaultReflectionResolution: 128
  m_ReflectionBounces: 1
  m_ReflectionIntensity: 1
  m_CustomReflection: {fileID: 0}
  m_Sun: {fileID: 0}
--- !u!157 &4
LightmapSettings:
  m_ObjectHideFlags: 0
  serializedVersion: 6
  m_GIWorkflowMode: 1
  m_LightmapsMode: 1
  m_GISettings:
    serializedVersion: 2
    m_BounceScale: 1
    m_IndirectOutputScale: 1
    m_AlbedoBoost: 1
    m_TemporalCoherenceThreshold: 1
    m_EnvironmentLightingMode: 0
    m_EnableBakedLightmaps: 1
    m_EnableRealtimeLightmaps: 0
  m_LightmapEditorSettings:
    serializedVersion: 3
    m_Resolution: 1
    m_BakeResolution: 50
    m_TextureWidth: 1024
    m_TextureHeight: 1024
    m_AOMaxDistance: 1
    m_Padding: 2
    m_CompAOExponent: 0
    m_LightmapParameters: {fileID: 0}
    m_TextureCompression: 0
    m_FinalGather: 0
    m_FinalGatherRayCount: 1024
    m_ReflectionCompression: 2
  m_LightingDataAsset: {fileID: 0}
  m_RuntimeCPUUsage: 25
--- !u!196 &5
NavMeshSettings:
  serializedVersion: 2
  m_ObjectHideFlags: 0
  m_BuildSettings:
    serializedVersion: 2
    agentRadius: 0.5
    agentHeight: 2
    agentSlope: 45
    agentClimb: 0.4
    ledgeDropHeight: 0
    maxJumpAcrossDistance: 0
    accuratePlacement: 0
    minRegionArea: 2
    cellSize: 0.16666666
    manualCellSize: 0
  m_NavMeshData: {fileID: 0}
--- !u!1 &8633711
GameObject:
  m_ObjectHideFlags: 0
  m_PrefabParentObject: {fileID: 100090, guid: ac2211405d10cff44855fe2b2d067ae1, type: 2}
  m_PrefabInternal: {fileID: 388396292}
  serializedVersion: 4
  m_Component:
  - 4: {fileID: 8633712}
  m_Layer: 0
  m_Name: Left_Middle_Finger_Joint_01a
  m_TagString: Untagged
  m_Icon: {fileID: 0}
  m_NavMeshLayer: 0
  m_StaticEditorFlags: 0
  m_IsActive: 1
--- !u!4 &8633712
Transform:
  m_ObjectHideFlags: 0
  m_PrefabParentObject: {fileID: 400090, guid: ac2211405d10cff44855fe2b2d067ae1, type: 2}
  m_PrefabInternal: {fileID: 388396292}
  m_GameObject: {fileID: 8633711}
  m_LocalRotation: {x: 0.010313046, y: -0.00011086465, z: 0.0107487505, w: 0.9998891}
  m_LocalPosition: {x: -0.071809866, y: 0.012475326, z: 0.005054819}
  m_LocalScale: {x: 1, y: 1, z: 1}
  m_Children:
  - {fileID: 1123259433}
  m_Father: {fileID: 55155873}
  m_RootOrder: 1
--- !u!1 &27323909
GameObject:
  m_ObjectHideFlags: 0
  m_PrefabParentObject: {fileID: 100092, guid: ac2211405d10cff44855fe2b2d067ae1, type: 2}
  m_PrefabInternal: {fileID: 388396292}
  serializedVersion: 4
  m_Component:
  - 4: {fileID: 27323910}
  m_Layer: 0
  m_Name: Right_Ring_Finger_Joint_01a
  m_TagString: Untagged
  m_Icon: {fileID: 0}
  m_NavMeshLayer: 0
  m_StaticEditorFlags: 0
  m_IsActive: 1
--- !u!4 &27323910
Transform:
  m_ObjectHideFlags: 0
  m_PrefabParentObject: {fileID: 400092, guid: ac2211405d10cff44855fe2b2d067ae1, type: 2}
  m_PrefabInternal: {fileID: 388396292}
  m_GameObject: {fileID: 27323909}
  m_LocalRotation: {x: 0.01051078, y: 0.008772642, z: 0.0023886247, w: 0.99990344}
  m_LocalPosition: {x: 0.07225248, y: -0.0139042325, z: 0.013558211}
  m_LocalScale: {x: 1, y: 1, z: 1}
  m_Children:
  - {fileID: 1838785864}
  m_Father: {fileID: 652104514}
  m_RootOrder: 3
--- !u!1 &42749686
GameObject:
  m_ObjectHideFlags: 0
  m_PrefabParentObject: {fileID: 0}
  m_PrefabInternal: {fileID: 0}
  serializedVersion: 4
  m_Component:
  - 4: {fileID: 42749691}
  - 20: {fileID: 42749690}
  - 92: {fileID: 42749689}
  - 124: {fileID: 42749688}
  - 81: {fileID: 42749687}
  m_Layer: 0
  m_Name: Main Camera
  m_TagString: MainCamera
  m_Icon: {fileID: 0}
  m_NavMeshLayer: 0
  m_StaticEditorFlags: 0
  m_IsActive: 1
--- !u!81 &42749687
AudioListener:
  m_ObjectHideFlags: 0
  m_PrefabParentObject: {fileID: 0}
  m_PrefabInternal: {fileID: 0}
  m_GameObject: {fileID: 42749686}
  m_Enabled: 1
--- !u!124 &42749688
Behaviour:
  m_ObjectHideFlags: 0
  m_PrefabParentObject: {fileID: 0}
  m_PrefabInternal: {fileID: 0}
  m_GameObject: {fileID: 42749686}
  m_Enabled: 1
--- !u!92 &42749689
Behaviour:
  m_ObjectHideFlags: 0
  m_PrefabParentObject: {fileID: 0}
  m_PrefabInternal: {fileID: 0}
  m_GameObject: {fileID: 42749686}
  m_Enabled: 1
--- !u!20 &42749690
Camera:
  m_ObjectHideFlags: 0
  m_PrefabParentObject: {fileID: 0}
  m_PrefabInternal: {fileID: 0}
  m_GameObject: {fileID: 42749686}
  m_Enabled: 1
  serializedVersion: 2
  m_ClearFlags: 1
  m_BackGroundColor: {r: 0, g: 0, b: 0, a: 0.019607844}
  m_NormalizedViewPortRect:
    serializedVersion: 2
    x: 0
    y: 0
    width: 1
    height: 1
  near clip plane: 0.3
  far clip plane: 1000
  field of view: 60
  orthographic: 0
  orthographic size: 5
  m_Depth: -1
  m_CullingMask:
    serializedVersion: 2
    m_Bits: 4294967295
  m_RenderingPath: -1
  m_TargetTexture: {fileID: 0}
  m_TargetDisplay: 0
  m_TargetEye: 3
  m_HDR: 0
  m_OcclusionCulling: 1
  m_StereoConvergence: 10
  m_StereoSeparation: 0.022
  m_StereoMirrorMode: 0
--- !u!4 &42749691
Transform:
  m_ObjectHideFlags: 0
  m_PrefabParentObject: {fileID: 0}
  m_PrefabInternal: {fileID: 0}
  m_GameObject: {fileID: 42749686}
  m_LocalRotation: {x: 0.11648694, y: 0, z: 0, w: 0.99319226}
  m_LocalPosition: {x: 0, y: 2.5966172, z: -3.6545372}
  m_LocalScale: {x: 1, y: 1, z: 1}
  m_Children: []
  m_Father: {fileID: 771022291}
  m_RootOrder: 0
--- !u!1 &55155872
GameObject:
  m_ObjectHideFlags: 0
  m_PrefabParentObject: {fileID: 100070, guid: ac2211405d10cff44855fe2b2d067ae1, type: 2}
  m_PrefabInternal: {fileID: 388396292}
  serializedVersion: 4
  m_Component:
  - 4: {fileID: 55155873}
  m_Layer: 0
  m_Name: Left_Wrist_Joint_01
  m_TagString: Untagged
  m_Icon: {fileID: 0}
  m_NavMeshLayer: 0
  m_StaticEditorFlags: 0
  m_IsActive: 1
--- !u!4 &55155873
Transform:
  m_ObjectHideFlags: 0
  m_PrefabParentObject: {fileID: 400070, guid: ac2211405d10cff44855fe2b2d067ae1, type: 2}
  m_PrefabInternal: {fileID: 388396292}
  m_GameObject: {fileID: 55155872}
  m_LocalRotation: {x: -0.0034134407, y: 0.0066458187, z: 0.45418105, w: 0.89087814}
  m_LocalPosition: {x: -0.17692582, y: -0.24830171, z: 0.04193508}
  m_LocalScale: {x: 1, y: 1, z: 1}
  m_Children:
  - {fileID: 1790048819}
  - {fileID: 8633712}
  - {fileID: 87989272}
  - {fileID: 58522768}
  - {fileID: 948539128}
  m_Father: {fileID: 1907115853}
  m_RootOrder: 0
--- !u!1 &58522767
GameObject:
  m_ObjectHideFlags: 0
  m_PrefabParentObject: {fileID: 100024, guid: ac2211405d10cff44855fe2b2d067ae1, type: 2}
  m_PrefabInternal: {fileID: 388396292}
  serializedVersion: 4
  m_Component:
  - 4: {fileID: 58522768}
  m_Layer: 0
  m_Name: Left_Ring_Finger_Joint_01a
  m_TagString: Untagged
  m_Icon: {fileID: 0}
  m_NavMeshLayer: 0
  m_StaticEditorFlags: 0
  m_IsActive: 1
--- !u!4 &58522768
Transform:
  m_ObjectHideFlags: 0
  m_PrefabParentObject: {fileID: 400024, guid: ac2211405d10cff44855fe2b2d067ae1, type: 2}
  m_PrefabInternal: {fileID: 388396292}
  m_GameObject: {fileID: 58522767}
  m_LocalRotation: {x: 0.010312854, y: -0.00012740763, z: 0.012352655, w: 0.99987054}
  m_LocalPosition: {x: -0.072257206, y: 0.012475326, z: -0.014861824}
  m_LocalScale: {x: 1, y: 1, z: 1}
  m_Children:
  - {fileID: 269697072}
  m_Father: {fileID: 55155873}
  m_RootOrder: 3
--- !u!1 &87989271
GameObject:
  m_ObjectHideFlags: 0
  m_PrefabParentObject: {fileID: 100054, guid: ac2211405d10cff44855fe2b2d067ae1, type: 2}
  m_PrefabInternal: {fileID: 388396292}
  serializedVersion: 4
  m_Component:
  - 4: {fileID: 87989272}
  m_Layer: 0
  m_Name: Left_Pinky_Finger_Joint_01a
  m_TagString: Untagged
  m_Icon: {fileID: 0}
  m_NavMeshLayer: 0
  m_StaticEditorFlags: 0
  m_IsActive: 1
--- !u!4 &87989272
Transform:
  m_ObjectHideFlags: 0
  m_PrefabParentObject: {fileID: 400054, guid: ac2211405d10cff44855fe2b2d067ae1, type: 2}
  m_PrefabInternal: {fileID: 388396292}
  m_GameObject: {fileID: 87989271}
  m_LocalRotation: {x: 0.010312401, y: -0.00016005654, z: 0.015518091, w: 0.99982643}
  m_LocalPosition: {x: -0.07212005, y: 0.012475326, z: -0.03323619}
  m_LocalScale: {x: 1, y: 1, z: 1}
  m_Children:
  - {fileID: 259922204}
  m_Father: {fileID: 55155873}
  m_RootOrder: 2
--- !u!1 &97336552
GameObject:
  m_ObjectHideFlags: 0
  m_PrefabParentObject: {fileID: 100034, guid: ac2211405d10cff44855fe2b2d067ae1, type: 2}
  m_PrefabInternal: {fileID: 388396292}
  serializedVersion: 4
  m_Component:
  - 4: {fileID: 97336553}
  m_Layer: 0
  m_Name: Head
  m_TagString: Untagged
  m_Icon: {fileID: 0}
  m_NavMeshLayer: 0
  m_StaticEditorFlags: 0
  m_IsActive: 1
--- !u!4 &97336553
Transform:
  m_ObjectHideFlags: 0
  m_PrefabParentObject: {fileID: 400034, guid: ac2211405d10cff44855fe2b2d067ae1, type: 2}
  m_PrefabInternal: {fileID: 388396292}
  m_GameObject: {fileID: 97336552}
  m_LocalRotation: {x: 0, y: -0, z: -0, w: 1}
  m_LocalPosition: {x: -0.079593115, y: 0, z: -2.0962138e-17}
  m_LocalScale: {x: 1, y: 1, z: 1}
  m_Children: []
  m_Father: {fileID: 1218954073}
  m_RootOrder: 0
--- !u!1 &259922203
GameObject:
  m_ObjectHideFlags: 0
  m_PrefabParentObject: {fileID: 100016, guid: ac2211405d10cff44855fe2b2d067ae1, type: 2}
  m_PrefabInternal: {fileID: 388396292}
  serializedVersion: 4
  m_Component:
  - 4: {fileID: 259922204}
  m_Layer: 0
  m_Name: Left_Pinky_Finger_Joint_01b
  m_TagString: Untagged
  m_Icon: {fileID: 0}
  m_NavMeshLayer: 0
  m_StaticEditorFlags: 0
  m_IsActive: 1
--- !u!4 &259922204
Transform:
  m_ObjectHideFlags: 0
  m_PrefabParentObject: {fileID: 400016, guid: ac2211405d10cff44855fe2b2d067ae1, type: 2}
  m_PrefabInternal: {fileID: 388396292}
  m_GameObject: {fileID: 259922203}
  m_LocalRotation: {x: 0.0009738356, y: 0.00064097386, z: 0.014862133, w: 0.9998889}
  m_LocalPosition: {x: -0.030515512, y: -3.1502578e-17, z: 2.4720094e-18}
  m_LocalScale: {x: 1, y: 1, z: 1}
  m_Children:
  - {fileID: 2092361222}
  m_Father: {fileID: 87989272}
  m_RootOrder: 0
--- !u!1 &262359074
GameObject:
  m_ObjectHideFlags: 0
  m_PrefabParentObject: {fileID: 0}
  m_PrefabInternal: {fileID: 0}
  serializedVersion: 4
  m_Component:
  - 4: {fileID: 262359076}
  - 108: {fileID: 262359075}
  m_Layer: 0
  m_Name: Directional light
  m_TagString: Untagged
  m_Icon: {fileID: 0}
  m_NavMeshLayer: 0
  m_StaticEditorFlags: 0
  m_IsActive: 1
--- !u!108 &262359075
Light:
  m_ObjectHideFlags: 0
  m_PrefabParentObject: {fileID: 0}
  m_PrefabInternal: {fileID: 0}
  m_GameObject: {fileID: 262359074}
  m_Enabled: 1
  serializedVersion: 6
  m_Type: 1
  m_Color: {r: 1, g: 1, b: 1, a: 1}
  m_Intensity: 0.24
  m_Range: 10
  m_SpotAngle: 30
  m_CookieSize: 10
  m_Shadows:
    m_Type: 0
    m_Resolution: 3
    m_Strength: 1
    m_Bias: 0.05
    m_NormalBias: 0.4
    m_NearPlane: 0.2
  m_Cookie: {fileID: 0}
  m_DrawHalo: 0
  m_Flare: {fileID: 0}
  m_RenderMode: 0
  m_CullingMask:
    serializedVersion: 2
    m_Bits: 4294967295
  m_Lightmapping: 1
  m_BounceIntensity: 1
  m_ShadowRadius: 0
  m_ShadowAngle: 0
  m_AreaSize: {x: 1, y: 1}
--- !u!4 &262359076
Transform:
  m_ObjectHideFlags: 0
  m_PrefabParentObject: {fileID: 0}
  m_PrefabInternal: {fileID: 0}
  m_GameObject: {fileID: 262359074}
  m_LocalRotation: {x: -0.78556836, y: 0.15059975, z: -0.21049243, w: -0.5620455}
  m_LocalPosition: {x: 30.892021, y: 1.1864296, z: 43.352272}
  m_LocalScale: {x: 1, y: 1, z: 1}
  m_Children: []
  m_Father: {fileID: 0}
  m_RootOrder: 1
--- !u!1 &269697071
GameObject:
  m_ObjectHideFlags: 0
  m_PrefabParentObject: {fileID: 100012, guid: ac2211405d10cff44855fe2b2d067ae1, type: 2}
  m_PrefabInternal: {fileID: 388396292}
  serializedVersion: 4
  m_Component:
  - 4: {fileID: 269697072}
  m_Layer: 0
  m_Name: Left_Ring_Finger_Joint_01b
  m_TagString: Untagged
  m_Icon: {fileID: 0}
  m_NavMeshLayer: 0
  m_StaticEditorFlags: 0
  m_IsActive: 1
--- !u!4 &269697072
Transform:
  m_ObjectHideFlags: 0
  m_PrefabParentObject: {fileID: 400012, guid: ac2211405d10cff44855fe2b2d067ae1, type: 2}
  m_PrefabInternal: {fileID: 388396292}
  m_GameObject: {fileID: 269697071}
  m_LocalRotation: {x: 0.0007561775, y: 0.00050791446, z: 0.011838988, w: 0.99992955}
  m_LocalPosition: {x: -0.038333587, y: -2.4980017e-18, z: 4.4126392e-18}
  m_LocalScale: {x: 1, y: 1, z: 1}
  m_Children:
  - {fileID: 772347868}
  m_Father: {fileID: 58522768}
  m_RootOrder: 0
--- !u!1 &344785244
GameObject:
  m_ObjectHideFlags: 0
  m_PrefabParentObject: {fileID: 100086, guid: ac2211405d10cff44855fe2b2d067ae1, type: 2}
  m_PrefabInternal: {fileID: 388396292}
  serializedVersion: 4
  m_Component:
  - 4: {fileID: 344785245}
  m_Layer: 0
  m_Name: Left_Upper_Arm_Joint_01
  m_TagString: Untagged
  m_Icon: {fileID: 0}
  m_NavMeshLayer: 0
  m_StaticEditorFlags: 0
  m_IsActive: 1
--- !u!4 &344785245
Transform:
  m_ObjectHideFlags: 0
  m_PrefabParentObject: {fileID: 400086, guid: ac2211405d10cff44855fe2b2d067ae1, type: 2}
  m_PrefabInternal: {fileID: 388396292}
  m_GameObject: {fileID: 344785244}
  m_LocalRotation: {x: 0.114033155, y: 0.00978106, z: 0.4396459, w: 0.89084923}
  m_LocalPosition: {x: -0.06358527, y: 0, z: -3.1086245e-17}
  m_LocalScale: {x: 1, y: 1, z: 1}
  m_Children:
  - {fileID: 1907115853}
  m_Father: {fileID: 1149454246}
  m_RootOrder: 0
--- !u!1001 &388396292
Prefab:
  m_ObjectHideFlags: 0
  serializedVersion: 2
  m_Modification:
    m_TransformParent: {fileID: 0}
    m_Modifications:
    - target: {fileID: 400100, guid: ac2211405d10cff44855fe2b2d067ae1, type: 2}
      propertyPath: m_LocalPosition.x
      value: 2.48876572
      objectReference: {fileID: 0}
    - target: {fileID: 400100, guid: ac2211405d10cff44855fe2b2d067ae1, type: 2}
      propertyPath: m_LocalPosition.y
      value: 1.59989262
      objectReference: {fileID: 0}
    - target: {fileID: 400100, guid: ac2211405d10cff44855fe2b2d067ae1, type: 2}
      propertyPath: m_LocalPosition.z
      value: 2.05591393
      objectReference: {fileID: 0}
    - target: {fileID: 400100, guid: ac2211405d10cff44855fe2b2d067ae1, type: 2}
      propertyPath: m_LocalRotation.x
      value: 0
      objectReference: {fileID: 0}
    - target: {fileID: 400100, guid: ac2211405d10cff44855fe2b2d067ae1, type: 2}
      propertyPath: m_LocalRotation.y
      value: 0
      objectReference: {fileID: 0}
    - target: {fileID: 400100, guid: ac2211405d10cff44855fe2b2d067ae1, type: 2}
      propertyPath: m_LocalRotation.z
      value: 0
      objectReference: {fileID: 0}
    - target: {fileID: 400100, guid: ac2211405d10cff44855fe2b2d067ae1, type: 2}
      propertyPath: m_LocalRotation.w
      value: 1
      objectReference: {fileID: 0}
    - target: {fileID: 11400006, guid: ac2211405d10cff44855fe2b2d067ae1, type: 2}
      propertyPath: viewIdField
      value: 1
      objectReference: {fileID: 0}
    - target: {fileID: 11400006, guid: ac2211405d10cff44855fe2b2d067ae1, type: 2}
      propertyPath: instantiationId
      value: 1
      objectReference: {fileID: 0}
    - target: {fileID: 11400000, guid: ac2211405d10cff44855fe2b2d067ae1, type: 2}
      propertyPath: m_PositionModel.InterpolateOption
      value: 1
      objectReference: {fileID: 0}
    m_RemovedComponents: []
  m_ParentPrefab: {fileID: 100100000, guid: ac2211405d10cff44855fe2b2d067ae1, type: 2}
  m_RootGameObject: {fileID: 717705105}
  m_IsPrefabParent: 0
--- !u!1 &404127379
GameObject:
  m_ObjectHideFlags: 0
  m_PrefabParentObject: {fileID: 100056, guid: ac2211405d10cff44855fe2b2d067ae1, type: 2}
  m_PrefabInternal: {fileID: 388396292}
  serializedVersion: 4
  m_Component:
  - 4: {fileID: 404127380}
  m_Layer: 0
  m_Name: Left_Middle_Finger_Joint_01c
  m_TagString: Untagged
  m_Icon: {fileID: 0}
  m_NavMeshLayer: 0
  m_StaticEditorFlags: 0
  m_IsActive: 1
--- !u!4 &404127380
Transform:
  m_ObjectHideFlags: 0
  m_PrefabParentObject: {fileID: 400056, guid: ac2211405d10cff44855fe2b2d067ae1, type: 2}
  m_PrefabInternal: {fileID: 388396292}
  m_GameObject: {fileID: 404127379}
  m_LocalRotation: {x: -0.010956354, y: -0.00023076385, z: -0.021056168, w: 0.99971825}
  m_LocalPosition: {x: -0.024933377, y: 1.4801235e-16, z: -4.9960034e-18}
  m_LocalScale: {x: 1, y: 1, z: 1}
  m_Children: []
  m_Father: {fileID: 1123259433}
  m_RootOrder: 0
--- !u!1 &429607078
GameObject:
  m_ObjectHideFlags: 0
  m_PrefabParentObject: {fileID: 100080, guid: ac2211405d10cff44855fe2b2d067ae1, type: 2}
  m_PrefabInternal: {fileID: 388396292}
  serializedVersion: 4
  m_Component:
  - 4: {fileID: 429607079}
  m_Layer: 0
  m_Name: Right_Thigh_Joint_01
  m_TagString: Untagged
  m_Icon: {fileID: 0}
  m_NavMeshLayer: 0
  m_StaticEditorFlags: 0
  m_IsActive: 1
--- !u!4 &429607079
Transform:
  m_ObjectHideFlags: 0
  m_PrefabParentObject: {fileID: 400080, guid: ac2211405d10cff44855fe2b2d067ae1, type: 2}
  m_PrefabInternal: {fileID: 388396292}
  m_GameObject: {fileID: 429607078}
  m_LocalRotation: {x: -0, y: 0, z: 0.9957005, w: -0.09263137}
  m_LocalPosition: {x: -0.1221335, y: 0.011331954, z: 0.0689056}
  m_LocalScale: {x: 1, y: 1, z: 1}
  m_Children:
  - {fileID: 584460378}
  m_Father: {fileID: 954560332}
  m_RootOrder: 1
--- !u!1 &439622495
GameObject:
  m_ObjectHideFlags: 0
  m_PrefabParentObject: {fileID: 100060, guid: ac2211405d10cff44855fe2b2d067ae1, type: 2}
  m_PrefabInternal: {fileID: 388396292}
  serializedVersion: 4
  m_Component:
  - 4: {fileID: 439622496}
  m_Layer: 0
  m_Name: Right_Index_Finger_Joint_01c
  m_TagString: Untagged
  m_Icon: {fileID: 0}
  m_NavMeshLayer: 0
  m_StaticEditorFlags: 0
  m_IsActive: 1
--- !u!4 &439622496
Transform:
  m_ObjectHideFlags: 0
  m_PrefabParentObject: {fileID: 400060, guid: ac2211405d10cff44855fe2b2d067ae1, type: 2}
  m_PrefabInternal: {fileID: 388396292}
  m_GameObject: {fileID: 439622495}
  m_LocalRotation: {x: -0.011016605, y: -0.0002521592, z: -0.022881629, w: 0.9996775}
  m_LocalPosition: {x: 0.022944802, y: -0.00000007977574, z: -0.00000007166869}
  m_LocalScale: {x: 1, y: 1, z: 1}
  m_Children: []
  m_Father: {fileID: 2011562879}
  m_RootOrder: 0
--- !u!1 &458480493
GameObject:
  m_ObjectHideFlags: 0
  m_PrefabParentObject: {fileID: 100076, guid: ac2211405d10cff44855fe2b2d067ae1, type: 2}
  m_PrefabInternal: {fileID: 388396292}
  serializedVersion: 4
  m_Component:
  - 4: {fileID: 458480494}
  m_Layer: 0
  m_Name: Right_Shoulder_Joint_01
  m_TagString: Untagged
  m_Icon: {fileID: 0}
  m_NavMeshLayer: 0
  m_StaticEditorFlags: 0
  m_IsActive: 1
--- !u!4 &458480494
Transform:
  m_ObjectHideFlags: 0
  m_PrefabParentObject: {fileID: 400076, guid: ac2211405d10cff44855fe2b2d067ae1, type: 2}
  m_PrefabInternal: {fileID: 388396292}
  m_GameObject: {fileID: 458480493}
  m_LocalRotation: {x: 0.4478345, y: 0.4105823, z: -0.5854564, w: 0.5367564}
  m_LocalPosition: {x: -0.24796993, y: -0.01896791, z: -0.13130699}
  m_LocalScale: {x: 1, y: 1, z: 1}
  m_Children:
  - {fileID: 920677062}
  m_Father: {fileID: 629809638}
  m_RootOrder: 2
--- !u!1 &523842503
GameObject:
  m_ObjectHideFlags: 0
  m_PrefabParentObject: {fileID: 100052, guid: ac2211405d10cff44855fe2b2d067ae1, type: 2}
  m_PrefabInternal: {fileID: 388396292}
  serializedVersion: 4
  m_Component:
  - 4: {fileID: 523842504}
  m_Layer: 0
  m_Name: Right_Forearm_Joint_01
  m_TagString: Untagged
  m_Icon: {fileID: 0}
  m_NavMeshLayer: 0
  m_StaticEditorFlags: 0
  m_IsActive: 1
--- !u!4 &523842504
Transform:
  m_ObjectHideFlags: 0
  m_PrefabParentObject: {fileID: 400052, guid: ac2211405d10cff44855fe2b2d067ae1, type: 2}
  m_PrefabInternal: {fileID: 388396292}
  m_GameObject: {fileID: 523842503}
  m_LocalRotation: {x: 0.7767065, y: 0.18686023, z: -0.025670227, w: 0.60095865}
  m_LocalPosition: {x: 0.24062023, y: 0.0051437393, z: -0.012117967}
  m_LocalScale: {x: 1, y: 1, z: 1}
  m_Children:
  - {fileID: 652104514}
  m_Father: {fileID: 920677062}
  m_RootOrder: 0
--- !u!1 &544802996
GameObject:
  m_ObjectHideFlags: 0
  m_PrefabParentObject: {fileID: 100022, guid: ac2211405d10cff44855fe2b2d067ae1, type: 2}
  m_PrefabInternal: {fileID: 388396292}
  serializedVersion: 4
  m_Component:
  - 4: {fileID: 544802997}
  m_Layer: 0
  m_Name: Left_Knee_Joint_01
  m_TagString: Untagged
  m_Icon: {fileID: 0}
  m_NavMeshLayer: 0
  m_StaticEditorFlags: 0
  m_IsActive: 1
--- !u!4 &544802997
Transform:
  m_ObjectHideFlags: 0
  m_PrefabParentObject: {fileID: 400022, guid: ac2211405d10cff44855fe2b2d067ae1, type: 2}
  m_PrefabInternal: {fileID: 388396292}
  m_GameObject: {fileID: 544802996}
  m_LocalRotation: {x: 4.4401062e-16, y: 8.354493e-18, z: 0.018812645, w: 0.99982303}
  m_LocalPosition: {x: -0.3717338, y: -0.0019966115, z: 0.07303617}
  m_LocalScale: {x: 1, y: 1, z: 1}
  m_Children:
  - {fileID: 1377595411}
  m_Father: {fileID: 1569816954}
  m_RootOrder: 0
--- !u!1 &584460377
GameObject:
  m_ObjectHideFlags: 0
  m_PrefabParentObject: {fileID: 100036, guid: ac2211405d10cff44855fe2b2d067ae1, type: 2}
  m_PrefabInternal: {fileID: 388396292}
  serializedVersion: 4
  m_Component:
  - 4: {fileID: 584460378}
  m_Layer: 0
  m_Name: Right_Knee_Joint_01
  m_TagString: Untagged
  m_Icon: {fileID: 0}
  m_NavMeshLayer: 0
  m_StaticEditorFlags: 0
  m_IsActive: 1
--- !u!4 &584460378
Transform:
  m_ObjectHideFlags: 0
  m_PrefabParentObject: {fileID: 400036, guid: ac2211405d10cff44855fe2b2d067ae1, type: 2}
  m_PrefabInternal: {fileID: 388396292}
  m_GameObject: {fileID: 584460377}
  m_LocalRotation: {x: 0, y: 0, z: -0.018812645, w: 0.99982303}
  m_LocalPosition: {x: 0.3717341, y: -0.001996706, z: 0.073036395}
  m_LocalScale: {x: 1, y: 1, z: 1}
  m_Children:
  - {fileID: 1184555197}
  m_Father: {fileID: 429607079}
  m_RootOrder: 0
--- !u!1 &629809637
GameObject:
  m_ObjectHideFlags: 0
  m_PrefabParentObject: {fileID: 100040, guid: ac2211405d10cff44855fe2b2d067ae1, type: 2}
  m_PrefabInternal: {fileID: 388396292}
  serializedVersion: 4
  m_Component:
  - 4: {fileID: 629809638}
  m_Layer: 0
  m_Name: Ribs
  m_TagString: Untagged
  m_Icon: {fileID: 0}
  m_NavMeshLayer: 0
  m_StaticEditorFlags: 0
  m_IsActive: 1
--- !u!4 &629809638
Transform:
  m_ObjectHideFlags: 0
  m_PrefabParentObject: {fileID: 400040, guid: ac2211405d10cff44855fe2b2d067ae1, type: 2}
  m_PrefabInternal: {fileID: 388396292}
  m_GameObject: {fileID: 629809637}
  m_LocalRotation: {x: 0, y: 0, z: -0.009375348, w: 0.9999561}
  m_LocalPosition: {x: -0.08024527, y: 0.00062167255, z: -9.82317e-18}
  m_LocalScale: {x: 1, y: 1, z: 1}
  m_Children:
  - {fileID: 1149454246}
  - {fileID: 1218954073}
  - {fileID: 458480494}
  m_Father: {fileID: 989719668}
  m_RootOrder: 1
--- !u!1 &652104513
GameObject:
  m_ObjectHideFlags: 0
  m_PrefabParentObject: {fileID: 100026, guid: ac2211405d10cff44855fe2b2d067ae1, type: 2}
  m_PrefabInternal: {fileID: 388396292}
  serializedVersion: 4
  m_Component:
  - 4: {fileID: 652104514}
  m_Layer: 0
  m_Name: Right_Wrist_Joint_01
  m_TagString: Untagged
  m_Icon: {fileID: 0}
  m_NavMeshLayer: 0
  m_StaticEditorFlags: 0
  m_IsActive: 1
--- !u!4 &652104514
Transform:
  m_ObjectHideFlags: 0
  m_PrefabParentObject: {fileID: 400026, guid: ac2211405d10cff44855fe2b2d067ae1, type: 2}
  m_PrefabInternal: {fileID: 388396292}
  m_GameObject: {fileID: 652104513}
  m_LocalRotation: {x: -0.7059572, y: -0.015687702, z: 0.0068027773, w: 0.70804816}
  m_LocalPosition: {x: 0.30588374, y: -0.03317292, z: 0.007066546}
  m_LocalScale: {x: 1, y: 1, z: 1}
  m_Children:
  - {fileID: 1997901460}
  - {fileID: 1247653005}
  - {fileID: 994108128}
  - {fileID: 27323910}
  - {fileID: 730149275}
  m_Father: {fileID: 523842504}
  m_RootOrder: 0
--- !u!1 &676202004
GameObject:
  m_ObjectHideFlags: 0
  m_PrefabParentObject: {fileID: 100068, guid: ac2211405d10cff44855fe2b2d067ae1, type: 2}
  m_PrefabInternal: {fileID: 388396292}
  serializedVersion: 4
  m_Component:
  - 4: {fileID: 676202005}
  m_Layer: 0
  m_Name: Right_Middle_Finger_Joint_01c
  m_TagString: Untagged
  m_Icon: {fileID: 0}
  m_NavMeshLayer: 0
  m_StaticEditorFlags: 0
  m_IsActive: 1
--- !u!4 &676202005
Transform:
  m_ObjectHideFlags: 0
  m_PrefabParentObject: {fileID: 400068, guid: ac2211405d10cff44855fe2b2d067ae1, type: 2}
  m_PrefabInternal: {fileID: 388396292}
  m_GameObject: {fileID: 676202004}
  m_LocalRotation: {x: -0.010956354, y: -0.00023076385, z: -0.021056168, w: 0.99971825}
  m_LocalPosition: {x: 0.024932733, y: -0.00000037860835, z: 0.000000067108736}
  m_LocalScale: {x: 1, y: 1, z: 1}
  m_Children: []
  m_Father: {fileID: 1024241938}
  m_RootOrder: 0
--- !u!1 &717705105
GameObject:
  m_ObjectHideFlags: 0
  m_PrefabParentObject: {fileID: 100100, guid: ac2211405d10cff44855fe2b2d067ae1, type: 2}
  m_PrefabInternal: {fileID: 388396292}
  serializedVersion: 4
  m_Component:
  - 4: {fileID: 717705106}
  - 114: {fileID: 717705111}
  - 95: {fileID: 717705110}
  - 143: {fileID: 717705109}
  - 114: {fileID: 717705108}
  - 114: {fileID: 717705107}
  m_Layer: 0
  m_Name: Robot Kyle RPG
  m_TagString: Player
  m_Icon: {fileID: 0}
  m_NavMeshLayer: 0
  m_StaticEditorFlags: 0
  m_IsActive: 1
--- !u!4 &717705106
Transform:
  m_ObjectHideFlags: 0
  m_PrefabParentObject: {fileID: 400100, guid: ac2211405d10cff44855fe2b2d067ae1, type: 2}
  m_PrefabInternal: {fileID: 388396292}
  m_GameObject: {fileID: 717705105}
  m_LocalRotation: {x: 0, y: 0, z: 0, w: 1}
  m_LocalPosition: {x: 2.4887657, y: 1.5998926, z: 2.055914}
  m_LocalScale: {x: 1, y: 1, z: 1}
  m_Children:
  - {fileID: 1716291218}
  - {fileID: 989719668}
  m_Father: {fileID: 0}
  m_RootOrder: 3
--- !u!114 &717705107
MonoBehaviour:
  m_ObjectHideFlags: 0
  m_PrefabParentObject: {fileID: 11400000, guid: ac2211405d10cff44855fe2b2d067ae1,
    type: 2}
  m_PrefabInternal: {fileID: 388396292}
  m_GameObject: {fileID: 717705105}
  m_Enabled: 1
  m_EditorHideFlags: 0
  m_Script: {fileID: 11500000, guid: 627855c7f81362d41938ffe0b1475957, type: 3}
  m_Name: 
  m_EditorClassIdentifier: 
  m_PositionModel:
    SynchronizeEnabled: 1
    TeleportEnabled: 1
    TeleportIfDistanceGreaterThan: 3
    InterpolateOption: 1
    InterpolateMoveTowardsSpeed: 8
    InterpolateLerpSpeed: 0
    InterpolateMoveTowardsAcceleration: 2
    InterpolateMoveTowardsDeceleration: 2
    InterpolateSpeedCurve:
      serializedVersion: 2
      m_Curve:
      - time: -1
        value: 0
        inSlope: 0
        outSlope: Infinity
        tangentMode: 0
      - time: 0
        value: 1
        inSlope: 0
        outSlope: 0
        tangentMode: 0
      - time: 1
        value: 1
        inSlope: 0
        outSlope: 1
        tangentMode: 0
      - time: 4
        value: 4
        inSlope: 1
        outSlope: 0
        tangentMode: 0
      m_PreInfinity: 2
      m_PostInfinity: 2
      m_RotationOrder: 4
    ExtrapolateOption: 0
    ExtrapolateSpeed: 10
    ExtrapolateIncludingRoundTripTime: 1
    ExtrapolateNumberOfStoredPositions: 1
    DrawErrorGizmo: 1
  m_RotationModel:
    SynchronizeEnabled: 1
    InterpolateOption: 0
    InterpolateRotateTowardsSpeed: 0
    InterpolateLerpSpeed: 0
  m_ScaleModel:
    SynchronizeEnabled: 0
    InterpolateOption: 0
    InterpolateMoveTowardsSpeed: 0
    InterpolateLerpSpeed: 0
--- !u!114 &717705108
MonoBehaviour:
  m_ObjectHideFlags: 0
  m_PrefabParentObject: {fileID: 11400006, guid: ac2211405d10cff44855fe2b2d067ae1,
    type: 2}
  m_PrefabInternal: {fileID: 388396292}
  m_GameObject: {fileID: 717705105}
  m_Enabled: 1
  m_EditorHideFlags: 0
  m_Script: {fileID: 11500000, guid: aa584fbee541324448dd18d8409c7a41, type: 3}
  m_Name: 
  m_EditorClassIdentifier: 
  ownerId: 0
  group: 0
  OwnerShipWasTransfered: 0
  prefixBackup: -1
  synchronization: 3
  onSerializeTransformOption: 3
  onSerializeRigidBodyOption: 2
  ownershipTransfer: 0
  ObservedComponents:
  - {fileID: 717705107}
  ObservedComponentsFoldoutOpen: 1
  viewIdField: 1
  instantiationId: 1
  currentMasterID: -1
  isRuntimeInstantiated: 0
--- !u!143 &717705109
CharacterController:
  m_ObjectHideFlags: 0
  m_PrefabParentObject: {fileID: 14300000, guid: ac2211405d10cff44855fe2b2d067ae1,
    type: 2}
  m_PrefabInternal: {fileID: 388396292}
  m_GameObject: {fileID: 717705105}
  m_Material: {fileID: 0}
  m_IsTrigger: 0
  m_Enabled: 1
  serializedVersion: 2
  m_Height: 1.8
  m_Radius: 0.5
  m_SlopeLimit: 45
  m_StepOffset: 0.3
  m_SkinWidth: 0.08
  m_MinMoveDistance: 0
  m_Center: {x: 0, y: 0.9, z: 0}
--- !u!95 &717705110
Animator:
  serializedVersion: 3
  m_ObjectHideFlags: 0
  m_PrefabParentObject: {fileID: 9500000, guid: ac2211405d10cff44855fe2b2d067ae1,
    type: 2}
  m_PrefabInternal: {fileID: 388396292}
  m_GameObject: {fileID: 717705105}
  m_Enabled: 1
  m_Avatar: {fileID: 9000000, guid: 320b1c2af77554f99a1658df4a6d3d5c, type: 3}
  m_Controller: {fileID: 9100000, guid: 2608c949cda1edd44a9ae292d08e55d3, type: 2}
  m_CullingMode: 1
  m_UpdateMode: 0
  m_ApplyRootMotion: 0
  m_LinearVelocityBlending: 0
  m_WarningMessage: 
  m_HasTransformHierarchy: 1
  m_AllowConstantClipSamplingOptimization: 1
--- !u!114 &717705111
MonoBehaviour:
  m_ObjectHideFlags: 0
  m_PrefabParentObject: {fileID: 11400008, guid: ac2211405d10cff44855fe2b2d067ae1,
    type: 2}
  m_PrefabInternal: {fileID: 388396292}
  m_GameObject: {fileID: 717705105}
  m_Enabled: 1
  m_EditorHideFlags: 0
  m_Script: {fileID: 11500000, guid: 747b79b3c36c70c40a71f4542e7e3934, type: 3}
  m_Name: 
  m_EditorClassIdentifier: 
  ForwardSpeed: 8
  BackwardSpeed: 4
  StrafeSpeed: 5
  RotateSpeed: 110
--- !u!1 &730149274
GameObject:
  m_ObjectHideFlags: 0
  m_PrefabParentObject: {fileID: 100028, guid: ac2211405d10cff44855fe2b2d067ae1, type: 2}
  m_PrefabInternal: {fileID: 388396292}
  serializedVersion: 4
  m_Component:
  - 4: {fileID: 730149275}
  m_Layer: 0
  m_Name: Right_Thumb_Joint_01a
  m_TagString: Untagged
  m_Icon: {fileID: 0}
  m_NavMeshLayer: 0
  m_StaticEditorFlags: 0
  m_IsActive: 1
--- !u!4 &730149275
Transform:
  m_ObjectHideFlags: 0
  m_PrefabParentObject: {fileID: 400028, guid: ac2211405d10cff44855fe2b2d067ae1, type: 2}
  m_PrefabInternal: {fileID: 388396292}
  m_GameObject: {fileID: 730149274}
  m_LocalRotation: {x: 0.4233163, y: 0.3750433, z: -0.09540078, w: 0.8191731}
  m_LocalPosition: {x: 0.046120938, y: 0.0039559877, z: -0.04782508}
  m_LocalScale: {x: 1, y: 1, z: 1}
  m_Children:
  - {fileID: 1818751358}
  m_Father: {fileID: 652104514}
  m_RootOrder: 4
--- !u!1 &771022289
GameObject:
  m_ObjectHideFlags: 0
  m_PrefabParentObject: {fileID: 100030, guid: 65958169df7da744f8a00377b897d233, type: 2}
  m_PrefabInternal: {fileID: 0}
  serializedVersion: 4
  m_Component:
  - 4: {fileID: 771022291}
  - 114: {fileID: 771022290}
  m_Layer: 0
  m_Name: RPG Camera
  m_TagString: Player
  m_Icon: {fileID: 0}
  m_NavMeshLayer: 0
  m_StaticEditorFlags: 0
  m_IsActive: 1
--- !u!114 &771022290
MonoBehaviour:
  m_ObjectHideFlags: 0
  m_PrefabParentObject: {fileID: 0}
  m_PrefabInternal: {fileID: 0}
  m_GameObject: {fileID: 771022289}
  m_Enabled: 1
  m_EditorHideFlags: 0
  m_Script: {fileID: 11500000, guid: 45d2cd5ac7ae5de4d91fd395f8d61afd, type: 3}
  m_Name: 
  m_EditorClassIdentifier: 
  Target: {fileID: 0}
  MaximumDistance: 7
  MinimumDistance: 1
  ScrollModifier: 2
  TurnModifier: 2
--- !u!4 &771022291
Transform:
  m_ObjectHideFlags: 0
  m_PrefabParentObject: {fileID: 400030, guid: 65958169df7da744f8a00377b897d233, type: 2}
  m_PrefabInternal: {fileID: 0}
  m_GameObject: {fileID: 771022289}
  m_LocalRotation: {x: 0, y: 0, z: 0, w: 1}
  m_LocalPosition: {x: 33.55249, y: 1.5998926, z: 20.104156}
  m_LocalScale: {x: 1, y: 1, z: 1}
  m_Children:
  - {fileID: 42749691}
  m_Father: {fileID: 0}
  m_RootOrder: 4
--- !u!1 &772347867
GameObject:
  m_ObjectHideFlags: 0
  m_PrefabParentObject: {fileID: 100030, guid: ac2211405d10cff44855fe2b2d067ae1, type: 2}
  m_PrefabInternal: {fileID: 388396292}
  serializedVersion: 4
  m_Component:
  - 4: {fileID: 772347868}
  m_Layer: 0
  m_Name: Left_Ring_Finger_Joint_01c
  m_TagString: Untagged
  m_Icon: {fileID: 0}
  m_NavMeshLayer: 0
  m_StaticEditorFlags: 0
  m_IsActive: 1
--- !u!4 &772347868
Transform:
  m_ObjectHideFlags: 0
  m_PrefabParentObject: {fileID: 400030, guid: ac2211405d10cff44855fe2b2d067ae1, type: 2}
  m_PrefabInternal: {fileID: 388396292}
  m_GameObject: {fileID: 772347867}
  m_LocalRotation: {x: -0.011060424, y: -0.000267697, z: -0.024194574, w: 0.99964607}
  m_LocalPosition: {x: -0.021700656, y: -6.477451e-17, z: 8.274631e-18}
  m_LocalScale: {x: 1, y: 1, z: 1}
  m_Children: []
  m_Father: {fileID: 269697072}
  m_RootOrder: 0
--- !u!1 &920677061
GameObject:
  m_ObjectHideFlags: 0
  m_PrefabParentObject: {fileID: 100006, guid: ac2211405d10cff44855fe2b2d067ae1, type: 2}
  m_PrefabInternal: {fileID: 388396292}
  serializedVersion: 4
  m_Component:
  - 4: {fileID: 920677062}
  m_Layer: 0
  m_Name: Right_Upper_Arm_Joint_01
  m_TagString: Untagged
  m_Icon: {fileID: 0}
  m_NavMeshLayer: 0
  m_StaticEditorFlags: 0
  m_IsActive: 1
--- !u!4 &920677062
Transform:
  m_ObjectHideFlags: 0
  m_PrefabParentObject: {fileID: 400006, guid: ac2211405d10cff44855fe2b2d067ae1, type: 2}
  m_PrefabInternal: {fileID: 388396292}
  m_GameObject: {fileID: 920677061}
  m_LocalRotation: {x: -0.0008169309, y: -0.05782889, z: 0.36165696, w: 0.93051565}
  m_LocalPosition: {x: 0.063585564, y: 2.842171e-16, z: -0.000000039259945}
  m_LocalScale: {x: 1, y: 1, z: 1}
  m_Children:
  - {fileID: 523842504}
  m_Father: {fileID: 458480494}
  m_RootOrder: 0
--- !u!1 &948539127
GameObject:
  m_ObjectHideFlags: 0
  m_PrefabParentObject: {fileID: 100000, guid: ac2211405d10cff44855fe2b2d067ae1, type: 2}
  m_PrefabInternal: {fileID: 388396292}
  serializedVersion: 4
  m_Component:
  - 4: {fileID: 948539128}
  m_Layer: 0
  m_Name: Left_Thumb_Joint_01a
  m_TagString: Untagged
  m_Icon: {fileID: 0}
  m_NavMeshLayer: 0
  m_StaticEditorFlags: 0
  m_IsActive: 1
--- !u!4 &948539128
Transform:
  m_ObjectHideFlags: 0
  m_PrefabParentObject: {fileID: 400000, guid: ac2211405d10cff44855fe2b2d067ae1, type: 2}
  m_PrefabInternal: {fileID: 388396292}
  m_GameObject: {fileID: 948539127}
  m_LocalRotation: {x: 0.42036253, y: 0.37180415, z: -0.08352769, w: 0.8234563}
  m_LocalPosition: {x: -0.046887316, y: -0.004865311, z: 0.046988335}
  m_LocalScale: {x: 1, y: 1, z: 1}
  m_Children:
  - {fileID: 1454550074}
  m_Father: {fileID: 55155873}
  m_RootOrder: 4
--- !u!1 &954560331
GameObject:
  m_ObjectHideFlags: 0
  m_PrefabParentObject: {fileID: 100062, guid: ac2211405d10cff44855fe2b2d067ae1, type: 2}
  m_PrefabInternal: {fileID: 388396292}
  serializedVersion: 4
  m_Component:
  - 4: {fileID: 954560332}
  m_Layer: 0
  m_Name: Hip
  m_TagString: Untagged
  m_Icon: {fileID: 0}
  m_NavMeshLayer: 0
  m_StaticEditorFlags: 0
  m_IsActive: 1
--- !u!4 &954560332
Transform:
  m_ObjectHideFlags: 0
  m_PrefabParentObject: {fileID: 400062, guid: ac2211405d10cff44855fe2b2d067ae1, type: 2}
  m_PrefabInternal: {fileID: 388396292}
  m_GameObject: {fileID: 954560331}
  m_LocalRotation: {x: 0.037740186, y: 0.9992876, z: 5.5119633e-17, w: 1.6300862e-16}
  m_LocalPosition: {x: 0.028992068, y: -0.0025938721, z: 1.22991095e-17}
  m_LocalScale: {x: 1, y: 1, z: 1}
  m_Children:
  - {fileID: 1569816954}
  - {fileID: 429607079}
  m_Father: {fileID: 989719668}
  m_RootOrder: 0
--- !u!1 &989719667
GameObject:
  m_ObjectHideFlags: 0
  m_PrefabParentObject: {fileID: 100074, guid: ac2211405d10cff44855fe2b2d067ae1, type: 2}
  m_PrefabInternal: {fileID: 388396292}
  serializedVersion: 4
  m_Component:
  - 4: {fileID: 989719668}
  m_Layer: 0
  m_Name: Root
  m_TagString: Untagged
  m_Icon: {fileID: 0}
  m_NavMeshLayer: 0
  m_StaticEditorFlags: 0
  m_IsActive: 1
--- !u!4 &989719668
Transform:
  m_ObjectHideFlags: 0
  m_PrefabParentObject: {fileID: 400074, guid: ac2211405d10cff44855fe2b2d067ae1, type: 2}
  m_PrefabInternal: {fileID: 388396292}
  m_GameObject: {fileID: 989719667}
  m_LocalRotation: {x: 0.4729446, y: -0.5256648, z: -0.4729446, w: 0.5256648}
  m_LocalPosition: {x: -2.1878564e-33, y: 1.0628308, z: 0.035129853}
  m_LocalScale: {x: 1, y: 1, z: 1}
  m_Children:
  - {fileID: 954560332}
  - {fileID: 629809638}
  m_Father: {fileID: 717705106}
  m_RootOrder: 1
--- !u!1 &994108127
GameObject:
  m_ObjectHideFlags: 0
  m_PrefabParentObject: {fileID: 100088, guid: ac2211405d10cff44855fe2b2d067ae1, type: 2}
  m_PrefabInternal: {fileID: 388396292}
  serializedVersion: 4
  m_Component:
  - 4: {fileID: 994108128}
  m_Layer: 0
  m_Name: Right_Pinky_Finger_Joint_01a
  m_TagString: Untagged
  m_Icon: {fileID: 0}
  m_NavMeshLayer: 0
  m_StaticEditorFlags: 0
  m_IsActive: 1
--- !u!4 &994108128
Transform:
  m_ObjectHideFlags: 0
  m_PrefabParentObject: {fileID: 400088, guid: ac2211405d10cff44855fe2b2d067ae1, type: 2}
  m_PrefabInternal: {fileID: 388396292}
  m_GameObject: {fileID: 994108127}
  m_LocalRotation: {x: 0.010538501, y: 0.008739322, z: 0.005554213, w: 0.99989086}
  m_LocalPosition: {x: 0.07244643, y: -0.013907843, z: 0.031932004}
  m_LocalScale: {x: 1, y: 1, z: 1}
  m_Children:
  - {fileID: 2004231202}
  m_Father: {fileID: 652104514}
  m_RootOrder: 2
--- !u!1 &1024241937
GameObject:
  m_ObjectHideFlags: 0
  m_PrefabParentObject: {fileID: 100010, guid: ac2211405d10cff44855fe2b2d067ae1, type: 2}
  m_PrefabInternal: {fileID: 388396292}
  serializedVersion: 4
  m_Component:
  - 4: {fileID: 1024241938}
  m_Layer: 0
  m_Name: Right_Middle_Finger_Joint_01b
  m_TagString: Untagged
  m_Icon: {fileID: 0}
  m_NavMeshLayer: 0
  m_StaticEditorFlags: 0
  m_IsActive: 1
--- !u!4 &1024241938
Transform:
  m_ObjectHideFlags: 0
  m_PrefabParentObject: {fileID: 400010, guid: ac2211405d10cff44855fe2b2d067ae1, type: 2}
  m_PrefabInternal: {fileID: 388396292}
  m_GameObject: {fileID: 1024241937}
  m_LocalRotation: {x: 0.00064981345, y: 0.00044095775, z: 0.010304516, w: 0.9999466}
  m_LocalPosition: {x: 0.044053018, y: 0.0000006337014, z: -0.000000019575731}
  m_LocalScale: {x: 1, y: 1, z: 1}
  m_Children:
  - {fileID: 676202005}
  m_Father: {fileID: 1247653005}
  m_RootOrder: 0
--- !u!1 &1123259432
GameObject:
  m_ObjectHideFlags: 0
  m_PrefabParentObject: {fileID: 100004, guid: ac2211405d10cff44855fe2b2d067ae1, type: 2}
  m_PrefabInternal: {fileID: 388396292}
  serializedVersion: 4
  m_Component:
  - 4: {fileID: 1123259433}
  m_Layer: 0
  m_Name: Left_Middle_Finger_Joint_01b
  m_TagString: Untagged
  m_Icon: {fileID: 0}
  m_NavMeshLayer: 0
  m_StaticEditorFlags: 0
  m_IsActive: 1
--- !u!4 &1123259433
Transform:
  m_ObjectHideFlags: 0
  m_PrefabParentObject: {fileID: 400004, guid: ac2211405d10cff44855fe2b2d067ae1, type: 2}
  m_PrefabInternal: {fileID: 388396292}
  m_GameObject: {fileID: 1123259432}
  m_LocalRotation: {x: 0.00064981345, y: 0.00044095775, z: 0.010304516, w: 0.9999466}
  m_LocalPosition: {x: -0.044052828, y: 2.220446e-18, z: 1.3147821e-18}
  m_LocalScale: {x: 1, y: 1, z: 1}
  m_Children:
  - {fileID: 404127380}
  m_Father: {fileID: 8633712}
  m_RootOrder: 0
--- !u!1 &1149454245
GameObject:
  m_ObjectHideFlags: 0
  m_PrefabParentObject: {fileID: 100048, guid: ac2211405d10cff44855fe2b2d067ae1, type: 2}
  m_PrefabInternal: {fileID: 388396292}
  serializedVersion: 4
  m_Component:
  - 4: {fileID: 1149454246}
  m_Layer: 0
  m_Name: Left_Shoulder_Joint_01
  m_TagString: Untagged
  m_Icon: {fileID: 0}
  m_NavMeshLayer: 0
  m_StaticEditorFlags: 0
  m_IsActive: 1
--- !u!4 &1149454246
Transform:
  m_ObjectHideFlags: 0
  m_PrefabParentObject: {fileID: 400048, guid: ac2211405d10cff44855fe2b2d067ae1, type: 2}
  m_PrefabInternal: {fileID: 388396292}
  m_GameObject: {fileID: 1149454245}
  m_LocalRotation: {x: -0.4105823, y: 0.4478345, z: 0.5367564, w: 0.5854564}
  m_LocalPosition: {x: -0.24796544, y: -0.018968333, z: 0.13130726}
  m_LocalScale: {x: 1, y: 1, z: 1}
  m_Children:
  - {fileID: 344785245}
  m_Father: {fileID: 629809638}
  m_RootOrder: 0
--- !u!1 &1184555196
GameObject:
  m_ObjectHideFlags: 0
  m_PrefabParentObject: {fileID: 100020, guid: ac2211405d10cff44855fe2b2d067ae1, type: 2}
  m_PrefabInternal: {fileID: 388396292}
  serializedVersion: 4
  m_Component:
  - 4: {fileID: 1184555197}
  m_Layer: 0
  m_Name: Right_Ankle_Joint_01
  m_TagString: Untagged
  m_Icon: {fileID: 0}
  m_NavMeshLayer: 0
  m_StaticEditorFlags: 0
  m_IsActive: 1
--- !u!4 &1184555197
Transform:
  m_ObjectHideFlags: 0
  m_PrefabParentObject: {fileID: 400020, guid: ac2211405d10cff44855fe2b2d067ae1, type: 2}
  m_PrefabInternal: {fileID: 388396292}
  m_GameObject: {fileID: 1184555196}
  m_LocalRotation: {x: 0, y: 0, z: -0.49436495, w: 0.86925447}
  m_LocalPosition: {x: 0.43404976, y: 0.00000007899868, z: -1.7763568e-17}
  m_LocalScale: {x: 1, y: 1, z: 1}
  m_Children:
  - {fileID: 1971176117}
  m_Father: {fileID: 584460378}
  m_RootOrder: 0
--- !u!1 &1194127125
GameObject:
  m_ObjectHideFlags: 0
  m_PrefabParentObject: {fileID: 0}
  m_PrefabInternal: {fileID: 0}
  serializedVersion: 4
  m_Component:
  - 4: {fileID: 1194127128}
  - 218: {fileID: 1194127127}
  - 154: {fileID: 1194127126}
  m_Layer: 0
  m_Name: Terrain
  m_TagString: Untagged
  m_Icon: {fileID: 0}
  m_NavMeshLayer: 0
  m_StaticEditorFlags: 4294967295
  m_IsActive: 1
--- !u!154 &1194127126
TerrainCollider:
  m_ObjectHideFlags: 0
  m_PrefabParentObject: {fileID: 0}
  m_PrefabInternal: {fileID: 0}
  m_GameObject: {fileID: 1194127125}
  m_Material: {fileID: 0}
  m_Enabled: 1
  m_TerrainData: {fileID: 15600000, guid: f79ff8ffe534cf94994c4fc73568fecc, type: 2}
  m_EnableTreeColliders: 1
--- !u!218 &1194127127
Terrain:
  m_ObjectHideFlags: 0
  m_PrefabParentObject: {fileID: 0}
  m_PrefabInternal: {fileID: 0}
  m_GameObject: {fileID: 1194127125}
  m_Enabled: 1
  serializedVersion: 3
  m_TerrainData: {fileID: 15600000, guid: f79ff8ffe534cf94994c4fc73568fecc, type: 2}
  m_TreeDistance: 2000
  m_TreeBillboardDistance: 50
  m_TreeCrossFadeLength: 5
  m_TreeMaximumFullLODCount: 50
  m_DetailObjectDistance: 80
  m_DetailObjectDensity: 1
  m_HeightmapPixelError: 5
  m_SplatMapDistance: 1000
  m_HeightmapMaximumLOD: 0
  m_CastShadows: 1
  m_DrawHeightmap: 1
  m_DrawTreesAndFoliage: 1
  m_ReflectionProbeUsage: 1
  m_MaterialType: 1
  m_LegacySpecular:
    serializedVersion: 2
    rgba: 4286545791
  m_LegacyShininess: 0.078125
  m_MaterialTemplate: {fileID: 0}
  m_BakeLightProbesForTrees: 1
  m_ScaleInLightmap: 1
  m_LightmapParameters: {fileID: 15203, guid: 0000000000000000f000000000000000, type: 0}
--- !u!4 &1194127128
Transform:
  m_ObjectHideFlags: 0
  m_PrefabParentObject: {fileID: 0}
  m_PrefabInternal: {fileID: 0}
  m_GameObject: {fileID: 1194127125}
  m_LocalRotation: {x: 0, y: 0, z: 0, w: 1}
  m_LocalPosition: {x: 0, y: 0, z: 0}
  m_LocalScale: {x: 1, y: 1, z: 1}
  m_Children: []
  m_Father: {fileID: 0}
  m_RootOrder: 5
--- !u!1 &1218954072
GameObject:
  m_ObjectHideFlags: 0
  m_PrefabParentObject: {fileID: 100096, guid: ac2211405d10cff44855fe2b2d067ae1, type: 2}
  m_PrefabInternal: {fileID: 388396292}
  serializedVersion: 4
  m_Component:
  - 4: {fileID: 1218954073}
  m_Layer: 0
  m_Name: Neck
  m_TagString: Untagged
  m_Icon: {fileID: 0}
  m_NavMeshLayer: 0
  m_StaticEditorFlags: 0
  m_IsActive: 1
--- !u!4 &1218954073
Transform:
  m_ObjectHideFlags: 0
  m_PrefabParentObject: {fileID: 400096, guid: ac2211405d10cff44855fe2b2d067ae1, type: 2}
  m_PrefabInternal: {fileID: 388396292}
  m_GameObject: {fileID: 1218954072}
  m_LocalRotation: {x: 0, y: 0, z: -0.15122359, w: 0.9884996}
  m_LocalPosition: {x: -0.39539942, y: 1.2878587e-16, z: -8.9015506e-17}
  m_LocalScale: {x: 1, y: 1, z: 1}
  m_Children:
  - {fileID: 97336553}
  m_Father: {fileID: 629809638}
  m_RootOrder: 1
--- !u!1 &1247653004
GameObject:
  m_ObjectHideFlags: 0
  m_PrefabParentObject: {fileID: 100018, guid: ac2211405d10cff44855fe2b2d067ae1, type: 2}
  m_PrefabInternal: {fileID: 388396292}
  serializedVersion: 4
  m_Component:
  - 4: {fileID: 1247653005}
  m_Layer: 0
  m_Name: Right_Middle_Finger_Joint_01a
  m_TagString: Untagged
  m_Icon: {fileID: 0}
  m_NavMeshLayer: 0
  m_StaticEditorFlags: 0
  m_IsActive: 1
--- !u!4 &1247653005
Transform:
  m_ObjectHideFlags: 0
  m_PrefabParentObject: {fileID: 400018, guid: ac2211405d10cff44855fe2b2d067ae1, type: 2}
  m_PrefabInternal: {fileID: 388396292}
  m_GameObject: {fileID: 1247653004}
  m_LocalRotation: {x: 0.010496695, y: 0.008789492, z: 0.0007846789, w: 0.999906}
  m_LocalPosition: {x: 0.07144747, y: -0.013888802, z: -0.0063472134}
  m_LocalScale: {x: 1, y: 1, z: 1}
  m_Children:
  - {fileID: 1024241938}
  m_Father: {fileID: 652104514}
  m_RootOrder: 1
--- !u!1 &1349936074
GameObject:
  m_ObjectHideFlags: 0
  m_PrefabParentObject: {fileID: 100044, guid: ac2211405d10cff44855fe2b2d067ae1, type: 2}
  m_PrefabInternal: {fileID: 388396292}
  serializedVersion: 4
  m_Component:
  - 4: {fileID: 1349936075}
  m_Layer: 0
  m_Name: Right_Ring_Finger_Joint_01c
  m_TagString: Untagged
  m_Icon: {fileID: 0}
  m_NavMeshLayer: 0
  m_StaticEditorFlags: 0
  m_IsActive: 1
--- !u!4 &1349936075
Transform:
  m_ObjectHideFlags: 0
  m_PrefabParentObject: {fileID: 400044, guid: ac2211405d10cff44855fe2b2d067ae1, type: 2}
  m_PrefabInternal: {fileID: 388396292}
  m_GameObject: {fileID: 1349936074}
  m_LocalRotation: {x: -0.011060424, y: -0.000267697, z: -0.024194574, w: 0.99964607}
  m_LocalPosition: {x: 0.02170031, y: 0.00000020217867, z: -0.00000009377064}
  m_LocalScale: {x: 1, y: 1, z: 1}
  m_Children: []
  m_Father: {fileID: 1838785864}
  m_RootOrder: 0
--- !u!1 &1377595410
GameObject:
  m_ObjectHideFlags: 0
  m_PrefabParentObject: {fileID: 100082, guid: ac2211405d10cff44855fe2b2d067ae1, type: 2}
  m_PrefabInternal: {fileID: 388396292}
  serializedVersion: 4
  m_Component:
  - 4: {fileID: 1377595411}
  m_Layer: 0
  m_Name: Left_Ankle_Joint_01
  m_TagString: Untagged
  m_Icon: {fileID: 0}
  m_NavMeshLayer: 0
  m_StaticEditorFlags: 0
  m_IsActive: 1
--- !u!4 &1377595411
Transform:
  m_ObjectHideFlags: 0
  m_PrefabParentObject: {fileID: 400082, guid: ac2211405d10cff44855fe2b2d067ae1, type: 2}
  m_PrefabInternal: {fileID: 388396292}
  m_GameObject: {fileID: 1377595410}
  m_LocalRotation: {x: 0.86925447, y: 0.49436495, z: 3.027112e-17, w: 5.3226485e-17}
  m_LocalPosition: {x: -0.43405014, y: -8.4273525e-18, z: -8.746468e-18}
  m_LocalScale: {x: 1, y: 1, z: 1}
  m_Children:
  - {fileID: 1932013725}
  m_Father: {fileID: 544802997}
  m_RootOrder: 0
--- !u!1 &1454550073
GameObject:
  m_ObjectHideFlags: 0
  m_PrefabParentObject: {fileID: 100084, guid: ac2211405d10cff44855fe2b2d067ae1, type: 2}
  m_PrefabInternal: {fileID: 388396292}
  serializedVersion: 4
  m_Component:
  - 4: {fileID: 1454550074}
  m_Layer: 0
  m_Name: Left_Thumb_Joint_01b
  m_TagString: Untagged
  m_Icon: {fileID: 0}
  m_NavMeshLayer: 0
  m_StaticEditorFlags: 0
  m_IsActive: 1
--- !u!4 &1454550074
Transform:
  m_ObjectHideFlags: 0
  m_PrefabParentObject: {fileID: 400084, guid: ac2211405d10cff44855fe2b2d067ae1, type: 2}
  m_PrefabInternal: {fileID: 388396292}
  m_GameObject: {fileID: 1454550073}
  m_LocalRotation: {x: -0.42036253, y: -0.37180415, z: 0.08352769, w: 0.8234563}
  m_LocalPosition: {x: -0.028778248, y: -0.0016480584, z: -0.002403863}
  m_LocalScale: {x: 1, y: 1, z: 1}
  m_Children: []
  m_Father: {fileID: 948539128}
  m_RootOrder: 0
--- !u!1 &1569816953
GameObject:
  m_ObjectHideFlags: 0
  m_PrefabParentObject: {fileID: 100014, guid: ac2211405d10cff44855fe2b2d067ae1, type: 2}
  m_PrefabInternal: {fileID: 388396292}
  serializedVersion: 4
  m_Component:
  - 4: {fileID: 1569816954}
  m_Layer: 0
  m_Name: Left_Thigh_Joint_01
  m_TagString: Untagged
  m_Icon: {fileID: 0}
  m_NavMeshLayer: 0
  m_StaticEditorFlags: 0
  m_IsActive: 1
--- !u!4 &1569816954
Transform:
  m_ObjectHideFlags: 0
  m_PrefabParentObject: {fileID: 400014, guid: ac2211405d10cff44855fe2b2d067ae1, type: 2}
  m_PrefabInternal: {fileID: 388396292}
  m_GameObject: {fileID: 1569816953}
  m_LocalRotation: {x: 0.9957005, y: 0.09263137, z: 6.7376925e-17, w: 7.2423885e-16}
  m_LocalPosition: {x: -0.12213361, y: 0.011331997, z: -0.068905555}
  m_LocalScale: {x: 1, y: 1, z: 1}
  m_Children:
  - {fileID: 544802997}
  m_Father: {fileID: 954560332}
  m_RootOrder: 0
--- !u!1 &1607803391
GameObject:
  m_ObjectHideFlags: 0
  m_PrefabParentObject: {fileID: 0}
  m_PrefabInternal: {fileID: 0}
  serializedVersion: 4
  m_Component:
  - 4: {fileID: 1607803393}
  - 108: {fileID: 1607803392}
  m_Layer: 0
  m_Name: Directional light
  m_TagString: Untagged
  m_Icon: {fileID: 0}
  m_NavMeshLayer: 0
  m_StaticEditorFlags: 0
  m_IsActive: 1
--- !u!108 &1607803392
Light:
  m_ObjectHideFlags: 0
  m_PrefabParentObject: {fileID: 0}
  m_PrefabInternal: {fileID: 0}
  m_GameObject: {fileID: 1607803391}
  m_Enabled: 1
  serializedVersion: 6
  m_Type: 1
  m_Color: {r: 1, g: 1, b: 1, a: 1}
  m_Intensity: 1
  m_Range: 10
  m_SpotAngle: 30
  m_CookieSize: 10
  m_Shadows:
    m_Type: 1
    m_Resolution: 3
    m_Strength: 0.531
    m_Bias: 0.05
    m_NormalBias: 0.4
    m_NearPlane: 0.2
  m_Cookie: {fileID: 0}
  m_DrawHalo: 0
  m_Flare: {fileID: 0}
  m_RenderMode: 0
  m_CullingMask:
    serializedVersion: 2
    m_Bits: 4294967295
  m_Lightmapping: 1
  m_BounceIntensity: 1
  m_ShadowRadius: 0
  m_ShadowAngle: 0
  m_AreaSize: {x: 1, y: 1}
--- !u!4 &1607803393
Transform:
  m_ObjectHideFlags: 0
  m_PrefabParentObject: {fileID: 0}
  m_PrefabInternal: {fileID: 0}
  m_GameObject: {fileID: 1607803391}
  m_LocalRotation: {x: 0.40821794, y: -0.23456973, z: 0.10938166, w: 0.8754261}
  m_LocalPosition: {x: 30.892021, y: 1.1864296, z: 43.352272}
  m_LocalScale: {x: 1, y: 1, z: 1}
  m_Children: []
  m_Father: {fileID: 0}
  m_RootOrder: 2
--- !u!1 &1613716032
GameObject:
  m_ObjectHideFlags: 0
  m_PrefabParentObject: {fileID: 100042, guid: ac2211405d10cff44855fe2b2d067ae1, type: 2}
  m_PrefabInternal: {fileID: 388396292}
  serializedVersion: 4
  m_Component:
  - 4: {fileID: 1613716033}
  m_Layer: 0
  m_Name: Left_Index_Finger_Joint_01c
  m_TagString: Untagged
  m_Icon: {fileID: 0}
  m_NavMeshLayer: 0
  m_StaticEditorFlags: 0
  m_IsActive: 1
--- !u!4 &1613716033
Transform:
  m_ObjectHideFlags: 0
  m_PrefabParentObject: {fileID: 400042, guid: ac2211405d10cff44855fe2b2d067ae1, type: 2}
  m_PrefabInternal: {fileID: 388396292}
  m_GameObject: {fileID: 1613716032}
  m_LocalRotation: {x: -0.011016605, y: -0.0002521592, z: -0.022881629, w: 0.9996775}
  m_LocalPosition: {x: -0.02294514, y: -3.190986e-16, z: 9.775166e-18}
  m_LocalScale: {x: 1, y: 1, z: 1}
  m_Children: []
  m_Father: {fileID: 2067757273}
  m_RootOrder: 0
--- !u!1 &1716291217
GameObject:
  m_ObjectHideFlags: 0
  m_PrefabParentObject: {fileID: 100058, guid: ac2211405d10cff44855fe2b2d067ae1, type: 2}
  m_PrefabInternal: {fileID: 388396292}
  serializedVersion: 4
  m_Component:
  - 4: {fileID: 1716291218}
  - 137: {fileID: 1716291219}
  m_Layer: 0
  m_Name: Robot2
  m_TagString: Untagged
  m_Icon: {fileID: 0}
  m_NavMeshLayer: 0
  m_StaticEditorFlags: 0
  m_IsActive: 1
--- !u!4 &1716291218
Transform:
  m_ObjectHideFlags: 0
  m_PrefabParentObject: {fileID: 400058, guid: ac2211405d10cff44855fe2b2d067ae1, type: 2}
  m_PrefabInternal: {fileID: 388396292}
  m_GameObject: {fileID: 1716291217}
  m_LocalRotation: {x: 0, y: -0, z: 0, w: 1}
  m_LocalPosition: {x: 0, y: 0, z: 0}
  m_LocalScale: {x: 1, y: 1, z: 1}
  m_Children: []
  m_Father: {fileID: 717705106}
  m_RootOrder: 0
--- !u!137 &1716291219
SkinnedMeshRenderer:
  m_ObjectHideFlags: 0
  m_PrefabParentObject: {fileID: 13700000, guid: ac2211405d10cff44855fe2b2d067ae1,
    type: 2}
  m_PrefabInternal: {fileID: 388396292}
  m_GameObject: {fileID: 1716291217}
  m_Enabled: 1
  m_CastShadows: 1
  m_ReceiveShadows: 1
  m_Materials:
  - {fileID: 2100000, guid: 0aa851515cd3747d6b3b3e461199a2ed, type: 2}
  m_SubsetIndices: 
  m_StaticBatchRoot: {fileID: 0}
  m_UseLightProbes: 0
  m_ReflectionProbeUsage: 1
  m_ProbeAnchor: {fileID: 0}
  m_ScaleInLightmap: 1
  m_PreserveUVs: 0
  m_IgnoreNormalsForChartDetection: 0
  m_ImportantGI: 0
  m_MinimumChartSize: 4
  m_AutoUVMaxDistance: 0.5
  m_AutoUVMaxAngle: 89
  m_LightmapParameters: {fileID: 0}
  m_SortingLayerID: 0
  m_SortingOrder: 0
  serializedVersion: 2
  m_Quality: 0
  m_UpdateWhenOffscreen: 0
  m_Mesh: {fileID: 4300000, guid: 320b1c2af77554f99a1658df4a6d3d5c, type: 3}
  m_Bones:
  - {fileID: 629809638}
  - {fileID: 1218954073}
  - {fileID: 97336553}
  - {fileID: 1149454246}
  - {fileID: 344785245}
  - {fileID: 1907115853}
  - {fileID: 55155873}
  - {fileID: 1790048819}
  - {fileID: 2067757273}
  - {fileID: 1613716033}
  - {fileID: 8633712}
  - {fileID: 1123259433}
  - {fileID: 404127380}
  - {fileID: 58522768}
  - {fileID: 269697072}
  - {fileID: 772347868}
  - {fileID: 87989272}
  - {fileID: 259922204}
  - {fileID: 2092361222}
  - {fileID: 948539128}
  - {fileID: 1454550074}
  - {fileID: 458480494}
  - {fileID: 920677062}
  - {fileID: 523842504}
  - {fileID: 652104514}
  - {fileID: 1997901460}
  - {fileID: 2011562879}
  - {fileID: 439622496}
  - {fileID: 1247653005}
  - {fileID: 1024241938}
  - {fileID: 676202005}
  - {fileID: 27323910}
  - {fileID: 1838785864}
  - {fileID: 1349936075}
  - {fileID: 994108128}
  - {fileID: 2004231202}
  - {fileID: 1723194169}
  - {fileID: 730149275}
  - {fileID: 1818751358}
  - {fileID: 954560332}
  - {fileID: 1569816954}
  - {fileID: 544802997}
  - {fileID: 1377595411}
  - {fileID: 1932013725}
  - {fileID: 429607079}
  - {fileID: 584460378}
  - {fileID: 1184555197}
  - {fileID: 1971176117}
  m_BlendShapeWeights: []
  m_RootBone: {fileID: 629809638}
  m_AABB:
    m_Center: {x: 0.270246, y: -0.041899905, z: 0.000000029802322}
    m_Extent: {x: 0.95254517, y: 0.23127712, z: 0.6514183}
  m_DirtyAABB: 0
--- !u!1 &1723194168
GameObject:
  m_ObjectHideFlags: 0
  m_PrefabParentObject: {fileID: 100038, guid: ac2211405d10cff44855fe2b2d067ae1, type: 2}
  m_PrefabInternal: {fileID: 388396292}
  serializedVersion: 4
  m_Component:
  - 4: {fileID: 1723194169}
  m_Layer: 0
  m_Name: Right_Pinky_Finger_Joint_01c
  m_TagString: Untagged
  m_Icon: {fileID: 0}
  m_NavMeshLayer: 0
  m_StaticEditorFlags: 0
  m_IsActive: 1
--- !u!4 &1723194169
Transform:
  m_ObjectHideFlags: 0
  m_PrefabParentObject: {fileID: 400038, guid: ac2211405d10cff44855fe2b2d067ae1, type: 2}
  m_PrefabInternal: {fileID: 388396292}
  m_GameObject: {fileID: 1723194168}
  m_LocalRotation: {x: -0.011272594, y: -0.00034267167, z: -0.030382684, w: 0.9994747}
  m_LocalPosition: {x: 0.017282948, y: -0.00000019535615, z: 0.000000014650439}
  m_LocalScale: {x: 1, y: 1, z: 1}
  m_Children: []
  m_Father: {fileID: 2004231202}
  m_RootOrder: 0
--- !u!1 &1790048818
GameObject:
  m_ObjectHideFlags: 0
  m_PrefabParentObject: {fileID: 100098, guid: ac2211405d10cff44855fe2b2d067ae1, type: 2}
  m_PrefabInternal: {fileID: 388396292}
  serializedVersion: 4
  m_Component:
  - 4: {fileID: 1790048819}
  m_Layer: 0
  m_Name: Left_Index_Finger_Joint_01a
  m_TagString: Untagged
  m_Icon: {fileID: 0}
  m_NavMeshLayer: 0
  m_StaticEditorFlags: 0
  m_IsActive: 1
--- !u!4 &1790048819
Transform:
  m_ObjectHideFlags: 0
  m_PrefabParentObject: {fileID: 400098, guid: ac2211405d10cff44855fe2b2d067ae1, type: 2}
  m_PrefabInternal: {fileID: 388396292}
  m_GameObject: {fileID: 1790048818}
  m_LocalRotation: {x: 0.010312937, y: -0.00012049041, z: 0.011682004, w: 0.9998786}
  m_LocalPosition: {x: -0.07013222, y: 0.012475326, z: 0.025505245}
  m_LocalScale: {x: 1, y: 1, z: 1}
  m_Children:
  - {fileID: 2067757273}
  m_Father: {fileID: 55155873}
  m_RootOrder: 0
--- !u!1 &1818751357
GameObject:
  m_ObjectHideFlags: 0
  m_PrefabParentObject: {fileID: 100002, guid: ac2211405d10cff44855fe2b2d067ae1, type: 2}
  m_PrefabInternal: {fileID: 388396292}
  serializedVersion: 4
  m_Component:
  - 4: {fileID: 1818751358}
  m_Layer: 0
  m_Name: Right_Thumb_Joint_01b
  m_TagString: Untagged
  m_Icon: {fileID: 0}
  m_NavMeshLayer: 0
  m_StaticEditorFlags: 0
  m_IsActive: 1
--- !u!4 &1818751358
Transform:
  m_ObjectHideFlags: 0
  m_PrefabParentObject: {fileID: 400002, guid: ac2211405d10cff44855fe2b2d067ae1, type: 2}
  m_PrefabInternal: {fileID: 388396292}
  m_GameObject: {fileID: 1818751357}
  m_LocalRotation: {x: 0.12274438, y: -0.08501493, z: 0.3184496, w: 0.9361069}
  m_LocalPosition: {x: 0.028778402, y: 0.0016480286, z: 0.0024040877}
  m_LocalScale: {x: 1, y: 1, z: 1}
  m_Children: []
  m_Father: {fileID: 730149275}
  m_RootOrder: 0
--- !u!1 &1824828490
GameObject:
  m_ObjectHideFlags: 0
  m_PrefabParentObject: {fileID: 0}
  m_PrefabInternal: {fileID: 0}
  serializedVersion: 4
  m_Component:
  - 4: {fileID: 1824828494}
  - 114: {fileID: 1824828493}
  - 114: {fileID: 1824828492}
  - 114: {fileID: 1824828491}
  m_Layer: 0
  m_Name: Control Objects
  m_TagString: Untagged
  m_Icon: {fileID: 0}
  m_NavMeshLayer: 0
  m_StaticEditorFlags: 0
  m_IsActive: 1
--- !u!114 &1824828491
MonoBehaviour:
  m_ObjectHideFlags: 0
  m_PrefabParentObject: {fileID: 0}
  m_PrefabInternal: {fileID: 0}
  m_GameObject: {fileID: 1824828490}
  m_Enabled: 1
  m_EditorHideFlags: 0
  m_Script: {fileID: 11500000, guid: cb3059a2d50d44347a80ee255a939e18, type: 3}
  m_Name: 
  m_EditorClassIdentifier: 
  Camera: {fileID: 771022290}
--- !u!114 &1824828492
MonoBehaviour:
  m_ObjectHideFlags: 0
  m_PrefabParentObject: {fileID: 0}
  m_PrefabInternal: {fileID: 0}
  m_GameObject: {fileID: 1824828490}
  m_Enabled: 1
  m_EditorHideFlags: 0
  m_Script: {fileID: 11500000, guid: 321c592dfcb49cd458c8f2cbe497513d, type: 3}
  m_Name: 
  m_EditorClassIdentifier: 
  Skin: {fileID: 11400000, guid: 0a36872c871b46d4ea5e4e064f3bf975, type: 2}
--- !u!114 &1824828493
MonoBehaviour:
  m_ObjectHideFlags: 0
  m_PrefabParentObject: {fileID: 0}
  m_PrefabInternal: {fileID: 0}
  m_GameObject: {fileID: 1824828490}
  m_Enabled: 1
  m_EditorHideFlags: 0
  m_Script: {fileID: 11500000, guid: 5c1b84a427010e0469ce0df07ab64dbc, type: 3}
  m_Name: 
  m_EditorClassIdentifier: 
  AutoConnect: 1
  Version: 1
--- !u!4 &1824828494
Transform:
  m_ObjectHideFlags: 0
  m_PrefabParentObject: {fileID: 0}
  m_PrefabInternal: {fileID: 0}
  m_GameObject: {fileID: 1824828490}
  m_LocalRotation: {x: 0, y: 0, z: 0, w: 1}
  m_LocalPosition: {x: 4.2648253, y: -6.51042, z: 4.592091}
  m_LocalScale: {x: 1, y: 1, z: 1}
  m_Children: []
  m_Father: {fileID: 0}
  m_RootOrder: 0
--- !u!1 &1838785863
GameObject:
  m_ObjectHideFlags: 0
  m_PrefabParentObject: {fileID: 100064, guid: ac2211405d10cff44855fe2b2d067ae1, type: 2}
  m_PrefabInternal: {fileID: 388396292}
  serializedVersion: 4
  m_Component:
  - 4: {fileID: 1838785864}
  m_Layer: 0
  m_Name: Right_Ring_Finger_Joint_01b
  m_TagString: Untagged
  m_Icon: {fileID: 0}
  m_NavMeshLayer: 0
  m_StaticEditorFlags: 0
  m_IsActive: 1
--- !u!4 &1838785864
Transform:
  m_ObjectHideFlags: 0
  m_PrefabParentObject: {fileID: 400064, guid: ac2211405d10cff44855fe2b2d067ae1, type: 2}
  m_PrefabInternal: {fileID: 388396292}
  m_GameObject: {fileID: 1838785863}
  m_LocalRotation: {x: 0.0007561775, y: 0.00050791446, z: 0.011838988, w: 0.99992955}
  m_LocalPosition: {x: 0.03833457, y: -0.00000014894434, z: 0.000000029383655}
  m_LocalScale: {x: 1, y: 1, z: 1}
  m_Children:
  - {fileID: 1349936075}
  m_Father: {fileID: 27323910}
  m_RootOrder: 0
--- !u!1 &1907115852
GameObject:
  m_ObjectHideFlags: 0
  m_PrefabParentObject: {fileID: 100046, guid: ac2211405d10cff44855fe2b2d067ae1, type: 2}
  m_PrefabInternal: {fileID: 388396292}
  serializedVersion: 4
  m_Component:
  - 4: {fileID: 1907115853}
  m_Layer: 0
  m_Name: Left_Forearm_Joint_01
  m_TagString: Untagged
  m_Icon: {fileID: 0}
  m_NavMeshLayer: 0
  m_StaticEditorFlags: 0
  m_IsActive: 1
--- !u!4 &1907115853
Transform:
  m_ObjectHideFlags: 0
  m_PrefabParentObject: {fileID: 400046, guid: ac2211405d10cff44855fe2b2d067ae1, type: 2}
  m_PrefabInternal: {fileID: 388396292}
  m_GameObject: {fileID: 1907115852}
  m_LocalRotation: {x: -0.05499202, y: 0.10791634, z: -0.45085245, w: 0.88434273}
  m_LocalPosition: {x: -0.2383711, y: 0.03532467, z: -0.0012605645}
  m_LocalScale: {x: 1, y: 1, z: 1}
  m_Children:
  - {fileID: 55155873}
  m_Father: {fileID: 344785245}
  m_RootOrder: 0
--- !u!1 &1932013724
GameObject:
  m_ObjectHideFlags: 0
  m_PrefabParentObject: {fileID: 100094, guid: ac2211405d10cff44855fe2b2d067ae1, type: 2}
  m_PrefabInternal: {fileID: 388396292}
  serializedVersion: 4
  m_Component:
  - 4: {fileID: 1932013725}
  m_Layer: 0
  m_Name: Left_Toe_Joint_01
  m_TagString: Untagged
  m_Icon: {fileID: 0}
  m_NavMeshLayer: 0
  m_StaticEditorFlags: 0
  m_IsActive: 1
--- !u!4 &1932013725
Transform:
  m_ObjectHideFlags: 0
  m_PrefabParentObject: {fileID: 400094, guid: ac2211405d10cff44855fe2b2d067ae1, type: 2}
  m_PrefabInternal: {fileID: 388396292}
  m_GameObject: {fileID: 1932013724}
  m_LocalRotation: {x: -0.22729197, y: -0.66958076, z: -0.22729197, w: 0.66958076}
  m_LocalPosition: {x: -0.13787192, y: -2.6645352e-17, z: 3.5527136e-17}
  m_LocalScale: {x: 1, y: 1, z: 1}
  m_Children: []
  m_Father: {fileID: 1377595411}
  m_RootOrder: 0
--- !u!1 &1971176116
GameObject:
  m_ObjectHideFlags: 0
  m_PrefabParentObject: {fileID: 100078, guid: ac2211405d10cff44855fe2b2d067ae1, type: 2}
  m_PrefabInternal: {fileID: 388396292}
  serializedVersion: 4
  m_Component:
  - 4: {fileID: 1971176117}
  m_Layer: 0
  m_Name: Right_Toe_Joint_01
  m_TagString: Untagged
  m_Icon: {fileID: 0}
  m_NavMeshLayer: 0
  m_StaticEditorFlags: 0
  m_IsActive: 1
--- !u!4 &1971176117
Transform:
  m_ObjectHideFlags: 0
  m_PrefabParentObject: {fileID: 400078, guid: ac2211405d10cff44855fe2b2d067ae1, type: 2}
  m_PrefabInternal: {fileID: 388396292}
  m_GameObject: {fileID: 1971176116}
  m_LocalRotation: {x: 0.000000012219929, y: -0.000000004148106, z: -0.3214394, w: 0.94693017}
  m_LocalPosition: {x: 0.13787201, y: 0.00000006441087, z: -3.5527136e-17}
  m_LocalScale: {x: 1, y: 1, z: 1}
  m_Children: []
  m_Father: {fileID: 1184555197}
  m_RootOrder: 0
--- !u!1 &1997901459
GameObject:
  m_ObjectHideFlags: 0
  m_PrefabParentObject: {fileID: 100008, guid: ac2211405d10cff44855fe2b2d067ae1, type: 2}
  m_PrefabInternal: {fileID: 388396292}
  serializedVersion: 4
  m_Component:
  - 4: {fileID: 1997901460}
  m_Layer: 0
  m_Name: Right_Index_Finger_Joint_01a
  m_TagString: Untagged
  m_Icon: {fileID: 0}
  m_NavMeshLayer: 0
  m_StaticEditorFlags: 0
  m_IsActive: 1
--- !u!4 &1997901460
Transform:
  m_ObjectHideFlags: 0
  m_PrefabParentObject: {fileID: 400008, guid: ac2211405d10cff44855fe2b2d067ae1, type: 2}
  m_PrefabInternal: {fileID: 388396292}
  m_GameObject: {fileID: 1997901459}
  m_LocalRotation: {x: 0.010504893, y: 0.00877969, z: 0.0017179537, w: 0.9999048}
  m_LocalPosition: {x: 0.06940201, y: -0.013847475, z: -0.026764035}
  m_LocalScale: {x: 1, y: 1, z: 1}
  m_Children:
  - {fileID: 2011562879}
  m_Father: {fileID: 652104514}
  m_RootOrder: 0
--- !u!1 &2004231201
GameObject:
  m_ObjectHideFlags: 0
  m_PrefabParentObject: {fileID: 100050, guid: ac2211405d10cff44855fe2b2d067ae1, type: 2}
  m_PrefabInternal: {fileID: 388396292}
  serializedVersion: 4
  m_Component:
  - 4: {fileID: 2004231202}
  m_Layer: 0
  m_Name: Right_Pinky_Finger_Joint_01b
  m_TagString: Untagged
  m_Icon: {fileID: 0}
  m_NavMeshLayer: 0
  m_StaticEditorFlags: 0
  m_IsActive: 1
--- !u!4 &2004231202
Transform:
  m_ObjectHideFlags: 0
  m_PrefabParentObject: {fileID: 400050, guid: ac2211405d10cff44855fe2b2d067ae1, type: 2}
  m_PrefabInternal: {fileID: 388396292}
  m_GameObject: {fileID: 2004231201}
  m_LocalRotation: {x: 0.0009738356, y: 0.00064097386, z: 0.014862133, w: 0.9998889}
  m_LocalPosition: {x: 0.030516144, y: -0.0000000478116, z: 0.000000060660284}
  m_LocalScale: {x: 1, y: 1, z: 1}
  m_Children:
  - {fileID: 1723194169}
  m_Father: {fileID: 994108128}
  m_RootOrder: 0
--- !u!1 &2011562878
GameObject:
  m_ObjectHideFlags: 0
  m_PrefabParentObject: {fileID: 100072, guid: ac2211405d10cff44855fe2b2d067ae1, type: 2}
  m_PrefabInternal: {fileID: 388396292}
  serializedVersion: 4
  m_Component:
  - 4: {fileID: 2011562879}
  m_Layer: 0
  m_Name: Right_Index_Finger_Joint_01b
  m_TagString: Untagged
  m_Icon: {fileID: 0}
  m_NavMeshLayer: 0
  m_StaticEditorFlags: 0
  m_IsActive: 1
--- !u!4 &2011562879
Transform:
  m_ObjectHideFlags: 0
  m_PrefabParentObject: {fileID: 400072, guid: ac2211405d10cff44855fe2b2d067ae1, type: 2}
  m_PrefabInternal: {fileID: 388396292}
  m_GameObject: {fileID: 2011562878}
  m_LocalRotation: {x: 0.00071135873, y: 0.00047986087, z: 0.011196685, w: 0.99993694}
  m_LocalPosition: {x: 0.04053422, y: -0.0000009354332, z: 0.000000022560922}
  m_LocalScale: {x: 1, y: 1, z: 1}
  m_Children:
  - {fileID: 439622496}
  m_Father: {fileID: 1997901460}
  m_RootOrder: 0
--- !u!1 &2067757272
GameObject:
  m_ObjectHideFlags: 0
  m_PrefabParentObject: {fileID: 100032, guid: ac2211405d10cff44855fe2b2d067ae1, type: 2}
  m_PrefabInternal: {fileID: 388396292}
  serializedVersion: 4
  m_Component:
  - 4: {fileID: 2067757273}
  m_Layer: 0
  m_Name: Left_Index_Finger_Joint_01b
  m_TagString: Untagged
  m_Icon: {fileID: 0}
  m_NavMeshLayer: 0
  m_StaticEditorFlags: 0
  m_IsActive: 1
--- !u!4 &2067757273
Transform:
  m_ObjectHideFlags: 0
  m_PrefabParentObject: {fileID: 400032, guid: ac2211405d10cff44855fe2b2d067ae1, type: 2}
  m_PrefabInternal: {fileID: 388396292}
  m_GameObject: {fileID: 2067757272}
  m_LocalRotation: {x: 0.00071135873, y: 0.00047986087, z: 0.011196685, w: 0.99993694}
  m_LocalPosition: {x: -0.04053395, y: -2.3314683e-17, z: 9.922638e-19}
  m_LocalScale: {x: 1, y: 1, z: 1}
  m_Children:
  - {fileID: 1613716033}
  m_Father: {fileID: 1790048819}
  m_RootOrder: 0
--- !u!1 &2092361221
GameObject:
  m_ObjectHideFlags: 0
  m_PrefabParentObject: {fileID: 100066, guid: ac2211405d10cff44855fe2b2d067ae1, type: 2}
  m_PrefabInternal: {fileID: 388396292}
  serializedVersion: 4
  m_Component:
  - 4: {fileID: 2092361222}
  m_Layer: 0
  m_Name: Left_Pinky_Finger_Joint_01c
  m_TagString: Untagged
  m_Icon: {fileID: 0}
  m_NavMeshLayer: 0
  m_StaticEditorFlags: 0
  m_IsActive: 1
--- !u!4 &2092361222
Transform:
  m_ObjectHideFlags: 0
  m_PrefabParentObject: {fileID: 400066, guid: ac2211405d10cff44855fe2b2d067ae1, type: 2}
  m_PrefabInternal: {fileID: 388396292}
  m_GameObject: {fileID: 2092361221}
  m_LocalRotation: {x: -0.011272594, y: -0.00034267167, z: -0.030382684, w: 0.9994747}
  m_LocalPosition: {x: -0.017283713, y: -3.8666223e-16, z: 1.5274239e-17}
  m_LocalScale: {x: 1, y: 1, z: 1}
  m_Children: []
  m_Father: {fileID: 259922204}
  m_RootOrder: 0
