%YAML 1.1
%TAG !u! tag:unity3d.com,2011:
--- !u!74 &7400000
AnimationClip:
  m_ObjectHideFlags: 0
  m_PrefabParentObject: {fileID: 0}
  m_PrefabInternal: {fileID: 0}
  m_Name: death_backRight
  serializedVersion: 6
  m_Legacy: 0
  m_Compressed: 0
  m_UseHighQualityCurve: 1
  m_RotationCurves: []
  m_CompressedRotationCurves: []
  m_EulerCurves:
  - curve:
      serializedVersion: 2
      m_Curve:
      - time: 0
        value: {x: 0, y: 0, z: 0.06}
        inSlope: {x: -120, y: 68.08, z: 0}
        outSlope: {x: -120, y: 68.08, z: 0}
        tangentMode: 0
      - time: 0.25
        value: {x: -30, y: 17.02, z: 0.06}
        inSlope: {x: -55.095, y: 31.98, z: 0}
        outSlope: {x: -55.095, y: 31.98, z: 0}
        tangentMode: 0
      - time: 1.25
        value: {x: -20.189999, y: 12.9, z: 0.06}
        inSlope: {x: 45.284996, y: 118.14, z: -180.12}
        outSlope: {x: 45.284996, y: 118.14, z: -180.12}
        tangentMode: 0
      - time: 1.5
        value: {x: 0, y: 73, z: -90}
        inSlope: {x: 80.759995, y: 240.4, z: -360.24}
        outSlope: {x: 80.759995, y: 240.4, z: -360.24}
        tangentMode: 0
      m_PreInfinity: 2
      m_PostInfinity: 2
      m_RotationOrder: 4
    path: default
  m_PositionCurves: []
  m_ScaleCurves: []
  m_FloatCurves: []
  m_PPtrCurves: []
  m_SampleRate: 20
  m_WrapMode: 0
  m_Bounds:
    m_Center: {x: 0, y: 0, z: 0}
    m_Extent: {x: 0, y: 0, z: 0}
  m_ClipBindingConstant:
    genericBindings:
    - path: 3814588639
      attribute: 4
      script: {fileID: 0}
      classID: 4
      customType: 14
      isPPtrCurve: 0
    pptrCurveMapping: []
  m_AnimationClipSettings:
    serializedVersion: 2
    m_AdditiveReferencePoseClip: {fileID: 0}
    m_AdditiveReferencePoseTime: 0
    m_StartTime: 0
    m_StopTime: 1.5
    m_OrientationOffsetY: 0
    m_Level: 0
    m_CycleOffset: 0
    m_HasAdditiveReferencePose: 0
    m_LoopTime: 0
    m_LoopBlend: 0
    m_LoopBlendOrientation: 0
    m_LoopBlendPositionY: 0
    m_LoopBlendPositionXZ: 0
    m_KeepOriginalOrientation: 0
    m_KeepOriginalPositionY: 1
    m_KeepOriginalPositionXZ: 0
    m_HeightFromFeet: 0
    m_Mirror: 0
  m_EditorCurves:
  - curve:
      serializedVersion: 2
      m_Curve:
      - time: 0
        value: 0
        inSlope: -120
        outSlope: -120
        tangentMode: 10
      - time: 0.25
        value: -30
        inSlope: -55.095
        outSlope: -55.095
        tangentMode: 10
      - time: 1.25
        value: -20.189999
        inSlope: 45.284996
        outSlope: 45.284996
        tangentMode: 10
      - time: 1.5
        value: 0
        inSlope: 80.759995
        outSlope: 80.759995
        tangentMode: 10
      m_PreInfinity: 2
      m_PostInfinity: 2
      m_RotationOrder: 4
    attribute: localEulerAnglesRaw.x
    path: default
    classID: 4
    script: {fileID: 0}
  - curve:
      serializedVersion: 2
      m_Curve:
      - time: 0
        value: 0
        inSlope: 68.08
        outSlope: 68.08
        tangentMode: 10
      - time: 0.25
        value: 17.02
        inSlope: 31.98
        outSlope: 31.98
        tangentMode: 10
      - time: 1.25
        value: 12.9
        inSlope: 118.14
        outSlope: 118.14
        tangentMode: 10
      - time: 1.5
        value: 73
        inSlope: 240.4
        outSlope: 240.4
        tangentMode: 10
      m_PreInfinity: 2
      m_PostInfinity: 2
      m_RotationOrder: 4
    attribute: localEulerAnglesRaw.y
    path: default
    classID: 4
    script: {fileID: 0}
  - curve:
      serializedVersion: 2
      m_Curve:
      - time: 0
        value: 0.06
        inSlope: 0
        outSlope: 0
        tangentMode: 10
      - time: 0.25
        value: 0.06
        inSlope: 0
        outSlope: 0
        tangentMode: 10
      - time: 1.25
        value: 0.06
        inSlope: -180.12
        outSlope: -180.12
        tangentMode: 10
      - time: 1.5
        value: -90
        inSlope: -360.24
        outSlope: -360.24
        tangentMode: 10
      m_PreInfinity: 2
      m_PostInfinity: 2
      m_RotationOrder: 4
    attribute: localEulerAnglesRaw.z
    path: default
    classID: 4
    script: {fileID: 0}
  m_EulerEditorCurves:
  - curve:
      serializedVersion: 2
      m_Curve: []
      m_PreInfinity: 2
      m_PostInfinity: 2
      m_RotationOrder: 4
    attribute: m_LocalEulerAngles.x
    path: default
    classID: 4
    script: {fileID: 0}
  - curve:
      serializedVersion: 2
      m_Curve: []
      m_PreInfinity: 2
      m_PostInfinity: 2
      m_RotationOrder: 4
    attribute: m_LocalEulerAngles.y
    path: default
    classID: 4
    script: {fileID: 0}
  - curve:
      serializedVersion: 2
      m_Curve: []
      m_PreInfinity: 2
      m_PostInfinity: 2
      m_RotationOrder: 4
    attribute: m_LocalEulerAngles.z
    path: default
    classID: 4
    script: {fileID: 0}
  m_HasGenericRootTransform: 0
  m_HasMotionFloatCurves: 0
  m_GenerateMotionCurves: 0
  m_Events:
  - time: 1.4
    functionName: PlayFallSound
    data: 
    objectReferenceParameter: {fileID: 0}
    floatParameter: 0
    intParameter: 0
    messageOptions: 0
