%YAML 1.1
%TAG !u! tag:unity3d.com,2011:
--- !u!74 &7400000
AnimationClip:
  m_ObjectHideFlags: 0
  m_PrefabParentObject: {fileID: 0}
  m_PrefabInternal: {fileID: 0}
  m_Name: idle2
  serializedVersion: 6
  m_Legacy: 0
  m_Compressed: 0
  m_UseHighQualityCurve: 1
  m_RotationCurves: []
  m_CompressedRotationCurves: []
  m_EulerCurves:
  - curve:
      serializedVersion: 2
      m_Curve:
      - time: 0
        value: {x: 0, y: 0.07, z: 0}
        inSlope: {x: -8.75, y: 17.3775, z: 0}
        outSlope: {x: -8.75, y: 17.3775, z: 0}
        tangentMode: 0
      - time: 0.5714286
        value: {x: -5, y: 10, z: 0}
        inSlope: {x: 0, y: -0.061249733, z: 0}
        outSlope: {x: 0, y: -0.061249733, z: 0}
        tangentMode: 0
      - time: 1.1428572
        value: {x: 0, y: 0, z: 0}
        inSlope: {x: -0.00000047683716, y: -13.125, z: 0}
        outSlope: {x: -0.00000047683716, y: -13.125, z: 0}
        tangentMode: 0
      - time: 1.7142857
        value: {x: -5, y: -5, z: 0}
        inSlope: {x: -0.0000009536743, y: -0.0000009536743, z: 0}
        outSlope: {x: -0.0000009536743, y: -0.0000009536743, z: 0}
        tangentMode: 0
      - time: 2.2857144
        value: {x: 0, y: 0, z: 0}
        inSlope: {x: 8.749999, y: 8.749999, z: 0}
        outSlope: {x: 8.749999, y: 8.749999, z: 0}
        tangentMode: 0
      m_PreInfinity: 2
      m_PostInfinity: 2
      m_RotationOrder: 4
    path: default
  m_PositionCurves: []
  m_ScaleCurves: []
  m_FloatCurves: []
  m_PPtrCurves: []
  m_SampleRate: 7
  m_WrapMode: 0
  m_Bounds:
    m_Center: {x: 0, y: 0, z: 0}
    m_Extent: {x: 0, y: 0, z: 0}
  m_ClipBindingConstant:
    genericBindings:
    - path: 3814588639
      attribute: 4
      script: {fileID: 0}
      classID: 4
      customType: 14
      isPPtrCurve: 0
    pptrCurveMapping: []
  m_AnimationClipSettings:
    serializedVersion: 2
    m_AdditiveReferencePoseClip: {fileID: 0}
    m_AdditiveReferencePoseTime: 0
    m_StartTime: 0
    m_StopTime: 2.2857144
    m_OrientationOffsetY: 0
    m_Level: 0
    m_CycleOffset: 0
    m_HasAdditiveReferencePose: 0
    m_LoopTime: 1
    m_LoopBlend: 0
    m_LoopBlendOrientation: 0
    m_LoopBlendPositionY: 0
    m_LoopBlendPositionXZ: 0
    m_KeepOriginalOrientation: 0
    m_KeepOriginalPositionY: 1
    m_KeepOriginalPositionXZ: 0
    m_HeightFromFeet: 0
    m_Mirror: 0
  m_EditorCurves:
  - curve:
      serializedVersion: 2
      m_Curve:
      - time: 0
        value: 0
        inSlope: -8.75
        outSlope: -8.75
        tangentMode: 10
      - time: 0.5714286
        value: -5
        inSlope: 0
        outSlope: 0
        tangentMode: 10
      - time: 1.1428572
        value: 0
        inSlope: -0.00000047683716
        outSlope: -0.00000047683716
        tangentMode: 10
      - time: 1.7142857
        value: -5
        inSlope: -0.0000009536743
        outSlope: -0.0000009536743
        tangentMode: 10
      - time: 2.2857144
        value: 0
        inSlope: 8.749999
        outSlope: 8.749999
        tangentMode: 10
      m_PreInfinity: 2
      m_PostInfinity: 2
      m_RotationOrder: 4
    attribute: localEulerAnglesRaw.x
    path: default
    classID: 4
    script: {fileID: 0}
  - curve:
      serializedVersion: 2
      m_Curve:
      - time: 0
        value: 0.07
        inSlope: 17.3775
        outSlope: 17.3775
        tangentMode: 10
      - time: 0.5714286
        value: 10
        inSlope: -0.061249733
        outSlope: -0.061249733
        tangentMode: 10
      - time: 1.1428572
        value: 0
        inSlope: -13.125
        outSlope: -13.125
        tangentMode: 10
      - time: 1.7142857
        value: -5
        inSlope: -0.0000009536743
        outSlope: -0.0000009536743
        tangentMode: 10
      - time: 2.2857144
        value: 0
        inSlope: 8.749999
        outSlope: 8.749999
        tangentMode: 10
      m_PreInfinity: 2
      m_PostInfinity: 2
      m_RotationOrder: 4
    attribute: localEulerAnglesRaw.y
    path: default
    classID: 4
    script: {fileID: 0}
  - curve:
      serializedVersion: 2
      m_Curve:
      - time: 0
        value: 0
        inSlope: 0
        outSlope: 0
        tangentMode: 10
      - time: 0.5714286
        value: 0
        inSlope: 0
        outSlope: 0
        tangentMode: 10
      - time: 1.1428572
        value: 0
        inSlope: 0
        outSlope: 0
        tangentMode: 10
      - time: 1.7142857
        value: 0
        inSlope: 0
        outSlope: 0
        tangentMode: 10
      - time: 2.2857144
        value: 0
        inSlope: 0
        outSlope: 0
        tangentMode: 10
      m_PreInfinity: 2
      m_PostInfinity: 2
      m_RotationOrder: 4
    attribute: localEulerAnglesRaw.z
    path: default
    classID: 4
    script: {fileID: 0}
  m_EulerEditorCurves:
  - curve:
      serializedVersion: 2
      m_Curve: []
      m_PreInfinity: 2
      m_PostInfinity: 2
      m_RotationOrder: 4
    attribute: m_LocalEulerAngles.x
    path: default
    classID: 4
    script: {fileID: 0}
  - curve:
      serializedVersion: 2
      m_Curve: []
      m_PreInfinity: 2
      m_PostInfinity: 2
      m_RotationOrder: 4
    attribute: m_LocalEulerAngles.y
    path: default
    classID: 4
    script: {fileID: 0}
  - curve:
      serializedVersion: 2
      m_Curve: []
      m_PreInfinity: 2
      m_PostInfinity: 2
      m_RotationOrder: 4
    attribute: m_LocalEulerAngles.z
    path: default
    classID: 4
    script: {fileID: 0}
  m_HasGenericRootTransform: 0
  m_HasMotionFloatCurves: 0
  m_GenerateMotionCurves: 0
  m_Events: []
