%YAML 1.1
%TAG !u! tag:unity3d.com,2011:
--- !u!74 &7400000
AnimationClip:
  m_ObjectHideFlags: 0
  m_PrefabParentObject: {fileID: 0}
  m_PrefabInternal: {fileID: 0}
  m_Name: idle3
  serializedVersion: 6
  m_Legacy: 0
  m_Compressed: 0
  m_UseHighQualityCurve: 1
  m_RotationCurves: []
  m_CompressedRotationCurves: []
  m_EulerCurves:
  - curve:
      serializedVersion: 2
      m_Curve:
      - time: 0
        value: {x: 0, y: 0, z: 0}
        inSlope: {x: 0, y: 0, z: 7.5}
        outSlope: {x: 0, y: 0, z: 7.5}
        tangentMode: 0
      - time: 1.3333334
        value: {x: 0, y: 0, z: 10}
        inSlope: {x: 0, y: 0, z: 0}
        outSlope: {x: 0, y: 0, z: 0}
        tangentMode: 0
      - time: 2.6666667
        value: {x: 0, y: 0, z: 0}
        inSlope: {x: 0, y: 0, z: -7.5}
        outSlope: {x: 0, y: 0, z: -7.5}
        tangentMode: 0
      - time: 4
        value: {x: 0, y: 0, z: -10}
        inSlope: {x: 0, y: 0, z: -0.00000071525574}
        outSlope: {x: 0, y: 0, z: -0.00000071525574}
        tangentMode: 0
      - time: 5.3333335
        value: {x: 0, y: 0, z: 0}
        inSlope: {x: 0, y: 0, z: 7.499999}
        outSlope: {x: 0, y: 0, z: 7.499999}
        tangentMode: 0
      m_PreInfinity: 2
      m_PostInfinity: 2
      m_RotationOrder: 4
    path: default
  m_PositionCurves: []
  m_ScaleCurves: []
  m_FloatCurves: []
  m_PPtrCurves: []
  m_SampleRate: 3
  m_WrapMode: 0
  m_Bounds:
    m_Center: {x: 0, y: 0, z: 0}
    m_Extent: {x: 0, y: 0, z: 0}
  m_ClipBindingConstant:
    genericBindings:
    - path: 3814588639
      attribute: 4
      script: {fileID: 0}
      classID: 4
      customType: 14
      isPPtrCurve: 0
    pptrCurveMapping: []
  m_AnimationClipSettings:
    serializedVersion: 2
    m_AdditiveReferencePoseClip: {fileID: 0}
    m_AdditiveReferencePoseTime: 0
    m_StartTime: 0
    m_StopTime: 5.3333335
    m_OrientationOffsetY: 0
    m_Level: 0
    m_CycleOffset: 0
    m_HasAdditiveReferencePose: 0
    m_LoopTime: 1
    m_LoopBlend: 0
    m_LoopBlendOrientation: 0
    m_LoopBlendPositionY: 0
    m_LoopBlendPositionXZ: 0
    m_KeepOriginalOrientation: 0
    m_KeepOriginalPositionY: 1
    m_KeepOriginalPositionXZ: 0
    m_HeightFromFeet: 0
    m_Mirror: 0
  m_EditorCurves:
  - curve:
      serializedVersion: 2
      m_Curve:
      - time: 0
        value: 0
        inSlope: 0
        outSlope: 0
        tangentMode: 10
      - time: 1.3333334
        value: 0
        inSlope: 0
        outSlope: 0
        tangentMode: 10
      - time: 2.6666667
        value: 0
        inSlope: 0
        outSlope: 0
        tangentMode: 10
      - time: 4
        value: 0
        inSlope: 0
        outSlope: 0
        tangentMode: 10
      - time: 5.3333335
        value: 0
        inSlope: 0
        outSlope: 0
        tangentMode: 10
      m_PreInfinity: 2
      m_PostInfinity: 2
      m_RotationOrder: 4
    attribute: localEulerAnglesRaw.x
    path: default
    classID: 4
    script: {fileID: 0}
  - curve:
      serializedVersion: 2
      m_Curve:
      - time: 0
        value: 0
        inSlope: 0
        outSlope: 0
        tangentMode: 10
      - time: 1.3333334
        value: 0
        inSlope: 0
        outSlope: 0
        tangentMode: 10
      - time: 2.6666667
        value: 0
        inSlope: 0
        outSlope: 0
        tangentMode: 10
      - time: 4
        value: 0
        inSlope: 0
        outSlope: 0
        tangentMode: 10
      - time: 5.3333335
        value: 0
        inSlope: 0
        outSlope: 0
        tangentMode: 10
      m_PreInfinity: 2
      m_PostInfinity: 2
      m_RotationOrder: 4
    attribute: localEulerAnglesRaw.y
    path: default
    classID: 4
    script: {fileID: 0}
  - curve:
      serializedVersion: 2
      m_Curve:
      - time: 0
        value: 0
        inSlope: 7.5
        outSlope: 7.5
        tangentMode: 10
      - time: 1.3333334
        value: 10
        inSlope: 0
        outSlope: 0
        tangentMode: 10
      - time: 2.6666667
        value: 0
        inSlope: -7.5
        outSlope: -7.5
        tangentMode: 10
      - time: 4
        value: -10
        inSlope: -0.00000071525574
        outSlope: -0.00000071525574
        tangentMode: 10
      - time: 5.3333335
        value: 0
        inSlope: 7.499999
        outSlope: 7.499999
        tangentMode: 10
      m_PreInfinity: 2
      m_PostInfinity: 2
      m_RotationOrder: 4
    attribute: localEulerAnglesRaw.z
    path: default
    classID: 4
    script: {fileID: 0}
  m_EulerEditorCurves:
  - curve:
      serializedVersion: 2
      m_Curve: []
      m_PreInfinity: 2
      m_PostInfinity: 2
      m_RotationOrder: 4
    attribute: m_LocalEulerAngles.x
    path: default
    classID: 4
    script: {fileID: 0}
  - curve:
      serializedVersion: 2
      m_Curve: []
      m_PreInfinity: 2
      m_PostInfinity: 2
      m_RotationOrder: 4
    attribute: m_LocalEulerAngles.y
    path: default
    classID: 4
    script: {fileID: 0}
  - curve:
      serializedVersion: 2
      m_Curve: []
      m_PreInfinity: 2
      m_PostInfinity: 2
      m_RotationOrder: 4
    attribute: m_LocalEulerAngles.z
    path: default
    classID: 4
    script: {fileID: 0}
  m_HasGenericRootTransform: 0
  m_HasMotionFloatCurves: 0
  m_GenerateMotionCurves: 0
  m_Events: []
