%YAML 1.1
%TAG !u! tag:unity3d.com,2011:
--- !u!1 &100000
GameObject:
  m_ObjectHideFlags: 0
  m_PrefabParentObject: {fileID: 0}
  m_PrefabInternal: {fileID: 100100000}
  serializedVersion: 4
  m_Component:
  - 4: {fileID: 400000}
  - 114: {fileID: 11400000}
  m_Layer: 0
  m_Name: Large
  m_TagString: Untagged
  m_Icon: {fileID: 0}
  m_NavMeshLayer: 0
  m_StaticEditorFlags: 0
  m_IsActive: 1
--- !u!4 &400000
Transform:
  m_ObjectHideFlags: 1
  m_PrefabParentObject: {fileID: 0}
  m_PrefabInternal: {fileID: 100100000}
  m_GameObject: {fileID: 100000}
  m_LocalRotation: {x: 0, y: 0, z: 0, w: 1}
  m_LocalPosition: {x: 0, y: 0, z: 0}
  m_LocalScale: {x: 1, y: 1, z: 1}
  m_Children: []
  m_Father: {fileID: 0}
  m_RootOrder: 0
--- !u!114 &11400000
MonoBehaviour:
  m_ObjectHideFlags: 1
  m_PrefabParentObject: {fileID: 0}
  m_PrefabInternal: {fileID: 100100000}
  m_GameObject: {fileID: 100000}
  m_Enabled: 1
  m_EditorHideFlags: 0
  m_Script: {fileID: 11500000, guid: 0b4eb3a400afab046abb8471a9d746d6, type: 3}
  m_Name: 
  m_EditorClassIdentifier: 
  mMat: {fileID: 2100000, guid: db47ab91e0691de418cfceb4a02aad5a, type: 2}
  mUVRect:
    serializedVersion: 2
    x: -0.0009765625
    y: -0.15429688
    width: 0.375
    height: 0.75
  mFont:
    mSize: 48
    mBase: 36
    mWidth: 384
    mHeight: 384
    mSpriteName: Large
    mSaved:
    - index: 32
      x: 379
      y: 1
      width: 2
      height: 3
      offsetX: -1
      offsetY: 36
      advance: 13
      channel: 15
      kerning: 
    - index: 33
      x: 368
      y: 206
      width: 10
      height: 30
      offsetX: 2
      offsetY: 8
      advance: 13
      channel: 15
      kerning: 
    - index: 34
      x: 286
      y: 262
      width: 17
      height: 15
      offsetX: 2
      offsetY: 8
      advance: 20
      channel: 15
      kerning: 41000000fdffffff4c000000f8ffffffc0000000fdffffffc1000000fdffffffc2000000fdffffffc3000000fdffffffc4000000fdffffffc5000000fdffffff
    - index: 35
      x: 152
      y: 182
      width: 28
      height: 30
      offsetX: 2
      offsetY: 8
      advance: 31
      channel: 15
      kerning: 
    - index: 36
      x: 346
      y: 40
      width: 25
      height: 38
      offsetX: 2
      offsetY: 4
      advance: 28
      channel: 15
      kerning: 
    - index: 37
      x: 287
      y: 144
      width: 35
      height: 30
      offsetX: 2
      offsetY: 8
      advance: 38
      channel: 15
      kerning: 
    - index: 38
      x: 181
      y: 179
      width: 28
      height: 30
      offsetX: 2
      offsetY: 8
      advance: 30
      channel: 15
      kerning: 
    - index: 39
      x: 374
      y: 237
      width: 7
      height: 15
      offsetX: 2
      offsetY: 8
      advance: 12
      channel: 15
      kerning: 41000000fdffffff4c000000f8ffffffc0000000fdffffffc1000000fdffffffc2000000fdffffffc3000000fdffffffc4000000fdffffffc5000000fdffffff
    - index: 40
      x: 44
      y: 1
      width: 15
      height: 39
      offsetX: 2
      offsetY: 7
      advance: 16
      channel: 15
      kerning: 
    - index: 41
      x: 28
      y: 1
      width: 15
      height: 39
      offsetX: 0
      offsetY: 7
      advance: 16
      channel: 15
      kerning: 
    - index: 42
      x: 236
      y: 266
      width: 22
      height: 19
      offsetX: 1
      offsetY: 8
      advance: 22
      channel: 15
      kerning: 
    - index: 43
      x: 251
      y: 240
      width: 26
      height: 25
      offsetX: 2
      offsetY: 13
      advance: 29
      channel: 15
      kerning: 
    - index: 44
      x: 304
      y: 262
      width: 10
      height: 15
      offsetX: 2
      offsetY: 29
      advance: 13
      channel: 15
      kerning: 46000000fbffffff50000000fcffffff54000000fcffffff56000000feffffff57000000feffffff59000000fbffffffdd000000fbffffff
    - index: 45
      x: 50
      y: 300
      width: 14
      height: 5
      offsetX: 2
      offsetY: 22
      advance: 16
      channel: 15
      kerning: 
    - index: 46
      x: 364
      y: 261
      width: 10
      height: 9
      offsetX: 2
      offsetY: 29
      advance: 13
      channel: 15
      kerning: 46000000fbffffff50000000fcffffff54000000fcffffff56000000feffffff57000000feffffff59000000fbffffffdd000000fbffffff
    - index: 47
      x: 174
      y: 79
      width: 19
      height: 34
      offsetX: 0
      offsetY: 6
      advance: 18
      channel: 15
      kerning: 
    - index: 48
      x: 343
      y: 206
      width: 24
      height: 30
      offsetX: 3
      offsetY: 8
      advance: 29
      channel: 15
      kerning: 
    - index: 49
      x: 369
      y: 111
      width: 12
      height: 30
      offsetX: 0
      offsetY: 8
      advance: 15
      channel: 15
      kerning: 
    - index: 50
      x: 266
      y: 207
      width: 25
      height: 30
      offsetX: 2
      offsetY: 8
      advance: 28
      channel: 15
      kerning: 
    - index: 51
      x: 214
      y: 209
      width: 25
      height: 30
      offsetX: 1
      offsetY: 8
      advance: 26
      channel: 15
      kerning: 
    - index: 52
      x: 210
      y: 178
      width: 27
      height: 30
      offsetX: -1
      offsetY: 8
      advance: 25
      channel: 15
      kerning: 
    - index: 53
      x: 240
      y: 209
      width: 25
      height: 30
      offsetX: 1
      offsetY: 8
      advance: 26
      channel: 15
      kerning: 
    - index: 54
      x: 49
      y: 245
      width: 23
      height: 30
      offsetX: 3
      offsetY: 8
      advance: 28
      channel: 15
      kerning: 
    - index: 55
      x: 27
      y: 214
      width: 26
      height: 30
      offsetX: 0
      offsetY: 8
      advance: 24
      channel: 15
      kerning: 
    - index: 56
      x: 292
      y: 207
      width: 25
      height: 30
      offsetX: 2
      offsetY: 8
      advance: 28
      channel: 15
      kerning: 
    - index: 57
      x: 25
      y: 245
      width: 23
      height: 30
      offsetX: 3
      offsetY: 8
      advance: 28
      channel: 15
      kerning: 
    - index: 58
      x: 225
      y: 266
      width: 10
      height: 23
      offsetX: 2
      offsetY: 15
      advance: 13
      channel: 15
      kerning: 
    - index: 59
      x: 186
      y: 244
      width: 10
      height: 29
      offsetX: 2
      offsetY: 15
      advance: 13
      channel: 15
      kerning: 
    - index: 60
      x: 224
      y: 240
      width: 26
      height: 25
      offsetX: 0
      offsetY: 13
      advance: 27
      channel: 15
      kerning: 
    - index: 61
      x: 259
      y: 266
      width: 26
      height: 17
      offsetX: 2
      offsetY: 17
      advance: 29
      channel: 15
      kerning: 
    - index: 62
      x: 197
      y: 241
      width: 26
      height: 25
      offsetX: 2
      offsetY: 13
      advance: 27
      channel: 15
      kerning: 
    - index: 63
      x: 142
      y: 245
      width: 22
      height: 30
      offsetX: 1
      offsetY: 8
      advance: 23
      channel: 15
      kerning: 
    - index: 65
      x: 62
      y: 183
      width: 30
      height: 30
      offsetX: 0
      offsetY: 8
      advance: 28
      channel: 15
      kerning: 46000000feffffff50000000feffffff54000000fdffffff56000000fdffffff57000000feffffff59000000fdffffffdd000000fdffffff
    - index: 66
      x: 54
      y: 214
      width: 26
      height: 30
      offsetX: 2
      offsetY: 8
      advance: 28
      channel: 15
      kerning: 
    - index: 67
      x: 81
      y: 214
      width: 26
      height: 30
      offsetX: 3
      offsetY: 8
      advance: 30
      channel: 15
      kerning: 
    - index: 68
      x: 266
      y: 176
      width: 27
      height: 30
      offsetX: 3
      offsetY: 8
      advance: 31
      channel: 15
      kerning: 
    - index: 69
      x: 1
      y: 245
      width: 23
      height: 30
      offsetX: 3
      offsetY: 8
      advance: 27
      channel: 15
      kerning: 
    - index: 70
      x: 318
      y: 206
      width: 24
      height: 30
      offsetX: 2
      offsetY: 8
      advance: 26
      channel: 15
      kerning: 
    - index: 71
      x: 108
      y: 214
      width: 26
      height: 30
      offsetX: 3
      offsetY: 8
      advance: 31
      channel: 15
      kerning: 
    - index: 72
      x: 348
      y: 175
      width: 26
      height: 30
      offsetX: 3
      offsetY: 8
      advance: 31
      channel: 15
      kerning: 
    - index: 73
      x: 375
      y: 174
      width: 6
      height: 30
      offsetX: 2
      offsetY: 8
      advance: 12
      channel: 15
      kerning: 
    - index: 74
      x: 119
      y: 245
      width: 22
      height: 30
      offsetX: 2
      offsetY: 8
      advance: 26
      channel: 15
      kerning: 46000000f5ffffff50000000faffffff52000000feffffff54000000faffffff56000000fcffffff57000000fdffffff59000000fbffffffdd000000fbffffff
    - index: 75
      x: 123
      y: 183
      width: 28
      height: 30
      offsetX: 2
      offsetY: 8
      advance: 28
      channel: 15
      kerning: 
    - index: 76
      x: 73
      y: 245
      width: 22
      height: 30
      offsetX: 2
      offsetY: 8
      advance: 24
      channel: 15
      kerning: 
    - index: 77
      x: 323
      y: 144
      width: 32
      height: 30
      offsetX: 3
      offsetY: 8
      advance: 37
      channel: 15
      kerning: 
    - index: 78
      x: 356
      y: 143
      width: 25
      height: 30
      offsetX: 3
      offsetY: 8
      advance: 32
      channel: 15
      kerning: 
    - index: 79
      x: 321
      y: 175
      width: 26
      height: 30
      offsetX: 3
      offsetY: 8
      advance: 31
      channel: 15
      kerning: 
    - index: 80
      x: 188
      y: 210
      width: 25
      height: 30
      offsetX: 3
      offsetY: 8
      advance: 28
      channel: 15
      kerning: 
    - index: 81
      x: 145
      y: 79
      width: 28
      height: 35
      offsetX: 3
      offsetY: 8
      advance: 33
      channel: 15
      kerning: 
    - index: 82
      x: 162
      y: 213
      width: 25
      height: 30
      offsetX: 3
      offsetY: 8
      advance: 29
      channel: 15
      kerning: 
    - index: 83
      x: 294
      y: 175
      width: 26
      height: 30
      offsetX: 2
      offsetY: 8
      advance: 29
      channel: 15
      kerning: 
    - index: 84
      x: 1
      y: 214
      width: 25
      height: 30
      offsetX: 1
      offsetY: 8
      advance: 25
      channel: 15
      kerning: 41000000fdffffff4c000000fbffffffc0000000fdffffffc1000000fdffffffc2000000fdffffffc3000000fdffffffc4000000fdffffffc5000000fdffffff
    - index: 85
      x: 135
      y: 214
      width: 26
      height: 30
      offsetX: 3
      offsetY: 8
      advance: 31
      channel: 15
      kerning: 
    - index: 86
      x: 31
      y: 183
      width: 30
      height: 30
      offsetX: 0
      offsetY: 8
      advance: 29
      channel: 15
      kerning: 41000000fdffffff4c000000fcffffffc0000000fdffffffc1000000fdffffffc2000000fdffffffc3000000fdffffffc4000000fdffffffc5000000fdffffff
    - index: 87
      x: 245
      y: 145
      width: 41
      height: 30
      offsetX: 0
      offsetY: 8
      advance: 39
      channel: 15
      kerning: 41000000feffffff4c000000fdffffffc0000000feffffffc1000000feffffffc2000000feffffffc3000000feffffffc4000000feffffffc5000000feffffff
    - index: 88
      x: 93
      y: 183
      width: 29
      height: 30
      offsetX: 0
      offsetY: 8
      advance: 28
      channel: 15
      kerning: 
    - index: 89
      x: 1
      y: 183
      width: 29
      height: 30
      offsetX: 0
      offsetY: 8
      advance: 28
      channel: 15
      kerning: 41000000fdffffff4c000000fbffffffc0000000fdffffffc1000000fdffffffc2000000fdffffffc3000000fdffffffc4000000fdffffffc5000000fdffffff
    - index: 90
      x: 238
      y: 178
      width: 27
      height: 30
      offsetX: 1
      offsetY: 8
      advance: 28
      channel: 15
      kerning: 
    - index: 91
      x: 76
      y: 1
      width: 15
      height: 39
      offsetX: 2
      offsetY: 7
      advance: 17
      channel: 15
      kerning: 
    - index: 92
      x: 194
      y: 79
      width: 19
      height: 34
      offsetX: 0
      offsetY: 6
      advance: 18
      channel: 15
      kerning: 
    - index: 93
      x: 60
      y: 1
      width: 15
      height: 39
      offsetX: 0
      offsetY: 7
      advance: 17
      channel: 15
      kerning: 
    - index: 94
      x: 315
      y: 262
      width: 24
      height: 14
      offsetX: 0
      offsetY: 8
      advance: 23
      channel: 15
      kerning: 
    - index: 95
      x: 65
      y: 300
      width: 29
      height: 5
      offsetX: -1
      offsetY: 43
      advance: 25
      channel: 15
      kerning: 
    - index: 96
      x: 18
      y: 300
      width: 15
      height: 5
      offsetX: 1
      offsetY: 7
      advance: 16
      channel: 15
      kerning: 
    - index: 97
      x: 162
      y: 276
      width: 21
      height: 23
      offsetX: 2
      offsetY: 15
      advance: 24
      channel: 15
      kerning: 54000000feffffff56000000feffffff57000000ffffffff59000000feffffffdd000000feffffff
    - index: 98
      x: 231
      y: 113
      width: 22
      height: 31
      offsetX: 2
      offsetY: 7
      advance: 25
      channel: 15
      kerning: 
    - index: 99
      x: 140
      y: 276
      width: 21
      height: 23
      offsetX: 2
      offsetY: 15
      advance: 24
      channel: 15
      kerning: 56000000feffffff
    - index: 100
      x: 277
      y: 112
      width: 22
      height: 31
      offsetX: 2
      offsetY: 7
      advance: 25
      channel: 15
      kerning: 59000000feffffffdd000000feffffff
    - index: 101
      x: 118
      y: 276
      width: 21
      height: 23
      offsetX: 2
      offsetY: 15
      advance: 24
      channel: 15
      kerning: 54000000feffffff56000000feffffff57000000ffffffff59000000feffffffdd000000feffffff
    - index: 102
      x: 363
      y: 79
      width: 18
      height: 31
      offsetX: 1
      offsetY: 7
      advance: 20
      channel: 15
      kerning: 
    - index: 103
      x: 323
      y: 112
      width: 22
      height: 31
      offsetX: 2
      offsetY: 15
      advance: 25
      channel: 15
      kerning: 
    - index: 104
      x: 346
      y: 111
      width: 22
      height: 31
      offsetX: 2
      offsetY: 7
      advance: 25
      channel: 15
      kerning: 
    - index: 105
      x: 370
      y: 1
      width: 8
      height: 30
      offsetX: 2
      offsetY: 8
      advance: 11
      channel: 15
      kerning: 
    - index: 106
      x: 358
      y: 1
      width: 11
      height: 38
      offsetX: -1
      offsetY: 8
      advance: 11
      channel: 15
      kerning: 
    - index: 107
      x: 1
      y: 119
      width: 22
      height: 31
      offsetX: 3
      offsetY: 7
      advance: 22
      channel: 15
      kerning: 
    - index: 108
      x: 372
      y: 32
      width: 8
      height: 31
      offsetX: 2
      offsetY: 7
      advance: 11
      channel: 15
      kerning: 
    - index: 109
      x: 314
      y: 238
      width: 33
      height: 23
      offsetX: 2
      offsetY: 15
      advance: 36
      channel: 15
      kerning: 57000000ffffffff
    - index: 110
      x: 26
      y: 276
      width: 22
      height: 23
      offsetX: 2
      offsetY: 15
      advance: 25
      channel: 15
      kerning: 
    - index: 111
      x: 49
      y: 276
      width: 22
      height: 23
      offsetX: 2
      offsetY: 15
      advance: 25
      channel: 15
      kerning: 54000000feffffff56000000feffffff57000000ffffffff59000000feffffffdd000000feffffff
    - index: 112
      x: 300
      y: 112
      width: 22
      height: 31
      offsetX: 2
      offsetY: 15
      advance: 25
      channel: 15
      kerning: 59000000feffffffdd000000feffffff
    - index: 113
      x: 254
      y: 112
      width: 22
      height: 31
      offsetX: 2
      offsetY: 15
      advance: 25
      channel: 15
      kerning: 
    - index: 114
      x: 205
      y: 267
      width: 19
      height: 23
      offsetX: 2
      offsetY: 15
      advance: 21
      channel: 15
      kerning: 54000000feffffff56000000feffffff57000000ffffffff59000000feffffffdd000000feffffff
    - index: 115
      x: 184
      y: 275
      width: 20
      height: 23
      offsetX: 2
      offsetY: 15
      advance: 23
      channel: 15
      kerning: 54000000feffffff56000000feffffff57000000ffffffff59000000feffffffdd000000feffffff
    - index: 116
      x: 165
      y: 244
      width: 20
      height: 30
      offsetX: 1
      offsetY: 8
      advance: 21
      channel: 15
      kerning: 57000000ffffffff
    - index: 117
      x: 95
      y: 276
      width: 22
      height: 23
      offsetX: 2
      offsetY: 15
      advance: 25
      channel: 15
      kerning: 54000000feffffff56000000feffffff57000000ffffffff59000000feffffffdd000000feffffff
    - index: 118
      x: 1
      y: 276
      width: 24
      height: 23
      offsetX: 0
      offsetY: 15
      advance: 23
      channel: 15
      kerning: 59000000ffffffffdd000000ffffffff
    - index: 119
      x: 278
      y: 238
      width: 35
      height: 23
      offsetX: -1
      offsetY: 15
      advance: 33
      channel: 15
      kerning: 54000000feffffff
    - index: 120
      x: 348
      y: 237
      width: 25
      height: 23
      offsetX: 0
      offsetY: 15
      advance: 23
      channel: 15
      kerning: 
    - index: 121
      x: 337
      y: 79
      width: 25
      height: 31
      offsetX: -1
      offsetY: 15
      advance: 22
      channel: 15
      kerning: 54000000feffffff
    - index: 122
      x: 72
      y: 276
      width: 22
      height: 23
      offsetX: 1
      offsetY: 15
      advance: 23
      channel: 15
      kerning: 59000000feffffffdd000000feffffff
    - index: 126
      x: 340
      y: 262
      width: 23
      height: 9
      offsetX: 1
      offsetY: 20
      advance: 24
      channel: 15
      kerning: 
    - index: 160
      x: 372
      y: 64
      width: 4
      height: 4
      offsetX: -1
      offsetY: 35
      advance: 13
      channel: 15
      kerning: 
    - index: 168
      x: 1
      y: 300
      width: 16
      height: 5
      offsetX: 2
      offsetY: 7
      advance: 18
      channel: 15
      kerning: 
    - index: 174
      x: 236
      y: 79
      width: 32
      height: 32
      offsetX: 1
      offsetY: 7
      advance: 33
      channel: 15
      kerning: 
    - index: 180
      x: 34
      y: 300
      width: 15
      height: 5
      offsetX: 1
      offsetY: 7
      advance: 16
      channel: 15
      kerning: 
    - index: 191
      x: 96
      y: 245
      width: 22
      height: 30
      offsetX: 1
      offsetY: 16
      advance: 23
      channel: 15
      kerning: 
    - index: 192
      x: 1
      y: 41
      width: 29
      height: 38
      offsetX: 1
      offsetY: 0
      advance: 28
      channel: 15
      kerning: 46000000feffffff50000000feffffff54000000fdffffff56000000fdffffff57000000feffffff59000000fdffffffdd000000fdffffff
    - index: 193
      x: 31
      y: 41
      width: 30
      height: 38
      offsetX: 0
      offsetY: 0
      advance: 28
      channel: 15
      kerning: 46000000feffffff50000000feffffff54000000fdffffff56000000fdffffff57000000feffffff59000000fdffffffdd000000fdffffff
    - index: 194
      x: 92
      y: 1
      width: 30
      height: 38
      offsetX: 0
      offsetY: 0
      advance: 28
      channel: 15
      kerning: 46000000feffffff50000000feffffff54000000fdffffff56000000fdffffff57000000feffffff59000000fdffffffdd000000fdffffff
    - index: 195
      x: 123
      y: 1
      width: 30
      height: 38
      offsetX: 0
      offsetY: 0
      advance: 28
      channel: 15
      kerning: 46000000feffffff50000000feffffff54000000fdffffff56000000fdffffff57000000feffffff59000000fdffffffdd000000fdffffff
    - index: 196
      x: 93
      y: 40
      width: 29
      height: 38
      offsetX: 0
      offsetY: 0
      advance: 28
      channel: 15
      kerning: 46000000feffffff50000000feffffff54000000fdffffff56000000fdffffff57000000feffffff59000000fdffffffdd000000fdffffff
    - index: 197
      x: 123
      y: 40
      width: 29
      height: 38
      offsetX: 0
      offsetY: 0
      advance: 28
      channel: 15
      kerning: 46000000feffffff50000000feffffff54000000fdffffff56000000fdffffff57000000feffffff59000000fdffffffdd000000fdffffff
    - index: 199
      x: 1
      y: 1
      width: 26
      height: 39
      offsetX: 3
      offsetY: 9
      advance: 30
      channel: 15
      kerning: 
    - index: 200
      x: 1
      y: 80
      width: 23
      height: 38
      offsetX: 3
      offsetY: 0
      advance: 27
      channel: 15
      kerning: 
    - index: 201
      x: 25
      y: 80
      width: 24
      height: 38
      offsetX: 2
      offsetY: 0
      advance: 27
      channel: 15
      kerning: 
    - index: 202
      x: 289
      y: 1
      width: 24
      height: 38
      offsetX: 2
      offsetY: 0
      advance: 27
      channel: 15
      kerning: 
    - index: 203
      x: 50
      y: 80
      width: 24
      height: 38
      offsetX: 2
      offsetY: 0
      advance: 27
      channel: 15
      kerning: 
    - index: 204
      x: 92
      y: 80
      width: 15
      height: 38
      offsetX: -3
      offsetY: 0
      advance: 12
      channel: 15
      kerning: 
    - index: 205
      x: 108
      y: 79
      width: 14
      height: 38
      offsetX: 1
      offsetY: 0
      advance: 12
      channel: 15
      kerning: 
    - index: 206
      x: 338
      y: 1
      width: 19
      height: 38
      offsetX: -3
      offsetY: 0
      advance: 12
      channel: 15
      kerning: 
    - index: 207
      x: 75
      y: 80
      width: 16
      height: 38
      offsetX: -1
      offsetY: 0
      advance: 12
      channel: 15
      kerning: 
    - index: 209
      x: 154
      y: 1
      width: 27
      height: 38
      offsetX: 3
      offsetY: 0
      advance: 32
      channel: 15
      kerning: 
    - index: 210
      x: 292
      y: 40
      width: 26
      height: 38
      offsetX: 3
      offsetY: 0
      advance: 31
      channel: 15
      kerning: 
    - index: 211
      x: 265
      y: 40
      width: 26
      height: 38
      offsetX: 3
      offsetY: 0
      advance: 31
      channel: 15
      kerning: 
    - index: 212
      x: 209
      y: 1
      width: 26
      height: 38
      offsetX: 3
      offsetY: 0
      advance: 31
      channel: 15
      kerning: 
    - index: 213
      x: 236
      y: 1
      width: 26
      height: 38
      offsetX: 3
      offsetY: 0
      advance: 31
      channel: 15
      kerning: 
    - index: 214
      x: 182
      y: 40
      width: 28
      height: 38
      offsetX: 2
      offsetY: 0
      advance: 31
      channel: 15
      kerning: 
    - index: 216
      x: 319
      y: 40
      width: 26
      height: 38
      offsetX: 3
      offsetY: 4
      advance: 31
      channel: 15
      kerning: 
    - index: 217
      x: 211
      y: 40
      width: 26
      height: 38
      offsetX: 3
      offsetY: 0
      advance: 31
      channel: 15
      kerning: 
    - index: 218
      x: 238
      y: 40
      width: 26
      height: 38
      offsetX: 3
      offsetY: 0
      advance: 31
      channel: 15
      kerning: 
    - index: 219
      x: 182
      y: 1
      width: 26
      height: 38
      offsetX: 3
      offsetY: 0
      advance: 31
      channel: 15
      kerning: 
    - index: 220
      x: 153
      y: 40
      width: 28
      height: 38
      offsetX: 2
      offsetY: 0
      advance: 32
      channel: 15
      kerning: 
    - index: 221
      x: 62
      y: 41
      width: 30
      height: 38
      offsetX: -1
      offsetY: 0
      advance: 28
      channel: 15
      kerning: 41000000fdffffff4c000000fbffffffc0000000fdffffffc1000000fdffffffc2000000fdffffffc3000000fdffffffc4000000fdffffffc5000000fdffffff
    - index: 224
      x: 111
      y: 151
      width: 21
      height: 31
      offsetX: 2
      offsetY: 7
      advance: 24
      channel: 15
      kerning: 54000000feffffff56000000feffffff57000000ffffffff59000000feffffffdd000000feffffff
    - index: 225
      x: 133
      y: 150
      width: 21
      height: 31
      offsetX: 2
      offsetY: 7
      advance: 24
      channel: 15
      kerning: 54000000feffffff56000000feffffff57000000ffffffff59000000feffffffdd000000feffffff
    - index: 226
      x: 45
      y: 151
      width: 21
      height: 31
      offsetX: 2
      offsetY: 7
      advance: 24
      channel: 15
      kerning: 54000000feffffff56000000feffffff57000000ffffffff59000000feffffffdd000000feffffff
    - index: 227
      x: 315
      y: 79
      width: 21
      height: 32
      offsetX: 2
      offsetY: 6
      advance: 24
      channel: 15
      kerning: 54000000feffffff56000000feffffff57000000ffffffff59000000feffffffdd000000feffffff
    - index: 228
      x: 89
      y: 151
      width: 21
      height: 31
      offsetX: 2
      offsetY: 7
      advance: 24
      channel: 15
      kerning: 54000000feffffff56000000feffffff57000000ffffffff59000000feffffffdd000000feffffff
    - index: 229
      x: 123
      y: 79
      width: 21
      height: 37
      offsetX: 2
      offsetY: 1
      advance: 24
      channel: 15
      kerning: 54000000feffffff56000000feffffff57000000ffffffff59000000feffffffdd000000feffffff
    - index: 231
      x: 214
      y: 79
      width: 21
      height: 33
      offsetX: 2
      offsetY: 15
      advance: 24
      channel: 15
      kerning: 
    - index: 232
      x: 155
      y: 149
      width: 21
      height: 31
      offsetX: 2
      offsetY: 7
      advance: 24
      channel: 15
      kerning: 54000000feffffff56000000feffffff57000000ffffffff59000000feffffffdd000000feffffff
    - index: 233
      x: 23
      y: 151
      width: 21
      height: 31
      offsetX: 2
      offsetY: 7
      advance: 24
      channel: 15
      kerning: 54000000feffffff56000000feffffff57000000ffffffff59000000feffffffdd000000feffffff
    - index: 234
      x: 67
      y: 151
      width: 21
      height: 31
      offsetX: 2
      offsetY: 7
      advance: 24
      channel: 15
      kerning: 54000000feffffff56000000feffffff57000000ffffffff59000000feffffffdd000000feffffff
    - index: 235
      x: 185
      y: 114
      width: 22
      height: 31
      offsetX: 2
      offsetY: 7
      advance: 25
      channel: 15
      kerning: 54000000feffffff56000000feffffff57000000ffffffff59000000feffffffdd000000feffffff
    - index: 236
      x: 213
      y: 146
      width: 15
      height: 31
      offsetX: -3
      offsetY: 7
      advance: 11
      channel: 15
      kerning: 
    - index: 237
      x: 229
      y: 146
      width: 15
      height: 31
      offsetX: 0
      offsetY: 7
      advance: 11
      channel: 15
      kerning: 
    - index: 238
      x: 177
      y: 147
      width: 18
      height: 31
      offsetX: -3
      offsetY: 7
      advance: 11
      channel: 15
      kerning: 
    - index: 239
      x: 196
      y: 146
      width: 16
      height: 31
      offsetX: -2
      offsetY: 7
      advance: 11
      channel: 15
      kerning: 5400000002000000
    - index: 241
      x: 269
      y: 79
      width: 22
      height: 32
      offsetX: 2
      offsetY: 6
      advance: 25
      channel: 15
      kerning: 
    - index: 242
      x: 1
      y: 151
      width: 21
      height: 31
      offsetX: 3
      offsetY: 7
      advance: 25
      channel: 15
      kerning: 54000000feffffff56000000feffffff57000000ffffffff59000000feffffffdd000000feffffff
    - index: 243
      x: 208
      y: 114
      width: 22
      height: 31
      offsetX: 2
      offsetY: 7
      advance: 25
      channel: 15
      kerning: 54000000feffffff56000000feffffff57000000ffffffff59000000feffffffdd000000feffffff
    - index: 244
      x: 162
      y: 115
      width: 22
      height: 31
      offsetX: 2
      offsetY: 7
      advance: 25
      channel: 15
      kerning: 54000000feffffff56000000feffffff57000000ffffffff59000000feffffffdd000000feffffff
    - index: 245
      x: 292
      y: 79
      width: 22
      height: 32
      offsetX: 2
      offsetY: 6
      advance: 24
      channel: 15
      kerning: 54000000feffffff56000000feffffff57000000ffffffff59000000feffffffdd000000feffffff
    - index: 246
      x: 24
      y: 119
      width: 22
      height: 31
      offsetX: 2
      offsetY: 7
      advance: 25
      channel: 15
      kerning: 54000000feffffff56000000feffffff57000000ffffffff59000000feffffffdd000000feffffff
    - index: 248
      x: 139
      y: 117
      width: 22
      height: 31
      offsetX: 2
      offsetY: 11
      advance: 25
      channel: 15
      kerning: 
    - index: 249
      x: 116
      y: 118
      width: 22
      height: 31
      offsetX: 2
      offsetY: 7
      advance: 25
      channel: 15
      kerning: 54000000feffffff56000000feffffff57000000ffffffff59000000feffffffdd000000feffffff
    - index: 250
      x: 93
      y: 119
      width: 22
      height: 31
      offsetX: 2
      offsetY: 7
      advance: 25
      channel: 15
      kerning: 54000000feffffff56000000feffffff57000000ffffffff59000000feffffffdd000000feffffff
    - index: 251
      x: 70
      y: 119
      width: 22
      height: 31
      offsetX: 2
      offsetY: 7
      advance: 25
      channel: 15
      kerning: 54000000feffffff56000000feffffff57000000ffffffff59000000feffffffdd000000feffffff
    - index: 252
      x: 47
      y: 119
      width: 22
      height: 31
      offsetX: 2
      offsetY: 7
      advance: 25
      channel: 15
      kerning: 54000000feffffff56000000feffffff57000000ffffffff59000000feffffffdd000000feffffff
    - index: 253
      x: 263
      y: 1
      width: 25
      height: 38
      offsetX: -1
      offsetY: 8
      advance: 22
      channel: 15
      kerning: 
    - index: 255
      x: 314
      y: 1
      width: 23
      height: 38
      offsetX: 0
      offsetY: 8
      advance: 22
      channel: 15
      kerning: 
  mAtlas: {fileID: 11400000, guid: ed75eff6b19833044b4c66fc91ec9d46, type: 2}
  mReplacement: {fileID: 0}
  mSymbols: []
  mDynamicFont: {fileID: 0}
  mDynamicFontSize: 16
  mDynamicFontStyle: 0
--- !u!1001 &100100000
Prefab:
  m_ObjectHideFlags: 1
  serializedVersion: 2
  m_Modification:
    m_TransformParent: {fileID: 0}
    m_Modifications: []
    m_RemovedComponents: []
  m_ParentPrefab: {fileID: 0}
  m_RootGameObject: {fileID: 100000}
  m_IsPrefabParent: 1
