%YAML 1.1
%TAG !u! tag:unity3d.com,2011:
--- !u!1 &100000
GameObject:
  m_ObjectHideFlags: 0
  m_PrefabParentObject: {fileID: 0}
  m_PrefabInternal: {fileID: 100100000}
  serializedVersion: 4
  m_Component:
  - 4: {fileID: 400000}
  - 114: {fileID: 11400000}
  m_Layer: 0
  m_Name: Medium
  m_TagString: Untagged
  m_Icon: {fileID: 0}
  m_NavMeshLayer: 0
  m_StaticEditorFlags: 0
  m_IsActive: 1
--- !u!4 &400000
Transform:
  m_ObjectHideFlags: 1
  m_PrefabParentObject: {fileID: 0}
  m_PrefabInternal: {fileID: 100100000}
  m_GameObject: {fileID: 100000}
  m_LocalRotation: {x: 0, y: 0, z: 0, w: 1}
  m_LocalPosition: {x: 0, y: 0, z: 0}
  m_LocalScale: {x: 1, y: 1, z: 1}
  m_Children: []
  m_Father: {fileID: 0}
  m_RootOrder: 0
--- !u!114 &11400000
MonoBehaviour:
  m_ObjectHideFlags: 1
  m_PrefabParentObject: {fileID: 0}
  m_PrefabInternal: {fileID: 100100000}
  m_GameObject: {fileID: 100000}
  m_Enabled: 1
  m_EditorHideFlags: 0
  m_Script: {fileID: 11500000, guid: 0b4eb3a400afab046abb8471a9d746d6, type: 3}
  m_Name: 
  m_EditorClassIdentifier: 
  mMat: {fileID: 2100000, guid: db47ab91e0691de418cfceb4a02aad5a, type: 2}
  mUVRect:
    serializedVersion: 2
    x: 0.3720703
    y: -0.037109375
    width: 0.25
    height: 0.5
  mFont:
    mSize: 32
    mBase: 24
    mWidth: 256
    mHeight: 256
    mSpriteName: Medium
    mSaved:
    - index: 32
      x: 252
      y: 25
      width: 3
      height: 1
      offsetX: -1
      offsetY: 31
      advance: 9
      channel: 15
      kerning: 
    - index: 33
      x: 29
      y: 194
      width: 6
      height: 18
      offsetX: 2
      offsetY: 6
      advance: 9
      channel: 15
      kerning: 
    - index: 34
      x: 59
      y: 225
      width: 12
      height: 8
      offsetX: 1
      offsetY: 6
      advance: 14
      channel: 15
      kerning: 41000000feffffff4c000000fbffffffc0000000feffffffc1000000feffffffc2000000feffffffc3000000feffffffc4000000feffffffc5000000feffffff
    - index: 35
      x: 90
      y: 173
      width: 17
      height: 18
      offsetX: 2
      offsetY: 6
      advance: 21
      channel: 15
      kerning: 
    - index: 36
      x: 238
      y: 0
      width: 17
      height: 24
      offsetX: 1
      offsetY: 3
      advance: 19
      channel: 15
      kerning: 
    - index: 37
      x: 214
      y: 111
      width: 24
      height: 18
      offsetX: 1
      offsetY: 6
      advance: 26
      channel: 15
      kerning: 
    - index: 38
      x: 90
      y: 135
      width: 20
      height: 18
      offsetX: 1
      offsetY: 6
      advance: 21
      channel: 15
      kerning: 
    - index: 39
      x: 100
      y: 223
      width: 6
      height: 8
      offsetX: 2
      offsetY: 6
      advance: 9
      channel: 15
      kerning: 41000000feffffff4c000000fbffffffc0000000feffffffc1000000feffffffc2000000feffffffc3000000feffffffc4000000feffffffc5000000feffffff
    - index: 40
      x: 112
      y: 25
      width: 9
      height: 24
      offsetX: 1
      offsetY: 5
      advance: 11
      channel: 15
      kerning: 
    - index: 41
      x: 122
      y: 25
      width: 9
      height: 24
      offsetX: 2
      offsetY: 5
      advance: 12
      channel: 15
      kerning: 
    - index: 42
      x: 219
      y: 204
      width: 13
      height: 10
      offsetX: 1
      offsetY: 6
      advance: 15
      channel: 15
      kerning: 
    - index: 43
      x: 167
      y: 191
      width: 17
      height: 14
      offsetX: 1
      offsetY: 10
      advance: 19
      channel: 15
      kerning: 
    - index: 44
      x: 93
      y: 223
      width: 6
      height: 8
      offsetX: 2
      offsetY: 20
      advance: 9
      channel: 15
      kerning: 46000000fdffffff50000000fdffffff54000000fdffffff56000000feffffff57000000ffffffff59000000fdffffffdd000000fdffffff
    - index: 45
      x: 149
      y: 221
      width: 9
      height: 3
      offsetX: 1
      offsetY: 15
      advance: 11
      channel: 15
      kerning: 
    - index: 46
      x: 123
      y: 222
      width: 6
      height: 4
      offsetX: 2
      offsetY: 20
      advance: 9
      channel: 15
      kerning: 46000000fdffffff50000000fdffffff54000000fdffffff56000000feffffff57000000ffffffff59000000fdffffffdd000000fdffffff
    - index: 47
      x: 0
      y: 75
      width: 12
      height: 21
      offsetX: 0
      offsetY: 4
      advance: 12
      channel: 15
      kerning: 
    - index: 48
      x: 108
      y: 173
      width: 17
      height: 18
      offsetX: 2
      offsetY: 6
      advance: 20
      channel: 15
      kerning: 
    - index: 49
      x: 243
      y: 149
      width: 8
      height: 18
      offsetX: 0
      offsetY: 6
      advance: 10
      channel: 15
      kerning: 
    - index: 50
      x: 126
      y: 172
      width: 17
      height: 18
      offsetX: 1
      offsetY: 6
      advance: 19
      channel: 15
      kerning: 
    - index: 51
      x: 144
      y: 172
      width: 17
      height: 18
      offsetX: 1
      offsetY: 6
      advance: 19
      channel: 15
      kerning: 
    - index: 52
      x: 153
      y: 153
      width: 17
      height: 18
      offsetX: 0
      offsetY: 6
      advance: 17
      channel: 15
      kerning: 
    - index: 53
      x: 171
      y: 152
      width: 17
      height: 18
      offsetX: 1
      offsetY: 6
      advance: 18
      channel: 15
      kerning: 
    - index: 54
      x: 239
      y: 111
      width: 16
      height: 18
      offsetX: 2
      offsetY: 6
      advance: 19
      channel: 15
      kerning: 
    - index: 55
      x: 72
      y: 174
      width: 17
      height: 18
      offsetX: 0
      offsetY: 6
      advance: 16
      channel: 15
      kerning: 
    - index: 56
      x: 189
      y: 152
      width: 17
      height: 18
      offsetX: 1
      offsetY: 6
      advance: 19
      channel: 15
      kerning: 
    - index: 57
      x: 179
      y: 171
      width: 16
      height: 18
      offsetX: 2
      offsetY: 6
      advance: 19
      channel: 15
      kerning: 
    - index: 58
      x: 148
      y: 206
      width: 6
      height: 14
      offsetX: 2
      offsetY: 10
      advance: 9
      channel: 15
      kerning: 
    - index: 59
      x: 243
      y: 168
      width: 6
      height: 18
      offsetX: 2
      offsetY: 10
      advance: 9
      channel: 15
      kerning: 
    - index: 60
      x: 61
      y: 193
      width: 17
      height: 15
      offsetX: 0
      offsetY: 9
      advance: 18
      channel: 15
      kerning: 
    - index: 61
      x: 25
      y: 228
      width: 17
      height: 8
      offsetX: 1
      offsetY: 13
      advance: 19
      channel: 15
      kerning: 
    - index: 62
      x: 43
      y: 194
      width: 17
      height: 15
      offsetX: 1
      offsetY: 9
      advance: 18
      channel: 15
      kerning: 
    - index: 63
      x: 228
      y: 170
      width: 14
      height: 18
      offsetX: 1
      offsetY: 6
      advance: 16
      channel: 15
      kerning: 
    - index: 64
      x: 56
      y: 0
      width: 25
      height: 24
      offsetX: 2
      offsetY: 6
      advance: 28
      channel: 15
      kerning: 
    - index: 65
      x: 131
      y: 134
      width: 19
      height: 18
      offsetX: 0
      offsetY: 6
      advance: 19
      channel: 15
      kerning: 46000000ffffffff50000000feffffff54000000feffffff56000000feffffff57000000ffffffff59000000feffffffdd000000feffffff
    - index: 66
      x: 207
      y: 151
      width: 17
      height: 18
      offsetX: 2
      offsetY: 6
      advance: 20
      channel: 15
      kerning: 
    - index: 67
      x: 225
      y: 151
      width: 17
      height: 18
      offsetX: 2
      offsetY: 6
      advance: 20
      channel: 15
      kerning: 
    - index: 68
      x: 134
      y: 153
      width: 18
      height: 18
      offsetX: 2
      offsetY: 6
      advance: 21
      channel: 15
      kerning: 
    - index: 69
      x: 212
      y: 170
      width: 15
      height: 18
      offsetX: 2
      offsetY: 6
      advance: 18
      channel: 15
      kerning: 
    - index: 70
      x: 196
      y: 171
      width: 15
      height: 18
      offsetX: 2
      offsetY: 6
      advance: 18
      channel: 15
      kerning: 
    - index: 71
      x: 115
      y: 153
      width: 18
      height: 18
      offsetX: 2
      offsetY: 6
      advance: 21
      channel: 15
      kerning: 
    - index: 72
      x: 39
      y: 155
      width: 18
      height: 18
      offsetX: 2
      offsetY: 6
      advance: 21
      channel: 15
      kerning: 
    - index: 73
      x: 250
      y: 168
      width: 5
      height: 18
      offsetX: 2
      offsetY: 6
      advance: 8
      channel: 15
      kerning: 
    - index: 74
      x: 162
      y: 172
      width: 16
      height: 18
      offsetX: 1
      offsetY: 6
      advance: 18
      channel: 15
      kerning: 46000000f9ffffff50000000fcffffff52000000feffffff54000000fcffffff56000000feffffff57000000feffffff59000000fdffffffdd000000fdffffff
    - index: 75
      x: 20
      y: 156
      width: 18
      height: 18
      offsetX: 2
      offsetY: 6
      advance: 19
      channel: 15
      kerning: 
    - index: 76
      x: 0
      y: 194
      width: 14
      height: 18
      offsetX: 2
      offsetY: 6
      advance: 16
      channel: 15
      kerning: 
    - index: 77
      x: 24
      y: 136
      width: 22
      height: 18
      offsetX: 2
      offsetY: 6
      advance: 25
      channel: 15
      kerning: 
    - index: 78
      x: 171
      y: 133
      width: 19
      height: 18
      offsetX: 2
      offsetY: 6
      advance: 22
      channel: 15
      kerning: 
    - index: 79
      x: 96
      y: 154
      width: 18
      height: 18
      offsetX: 2
      offsetY: 6
      advance: 21
      channel: 15
      kerning: 
    - index: 80
      x: 0
      y: 175
      width: 17
      height: 18
      offsetX: 2
      offsetY: 6
      advance: 19
      channel: 15
      kerning: 
    - index: 81
      x: 197
      y: 49
      width: 18
      height: 21
      offsetX: 2
      offsetY: 6
      advance: 22
      channel: 15
      kerning: 
    - index: 82
      x: 18
      y: 175
      width: 17
      height: 18
      offsetX: 2
      offsetY: 6
      advance: 20
      channel: 15
      kerning: 
    - index: 83
      x: 77
      y: 154
      width: 18
      height: 18
      offsetX: 1
      offsetY: 6
      advance: 20
      channel: 15
      kerning: 
    - index: 84
      x: 36
      y: 175
      width: 17
      height: 18
      offsetX: 0
      offsetY: 6
      advance: 17
      channel: 15
      kerning: 41000000feffffff4c000000fdffffffc0000000feffffffc1000000feffffffc2000000feffffffc3000000feffffffc4000000feffffffc5000000feffffff
    - index: 85
      x: 58
      y: 155
      width: 18
      height: 18
      offsetX: 2
      offsetY: 6
      advance: 21
      channel: 15
      kerning: 
    - index: 86
      x: 211
      y: 132
      width: 19
      height: 18
      offsetX: 0
      offsetY: 6
      advance: 19
      channel: 15
      kerning: 41000000feffffff4c000000fdffffffc0000000feffffffc1000000feffffffc2000000feffffffc3000000feffffffc4000000feffffffc5000000feffffff
    - index: 87
      x: 187
      y: 113
      width: 26
      height: 18
      offsetX: 0
      offsetY: 6
      advance: 26
      channel: 15
      kerning: 41000000ffffffff4c000000feffffffc0000000ffffffffc1000000ffffffffc2000000ffffffffc3000000ffffffffc4000000ffffffffc5000000ffffffff
    - index: 88
      x: 151
      y: 134
      width: 19
      height: 18
      offsetX: 0
      offsetY: 6
      advance: 19
      channel: 15
      kerning: 
    - index: 89
      x: 191
      y: 132
      width: 19
      height: 18
      offsetX: 0
      offsetY: 6
      advance: 19
      channel: 15
      kerning: 41000000feffffff4c000000fdffffffc0000000feffffffc1000000feffffffc2000000feffffffc3000000feffffffc4000000feffffffc5000000feffffff
    - index: 90
      x: 54
      y: 174
      width: 17
      height: 18
      offsetX: 1
      offsetY: 6
      advance: 19
      channel: 15
      kerning: 
    - index: 91
      x: 132
      y: 25
      width: 9
      height: 24
      offsetX: 2
      offsetY: 5
      advance: 12
      channel: 15
      kerning: 
    - index: 92
      x: 232
      y: 49
      width: 12
      height: 21
      offsetX: 0
      offsetY: 4
      advance: 12
      channel: 15
      kerning: 
    - index: 93
      x: 90
      y: 25
      width: 10
      height: 24
      offsetX: 1
      offsetY: 5
      advance: 12
      channel: 15
      kerning: 
    - index: 94
      x: 43
      y: 228
      width: 15
      height: 8
      offsetX: 0
      offsetY: 6
      advance: 16
      channel: 15
      kerning: 
    - index: 95
      x: 179
      y: 220
      width: 19
      height: 2
      offsetX: -1
      offsetY: 29
      advance: 17
      channel: 15
      kerning: 
    - index: 96
      x: 159
      y: 220
      width: 9
      height: 3
      offsetX: 1
      offsetY: 5
      advance: 11
      channel: 15
      kerning: 
    - index: 97
      x: 16
      y: 213
      width: 15
      height: 14
      offsetX: 1
      offsetY: 10
      advance: 17
      channel: 15
      kerning: 54000000feffffff56000000ffffffff57000000ffffffff59000000feffffffdd000000feffffff
    - index: 98
      x: 204
      y: 71
      width: 15
      height: 19
      offsetX: 1
      offsetY: 5
      advance: 17
      channel: 15
      kerning: 
    - index: 99
      x: 64
      y: 209
      width: 15
      height: 14
      offsetX: 1
      offsetY: 10
      advance: 17
      channel: 15
      kerning: 56000000ffffffff
    - index: 100
      x: 220
      y: 71
      width: 15
      height: 19
      offsetX: 1
      offsetY: 5
      advance: 17
      channel: 15
      kerning: 59000000feffffffdd000000feffffff
    - index: 101
      x: 48
      y: 210
      width: 15
      height: 14
      offsetX: 1
      offsetY: 10
      advance: 17
      channel: 15
      kerning: 54000000feffffff56000000ffffffff57000000ffffffff59000000feffffffdd000000feffffff
    - index: 102
      x: 95
      y: 115
      width: 13
      height: 19
      offsetX: 1
      offsetY: 5
      advance: 14
      channel: 15
      kerning: 
    - index: 103
      x: 29
      y: 75
      width: 15
      height: 20
      offsetX: 1
      offsetY: 10
      advance: 17
      channel: 15
      kerning: 
    - index: 104
      x: 236
      y: 71
      width: 15
      height: 19
      offsetX: 1
      offsetY: 5
      advance: 17
      channel: 15
      kerning: 
    - index: 105
      x: 144
      y: 114
      width: 5
      height: 19
      offsetX: 2
      offsetY: 5
      advance: 8
      channel: 15
      kerning: 
    - index: 106
      x: 36
      y: 0
      width: 7
      height: 25
      offsetX: 0
      offsetY: 5
      advance: 8
      channel: 15
      kerning: 
    - index: 107
      x: 0
      y: 97
      width: 15
      height: 19
      offsetX: 1
      offsetY: 5
      advance: 15
      channel: 15
      kerning: 
    - index: 108
      x: 150
      y: 114
      width: 5
      height: 19
      offsetX: 2
      offsetY: 5
      advance: 8
      channel: 15
      kerning: 
    - index: 109
      x: 126
      y: 191
      width: 22
      height: 14
      offsetX: 1
      offsetY: 10
      advance: 24
      channel: 15
      kerning: 57000000ffffffff
    - index: 110
      x: 236
      y: 189
      width: 15
      height: 14
      offsetX: 1
      offsetY: 10
      advance: 17
      channel: 15
      kerning: 
    - index: 111
      x: 0
      y: 213
      width: 15
      height: 14
      offsetX: 1
      offsetY: 10
      advance: 17
      channel: 15
      kerning: 54000000feffffff56000000ffffffff57000000ffffffff59000000feffffffdd000000feffffff
    - index: 112
      x: 16
      y: 96
      width: 15
      height: 19
      offsetX: 1
      offsetY: 10
      advance: 17
      channel: 15
      kerning: 59000000feffffffdd000000feffffff
    - index: 113
      x: 32
      y: 96
      width: 15
      height: 19
      offsetX: 1
      offsetY: 10
      advance: 17
      channel: 15
      kerning: 
    - index: 114
      x: 110
      y: 207
      width: 13
      height: 14
      offsetX: 1
      offsetY: 10
      advance: 14
      channel: 15
      kerning: 54000000feffffff56000000ffffffff57000000ffffffff59000000feffffffdd000000feffffff
    - index: 115
      x: 80
      y: 208
      width: 14
      height: 14
      offsetX: 1
      offsetY: 10
      advance: 16
      channel: 15
      kerning: 54000000feffffff56000000ffffffff57000000ffffffff59000000feffffffdd000000feffffff
    - index: 116
      x: 15
      y: 194
      width: 13
      height: 18
      offsetX: 1
      offsetY: 6
      advance: 15
      channel: 15
      kerning: 57000000ffffffff
    - index: 117
      x: 32
      y: 213
      width: 15
      height: 14
      offsetX: 1
      offsetY: 10
      advance: 17
      channel: 15
      kerning: 54000000feffffff56000000ffffffff57000000ffffffff59000000feffffffdd000000feffffff
    - index: 118
      x: 219
      y: 189
      width: 16
      height: 14
      offsetX: 0
      offsetY: 10
      advance: 15
      channel: 15
      kerning: 59000000ffffffffdd000000ffffffff
    - index: 119
      x: 103
      y: 192
      width: 22
      height: 14
      offsetX: 0
      offsetY: 10
      advance: 22
      channel: 15
      kerning: 54000000feffffff
    - index: 120
      x: 202
      y: 190
      width: 16
      height: 14
      offsetX: 0
      offsetY: 10
      advance: 16
      channel: 15
      kerning: 
    - index: 121
      x: 156
      y: 73
      width: 15
      height: 19
      offsetX: 0
      offsetY: 10
      advance: 15
      channel: 15
      kerning: 54000000feffffff
    - index: 122
      x: 95
      y: 208
      width: 14
      height: 14
      offsetX: 1
      offsetY: 10
      advance: 16
      channel: 15
      kerning: 59000000ffffffffdd000000ffffffff
    - index: 123
      x: 101
      y: 25
      width: 10
      height: 24
      offsetX: 0
      offsetY: 5
      advance: 11
      channel: 15
      kerning: 
    - index: 124
      x: 44
      y: 0
      width: 5
      height: 25
      offsetX: 2
      offsetY: 4
      advance: 8
      channel: 15
      kerning: 
    - index: 125
      x: 78
      y: 25
      width: 11
      height: 24
      offsetX: 1
      offsetY: 5
      advance: 11
      channel: 15
      kerning: 
    - index: 126
      x: 107
      y: 223
      width: 15
      height: 4
      offsetX: 1
      offsetY: 14
      advance: 16
      channel: 15
      kerning: 
    - index: 160
      x: 252
      y: 27
      width: 3
      height: 1
      offsetX: -1
      offsetY: 31
      advance: 9
      channel: 15
      kerning: 
    - index: 161
      x: 36
      y: 194
      width: 6
      height: 18
      offsetX: 2
      offsetY: 11
      advance: 9
      channel: 15
      kerning: 
    - index: 162
      x: 188
      y: 72
      width: 15
      height: 19
      offsetX: 1
      offsetY: 8
      advance: 17
      channel: 15
      kerning: 
    - index: 163
      x: 111
      y: 134
      width: 19
      height: 18
      offsetX: 1
      offsetY: 6
      advance: 20
      channel: 15
      kerning: 
    - index: 164
      x: 173
      y: 206
      width: 16
      height: 13
      offsetX: 1
      offsetY: 8
      advance: 18
      channel: 15
      kerning: 
    - index: 165
      x: 0
      y: 156
      width: 19
      height: 18
      offsetX: 0
      offsetY: 6
      advance: 19
      channel: 15
      kerning: 
    - index: 166
      x: 50
      y: 0
      width: 5
      height: 25
      offsetX: 2
      offsetY: 4
      advance: 8
      channel: 15
      kerning: 
    - index: 167
      x: 19
      y: 0
      width: 16
      height: 25
      offsetX: 2
      offsetY: 6
      advance: 19
      channel: 15
      kerning: 
    - index: 168
      x: 137
      y: 221
      width: 11
      height: 3
      offsetX: 1
      offsetY: 5
      advance: 12
      channel: 15
      kerning: 
    - index: 169
      x: 45
      y: 75
      width: 21
      height: 19
      offsetX: 1
      offsetY: 5
      advance: 22
      channel: 15
      kerning: 
    - index: 170
      x: 136
      y: 206
      width: 11
      height: 14
      offsetX: 1
      offsetY: 6
      advance: 13
      channel: 15
      kerning: 
    - index: 171
      x: 205
      y: 205
      width: 13
      height: 12
      offsetX: 1
      offsetY: 12
      advance: 15
      channel: 15
      kerning: 
    - index: 172
      x: 7
      y: 228
      width: 17
      height: 8
      offsetX: 2
      offsetY: 13
      advance: 20
      channel: 15
      kerning: 
    - index: 174
      x: 67
      y: 75
      width: 21
      height: 19
      offsetX: 1
      offsetY: 5
      advance: 22
      channel: 15
      kerning: 
    - index: 175
      x: 199
      y: 218
      width: 11
      height: 2
      offsetX: 1
      offsetY: 6
      advance: 13
      channel: 15
      kerning: 
    - index: 176
      x: 72
      y: 224
      width: 11
      height: 8
      offsetX: 1
      offsetY: 6
      advance: 12
      channel: 15
      kerning: 
    - index: 177
      x: 149
      y: 191
      width: 17
      height: 14
      offsetX: 1
      offsetY: 10
      advance: 19
      channel: 15
      kerning: 
    - index: 178
      x: 233
      y: 204
      width: 10
      height: 10
      offsetX: 1
      offsetY: 6
      advance: 12
      channel: 15
      kerning: 
    - index: 179
      x: 244
      y: 204
      width: 10
      height: 10
      offsetX: 1
      offsetY: 6
      advance: 12
      channel: 15
      kerning: 
    - index: 180
      x: 169
      y: 220
      width: 9
      height: 3
      offsetX: 1
      offsetY: 5
      advance: 11
      channel: 15
      kerning: 
    - index: 181
      x: 140
      y: 74
      width: 15
      height: 19
      offsetX: 1
      offsetY: 10
      advance: 17
      channel: 15
      kerning: 
    - index: 182
      x: 95
      y: 50
      width: 17
      height: 23
      offsetX: 1
      offsetY: 6
      advance: 19
      channel: 15
      kerning: 
    - index: 183
      x: 130
      y: 222
      width: 6
      height: 4
      offsetX: 2
      offsetY: 13
      advance: 9
      channel: 15
      kerning: 
    - index: 184
      x: 84
      y: 223
      width: 8
      height: 8
      offsetX: 3
      offsetY: 23
      advance: 14
      channel: 15
      kerning: 
    - index: 185
      x: 0
      y: 228
      width: 6
      height: 9
      offsetX: 0
      offsetY: 6
      advance: 7
      channel: 15
      kerning: 
    - index: 186
      x: 124
      y: 207
      width: 11
      height: 14
      offsetX: 1
      offsetY: 6
      advance: 13
      channel: 15
      kerning: 
    - index: 187
      x: 190
      y: 205
      width: 14
      height: 12
      offsetX: 1
      offsetY: 12
      advance: 15
      channel: 15
      kerning: 
    - index: 188
      x: 231
      y: 130
      width: 19
      height: 18
      offsetX: 1
      offsetY: 6
      advance: 21
      channel: 15
      kerning: 
    - index: 189
      x: 47
      y: 136
      width: 21
      height: 18
      offsetX: 1
      offsetY: 6
      advance: 23
      channel: 15
      kerning: 
    - index: 190
      x: 0
      y: 137
      width: 23
      height: 18
      offsetX: 1
      offsetY: 6
      advance: 25
      channel: 15
      kerning: 
    - index: 191
      x: 80
      y: 115
      width: 14
      height: 19
      offsetX: 1
      offsetY: 11
      advance: 16
      channel: 15
      kerning: 
    - index: 192
      x: 202
      y: 25
      width: 19
      height: 23
      offsetX: 0
      offsetY: 1
      advance: 19
      channel: 15
      kerning: 46000000ffffffff50000000feffffff54000000feffffff56000000feffffff57000000ffffffff59000000feffffffdd000000feffffff
    - index: 193
      x: 142
      y: 25
      width: 19
      height: 23
      offsetX: 0
      offsetY: 1
      advance: 19
      channel: 15
      kerning: 46000000ffffffff50000000feffffff54000000feffffff56000000feffffff57000000ffffffff59000000feffffffdd000000feffffff
    - index: 194
      x: 122
      y: 0
      width: 19
      height: 24
      offsetX: 0
      offsetY: 0
      advance: 19
      channel: 15
      kerning: 46000000ffffffff50000000feffffff54000000feffffff56000000feffffff57000000ffffffff59000000feffffffdd000000feffffff
    - index: 195
      x: 82
      y: 0
      width: 19
      height: 24
      offsetX: 0
      offsetY: 0
      advance: 19
      channel: 15
      kerning: 46000000ffffffff50000000feffffff54000000feffffff56000000feffffff57000000ffffffff59000000feffffffdd000000feffffff
    - index: 196
      x: 162
      y: 25
      width: 19
      height: 23
      offsetX: 0
      offsetY: 1
      advance: 19
      channel: 15
      kerning: 46000000ffffffff50000000feffffff54000000feffffff56000000feffffff57000000ffffffff59000000feffffffdd000000feffffff
    - index: 197
      x: 102
      y: 0
      width: 19
      height: 24
      offsetX: 0
      offsetY: 0
      advance: 19
      channel: 15
      kerning: 46000000ffffffff50000000feffffff54000000feffffff56000000feffffff57000000ffffffff59000000feffffffdd000000feffffff
    - index: 198
      x: 156
      y: 114
      width: 30
      height: 18
      offsetX: 0
      offsetY: 6
      advance: 31
      channel: 15
      kerning: 
    - index: 199
      x: 0
      y: 0
      width: 18
      height: 25
      offsetX: 2
      offsetY: 6
      advance: 21
      channel: 15
      kerning: 
    - index: 200
      x: 145
      y: 49
      width: 15
      height: 23
      offsetX: 2
      offsetY: 1
      advance: 18
      channel: 15
      kerning: 
    - index: 201
      x: 129
      y: 50
      width: 15
      height: 23
      offsetX: 2
      offsetY: 1
      advance: 18
      channel: 15
      kerning: 
    - index: 202
      x: 33
      y: 26
      width: 15
      height: 24
      offsetX: 2
      offsetY: 0
      advance: 18
      channel: 15
      kerning: 
    - index: 203
      x: 113
      y: 50
      width: 15
      height: 23
      offsetX: 2
      offsetY: 1
      advance: 18
      channel: 15
      kerning: 
    - index: 204
      x: 171
      y: 49
      width: 9
      height: 23
      offsetX: -1
      offsetY: 1
      advance: 8
      channel: 15
      kerning: 
    - index: 205
      x: 161
      y: 49
      width: 9
      height: 23
      offsetX: 1
      offsetY: 1
      advance: 8
      channel: 15
      kerning: 
    - index: 206
      x: 65
      y: 25
      width: 12
      height: 24
      offsetX: -2
      offsetY: 0
      advance: 8
      channel: 15
      kerning: 
    - index: 207
      x: 241
      y: 25
      width: 10
      height: 23
      offsetX: -1
      offsetY: 1
      advance: 8
      channel: 15
      kerning: 
    - index: 208
      x: 69
      y: 135
      width: 20
      height: 18
      offsetX: 0
      offsetY: 6
      advance: 21
      channel: 15
      kerning: 
    - index: 209
      x: 142
      y: 0
      width: 19
      height: 24
      offsetX: 2
      offsetY: 0
      advance: 22
      channel: 15
      kerning: 
    - index: 210
      x: 0
      y: 51
      width: 18
      height: 23
      offsetX: 2
      offsetY: 1
      advance: 21
      channel: 15
      kerning: 
    - index: 211
      x: 19
      y: 51
      width: 18
      height: 23
      offsetX: 2
      offsetY: 1
      advance: 21
      channel: 15
      kerning: 
    - index: 212
      x: 162
      y: 0
      width: 18
      height: 24
      offsetX: 2
      offsetY: 0
      advance: 21
      channel: 15
      kerning: 
    - index: 213
      x: 219
      y: 0
      width: 18
      height: 24
      offsetX: 2
      offsetY: 0
      advance: 21
      channel: 15
      kerning: 
    - index: 214
      x: 38
      y: 51
      width: 18
      height: 23
      offsetX: 2
      offsetY: 1
      advance: 21
      channel: 15
      kerning: 
    - index: 215
      x: 185
      y: 190
      width: 16
      height: 14
      offsetX: 1
      offsetY: 10
      advance: 18
      channel: 15
      kerning: 
    - index: 216
      x: 200
      y: 0
      width: 18
      height: 24
      offsetX: 2
      offsetY: 3
      advance: 21
      channel: 15
      kerning: 
    - index: 217
      x: 57
      y: 51
      width: 18
      height: 23
      offsetX: 2
      offsetY: 1
      advance: 21
      channel: 15
      kerning: 
    - index: 218
      x: 76
      y: 50
      width: 18
      height: 23
      offsetX: 2
      offsetY: 1
      advance: 21
      channel: 15
      kerning: 
    - index: 219
      x: 181
      y: 0
      width: 18
      height: 24
      offsetX: 2
      offsetY: 0
      advance: 21
      channel: 15
      kerning: 
    - index: 220
      x: 222
      y: 25
      width: 18
      height: 23
      offsetX: 2
      offsetY: 1
      advance: 21
      channel: 15
      kerning: 
    - index: 221
      x: 182
      y: 25
      width: 19
      height: 23
      offsetX: 0
      offsetY: 1
      advance: 19
      channel: 15
      kerning: 41000000feffffff4c000000fdffffffc0000000feffffffc1000000feffffffc2000000feffffffc3000000feffffffc4000000feffffffc5000000feffffff
    - index: 222
      x: 89
      y: 74
      width: 17
      height: 19
      offsetX: 2
      offsetY: 5
      advance: 19
      channel: 15
      kerning: 
    - index: 223
      x: 107
      y: 74
      width: 16
      height: 19
      offsetX: 2
      offsetY: 5
      advance: 19
      channel: 15
      kerning: 
    - index: 224
      x: 172
      y: 73
      width: 15
      height: 19
      offsetX: 1
      offsetY: 5
      advance: 17
      channel: 15
      kerning: 54000000feffffff56000000ffffffff57000000ffffffff59000000feffffffdd000000feffffff
    - index: 225
      x: 48
      y: 95
      width: 15
      height: 19
      offsetX: 1
      offsetY: 5
      advance: 17
      channel: 15
      kerning: 54000000feffffff56000000ffffffff57000000ffffffff59000000feffffffdd000000feffffff
    - index: 226
      x: 64
      y: 95
      width: 15
      height: 19
      offsetX: 1
      offsetY: 5
      advance: 17
      channel: 15
      kerning: 54000000feffffff56000000ffffffff57000000ffffffff59000000feffffffdd000000feffffff
    - index: 227
      x: 80
      y: 95
      width: 15
      height: 19
      offsetX: 1
      offsetY: 5
      advance: 17
      channel: 15
      kerning: 54000000feffffff56000000ffffffff57000000ffffffff59000000feffffffdd000000feffffff
    - index: 228
      x: 96
      y: 94
      width: 15
      height: 19
      offsetX: 1
      offsetY: 5
      advance: 17
      channel: 15
      kerning: 54000000feffffff56000000ffffffff57000000ffffffff59000000feffffffdd000000feffffff
    - index: 229
      x: 181
      y: 49
      width: 15
      height: 22
      offsetX: 1
      offsetY: 2
      advance: 17
      channel: 15
      kerning: 54000000feffffff56000000ffffffff57000000ffffffffdd000000feffffff59000000feffffff
    - index: 230
      x: 79
      y: 193
      width: 23
      height: 14
      offsetX: 1
      offsetY: 10
      advance: 25
      channel: 15
      kerning: 
    - index: 231
      x: 216
      y: 49
      width: 15
      height: 21
      offsetX: 1
      offsetY: 10
      advance: 17
      channel: 15
      kerning: 
    - index: 232
      x: 124
      y: 74
      width: 15
      height: 19
      offsetX: 1
      offsetY: 5
      advance: 17
      channel: 15
      kerning: 54000000feffffff56000000ffffffff57000000ffffffffdd000000feffffff59000000feffffff
    - index: 233
      x: 112
      y: 94
      width: 15
      height: 19
      offsetX: 1
      offsetY: 5
      advance: 17
      channel: 15
      kerning: 54000000feffffff56000000ffffffffdd000000feffffff57000000ffffffff59000000feffffff
    - index: 234
      x: 128
      y: 94
      width: 15
      height: 19
      offsetX: 1
      offsetY: 5
      advance: 17
      channel: 15
      kerning: 54000000feffffff56000000ffffffffdd000000feffffff57000000ffffffff59000000feffffff
    - index: 235
      x: 144
      y: 94
      width: 15
      height: 19
      offsetX: 1
      offsetY: 5
      advance: 17
      channel: 15
      kerning: 54000000feffffffdd000000feffffff56000000ffffffff57000000ffffffff59000000feffffff
    - index: 236
      x: 245
      y: 49
      width: 10
      height: 19
      offsetX: -2
      offsetY: 5
      advance: 8
      channel: 15
      kerning: 
    - index: 237
      x: 122
      y: 114
      width: 10
      height: 19
      offsetX: 0
      offsetY: 5
      advance: 8
      channel: 15
      kerning: 
    - index: 238
      x: 109
      y: 114
      width: 12
      height: 19
      offsetX: -2
      offsetY: 5
      advance: 8
      channel: 15
      kerning: 
    - index: 239
      x: 133
      y: 114
      width: 10
      height: 19
      offsetX: -1
      offsetY: 5
      advance: 8
      channel: 15
      kerning: 5400000001000000
    - index: 240
      x: 13
      y: 75
      width: 15
      height: 20
      offsetX: 1
      offsetY: 4
      advance: 17
      channel: 15
      kerning: 
    - index: 241
      x: 160
      y: 93
      width: 15
      height: 19
      offsetX: 1
      offsetY: 5
      advance: 17
      channel: 15
      kerning: 
    - index: 242
      x: 176
      y: 93
      width: 15
      height: 19
      offsetX: 1
      offsetY: 5
      advance: 17
      channel: 15
      kerning: 54000000feffffffdd000000feffffff56000000ffffffff57000000ffffffff59000000feffffff
    - index: 243
      x: 192
      y: 92
      width: 15
      height: 19
      offsetX: 1
      offsetY: 5
      advance: 17
      channel: 15
      kerning: dd000000feffffff54000000feffffff56000000ffffffff57000000ffffffff59000000feffffff
    - index: 244
      x: 208
      y: 91
      width: 15
      height: 19
      offsetX: 1
      offsetY: 5
      advance: 17
      channel: 15
      kerning: dd000000feffffff54000000feffffff56000000ffffffff57000000ffffffff59000000feffffff
    - index: 245
      x: 224
      y: 91
      width: 15
      height: 19
      offsetX: 1
      offsetY: 5
      advance: 17
      channel: 15
      kerning: dd000000feffffff54000000feffffff56000000ffffffff57000000ffffffff59000000feffffff
    - index: 246
      x: 240
      y: 91
      width: 15
      height: 19
      offsetX: 1
      offsetY: 5
      advance: 17
      channel: 15
      kerning: dd000000feffffff54000000feffffff56000000ffffffff57000000ffffffff59000000feffffff
    - index: 247
      x: 155
      y: 206
      width: 17
      height: 13
      offsetX: 1
      offsetY: 10
      advance: 19
      channel: 15
      kerning: 
    - index: 248
      x: 0
      y: 117
      width: 15
      height: 19
      offsetX: 1
      offsetY: 8
      advance: 17
      channel: 15
      kerning: 
    - index: 249
      x: 16
      y: 116
      width: 15
      height: 19
      offsetX: 1
      offsetY: 5
      advance: 17
      channel: 15
      kerning: dd000000feffffff54000000feffffff56000000ffffffff57000000ffffffff59000000feffffff
    - index: 250
      x: 32
      y: 116
      width: 15
      height: 19
      offsetX: 1
      offsetY: 5
      advance: 17
      channel: 15
      kerning: dd000000feffffff54000000feffffff56000000ffffffff57000000ffffffff59000000feffffff
    - index: 251
      x: 48
      y: 115
      width: 15
      height: 19
      offsetX: 1
      offsetY: 5
      advance: 17
      channel: 15
      kerning: dd000000feffffff54000000feffffff56000000ffffffff57000000ffffffff59000000feffffff
    - index: 252
      x: 64
      y: 115
      width: 15
      height: 19
      offsetX: 2
      offsetY: 5
      advance: 18
      channel: 15
      kerning: dd000000feffffff54000000feffffff56000000ffffffff57000000ffffffff59000000feffffff
    - index: 253
      x: 49
      y: 26
      width: 15
      height: 24
      offsetX: 0
      offsetY: 5
      advance: 15
      channel: 15
      kerning: 
    - index: 254
      x: 17
      y: 26
      width: 15
      height: 24
      offsetX: 1
      offsetY: 5
      advance: 17
      channel: 15
      kerning: 
    - index: 255
      x: 0
      y: 26
      width: 16
      height: 24
      offsetX: 0
      offsetY: 5
      advance: 15
      channel: 15
      kerning: 
  mAtlas: {fileID: 11400000, guid: ed75eff6b19833044b4c66fc91ec9d46, type: 2}
  mReplacement: {fileID: 0}
  mSymbols: []
  mDynamicFont: {fileID: 0}
  mDynamicFontSize: 16
  mDynamicFontStyle: 0
--- !u!1001 &100100000
Prefab:
  m_ObjectHideFlags: 1
  serializedVersion: 2
  m_Modification:
    m_TransformParent: {fileID: 0}
    m_Modifications: []
    m_RemovedComponents: []
  m_ParentPrefab: {fileID: 0}
  m_RootGameObject: {fileID: 100000}
  m_IsPrefabParent: 1
