%YAML 1.1
%TAG !u! tag:unity3d.com,2011:
--- !u!1 &100000
GameObject:
  m_ObjectHideFlags: 0
  m_PrefabParentObject: {fileID: 0}
  m_PrefabInternal: {fileID: 100100000}
  serializedVersion: 4
  m_Component:
  - 4: {fileID: 400000}
  - 114: {fileID: 11400000}
  m_Layer: 0
  m_Name: Space
  m_TagString: Untagged
  m_Icon: {fileID: 0}
  m_NavMeshLayer: 0
  m_StaticEditorFlags: 0
  m_IsActive: 1
--- !u!4 &400000
Transform:
  m_ObjectHideFlags: 1
  m_PrefabParentObject: {fileID: 0}
  m_PrefabInternal: {fileID: 100100000}
  m_GameObject: {fileID: 100000}
  m_LocalRotation: {x: 0, y: 0, z: 0, w: 1}
  m_LocalPosition: {x: 0, y: 0, z: 0}
  m_LocalScale: {x: 1, y: 1, z: 1}
  m_Children: []
  m_Father: {fileID: 0}
  m_RootOrder: 0
--- !u!114 &11400000
MonoBehaviour:
  m_ObjectHideFlags: 1
  m_PrefabParentObject: {fileID: 0}
  m_PrefabInternal: {fileID: 100100000}
  m_GameObject: {fileID: 100000}
  m_Enabled: 1
  m_EditorHideFlags: 0
  m_Script: {fileID: 11500000, guid: 4d0c51bb0b6e93049af5e88f93826e3b, type: 3}
  m_Name: 
  m_EditorClassIdentifier: 
  material: {fileID: 2100000, guid: db47ab91e0691de418cfceb4a02aad5a, type: 2}
  mSprites:
  - name: Large
    x: 0
    y: 208
    width: 380
    height: 304
    borderLeft: 0
    borderRight: 0
    borderTop: 0
    borderBottom: 0
    paddingLeft: 1
    paddingRight: 3
    paddingTop: 1
    paddingBottom: 79
  - name: Horizontal Frame
    x: 155
    y: 16
    width: 8
    height: 8
    borderLeft: 2
    borderRight: 2
    borderTop: 2
    borderBottom: 2
    paddingLeft: 0
    paddingRight: 0
    paddingTop: 0
    paddingBottom: 0
  - name: Arimo20
    x: 0
    y: 38
    width: 169
    height: 169
    borderLeft: 0
    borderRight: 0
    borderTop: 0
    borderBottom: 0
    paddingLeft: 0
    paddingRight: 1
    paddingTop: 0
    paddingBottom: 1
  - name: Button
    x: 63
    y: 1
    width: 30
    height: 36
    borderLeft: 4
    borderRight: 10
    borderTop: 4
    borderBottom: 11
    paddingLeft: 0
    paddingRight: 0
    paddingTop: 0
    paddingBottom: 0
  - name: Grey Dot
    x: 170
    y: 3
    width: 16
    height: 16
    borderLeft: 7
    borderRight: 7
    borderTop: 7
    borderBottom: 7
    paddingLeft: 0
    paddingRight: 0
    paddingTop: 0
    paddingBottom: 0
  - name: Circle - X
    x: 330
    y: 166
    width: 40
    height: 41
    borderLeft: 0
    borderRight: 0
    borderTop: 0
    borderBottom: 0
    paddingLeft: 0
    paddingRight: 0
    paddingTop: 0
    paddingBottom: 0
  - name: Circle - Plus
    x: 249
    y: 47
    width: 40
    height: 41
    borderLeft: 0
    borderRight: 0
    borderTop: 0
    borderBottom: 0
    paddingLeft: 0
    paddingRight: 0
    paddingTop: 0
    paddingBottom: 0
  - name: Button 2
    x: 381
    y: 196
    width: 252
    height: 78
    borderLeft: 70
    borderRight: 10
    borderTop: 18
    borderBottom: 21
    paddingLeft: 0
    paddingRight: 0
    paddingTop: 0
    paddingBottom: 0
  - name: Checkmark
    x: 94
    y: 9
    width: 31
    height: 28
    borderLeft: 0
    borderRight: 0
    borderTop: 0
    borderBottom: 0
    paddingLeft: 0
    paddingRight: 1
    paddingTop: 0
    paddingBottom: 0
  - name: Border
    x: 331
    y: 25
    width: 22
    height: 22
    borderLeft: 7
    borderRight: 7
    borderTop: 7
    borderBottom: 7
    paddingLeft: 0
    paddingRight: 0
    paddingTop: 0
    paddingBottom: 0
  - name: Card Icon - Stealth
    x: 314
    y: 91
    width: 62
    height: 62
    borderLeft: 0
    borderRight: 0
    borderTop: 0
    borderBottom: 0
    paddingLeft: 1
    paddingRight: 1
    paddingTop: 1
    paddingBottom: 1
  - name: Button 3
    x: 155
    y: 25
    width: 12
    height: 12
    borderLeft: 4
    borderRight: 4
    borderTop: 4
    borderBottom: 4
    paddingLeft: 0
    paddingRight: 0
    paddingTop: 0
    paddingBottom: 0
  - name: SciFi Border
    x: 170
    y: 20
    width: 64
    height: 64
    borderLeft: 26
    borderRight: 38
    borderTop: 31
    borderBottom: 32
    paddingLeft: 0
    paddingRight: 0
    paddingTop: 0
    paddingBottom: 0
  - name: SciFi Button
    x: 249
    y: 89
    width: 64
    height: 64
    borderLeft: 26
    borderRight: 38
    borderTop: 30
    borderBottom: 32
    paddingLeft: 0
    paddingRight: 0
    paddingTop: 0
    paddingBottom: 0
  - name: Medium
    x: 381
    y: 275
    width: 255
    height: 237
    borderLeft: 0
    borderRight: 0
    borderTop: 0
    borderBottom: 0
    paddingLeft: 0
    paddingRight: 1
    paddingTop: 0
    paddingBottom: 19
  - name: Tasharen Small
    x: 170
    y: 154
    width: 159
    height: 53
    borderLeft: 0
    borderRight: 0
    borderTop: 0
    borderBottom: 0
    paddingLeft: 5
    paddingRight: 6
    paddingTop: 6
    paddingBottom: 6
  - name: Title
    x: 637
    y: 446
    width: 294
    height: 66
    borderLeft: 0
    borderRight: 0
    borderTop: 0
    borderBottom: 0
    paddingLeft: 22
    paddingRight: 24
    paddingTop: 34
    paddingBottom: 30
  - name: Big Checkmark
    x: 170
    y: 85
    width: 78
    height: 68
    borderLeft: 0
    borderRight: 0
    borderTop: 0
    borderBottom: 0
    paddingLeft: 2
    paddingRight: 0
    paddingTop: 9
    paddingBottom: 3
  - name: Circle - AI
    x: 249
    y: 5
    width: 40
    height: 41
    borderLeft: 0
    borderRight: 0
    borderTop: 0
    borderBottom: 0
    paddingLeft: 0
    paddingRight: 0
    paddingTop: 0
    paddingBottom: 0
  - name: Circle - Human
    x: 290
    y: 47
    width: 40
    height: 41
    borderLeft: 0
    borderRight: 0
    borderTop: 0
    borderBottom: 0
    paddingLeft: 0
    paddingRight: 0
    paddingTop: 0
    paddingBottom: 0
  - name: SciFi Slim
    x: 0
    y: 4
    width: 62
    height: 33
    borderLeft: 30
    borderRight: 10
    borderTop: 13
    borderBottom: 12
    paddingLeft: 1
    paddingRight: 1
    paddingTop: 1
    paddingBottom: 1
  - name: SciFi Round
    x: 126
    y: 9
    width: 28
    height: 28
    borderLeft: 8
    borderRight: 8
    borderTop: 8
    borderBottom: 8
    paddingLeft: 1
    paddingRight: 1
    paddingTop: 1
    paddingBottom: 1
  - name: Star
    x: 331
    y: 48
    width: 40
    height: 40
    borderLeft: 0
    borderRight: 0
    borderTop: 0
    borderBottom: 0
    paddingLeft: 0
    paddingRight: 0
    paddingTop: 0
    paddingBottom: 0
  - name: Circle
    x: 290
    y: 5
    width: 40
    height: 41
    borderLeft: 15
    borderRight: 21
    borderTop: 15
    borderBottom: 22
    paddingLeft: 0
    paddingRight: 0
    paddingTop: 0
    paddingBottom: 0
  - name: NGUI Logo
    x: 381
    y: 119
    width: 255
    height: 76
    borderLeft: 0
    borderRight: 0
    borderTop: 0
    borderBottom: 0
    paddingLeft: 0
    paddingRight: 0
    paddingTop: 0
    paddingBottom: 0
  mPixelSize: 1
  mReplacement: {fileID: 0}
  mCoordinates: 0
  sprites: []
--- !u!1001 &100100000
Prefab:
  m_ObjectHideFlags: 1
  serializedVersion: 2
  m_Modification:
    m_TransformParent: {fileID: 0}
    m_Modifications: []
    m_RemovedComponents: []
  m_ParentPrefab: {fileID: 0}
  m_RootGameObject: {fileID: 100000}
  m_IsPrefabParent: 1
