# Blender v2.79 (sub 0) OBJ File: ''
# www.blender.org
mtllib cactus1.mtl
o cactus_01
v 0.037155 2.961272 0.369482
v -0.007937 3.097727 0.365984
v -0.143066 3.112216 0.323291
v -0.280103 3.039634 0.299750
v -0.257771 2.892691 0.297962
v -0.144083 2.769277 0.333720
v -0.007442 2.818434 0.365957
v -0.048324 2.955972 0.336612
v -0.062545 2.992252 0.330655
v -0.098545 3.002143 0.319866
v -0.127888 2.978238 0.313257
v -0.127290 2.939751 0.313956
v -0.096246 2.916485 0.324271
v -0.063145 2.923417 0.336908
v -0.035068 2.947039 0.196404
v -0.059395 3.010587 0.189597
v -0.124240 3.021056 0.174915
v -0.185983 2.983055 0.159471
v -0.181496 2.911269 0.163641
v -0.127502 2.858082 0.175250
v -0.055101 2.882936 0.189375
v 0.732537 2.083265 -0.047001
v 0.735129 2.234258 0.011968
v 0.741828 2.257081 0.170746
v 0.748798 2.168497 0.317792
v 0.747542 2.001247 0.303899
v 0.742094 1.875706 0.173931
v 0.737434 1.928353 0.006288
v 0.724801 2.084322 0.074693
v 0.723607 2.123704 0.093552
v 0.724158 2.133434 0.136139
v 0.726686 2.106197 0.170258
v 0.727164 2.062498 0.170202
v 0.727635 2.035195 0.135960
v 0.729720 2.044930 0.093519
v 0.659185 2.083266 -0.003650
v 0.661113 2.200498 0.039093
v 0.666343 2.214924 0.161384
v 0.670109 2.149532 0.278813
v 0.670881 2.019988 0.265194
v 0.666615 1.917772 0.164599
v 0.655753 1.963168 0.034459
v 0.240941 0.083976 0.000000
v 0.138501 0.083976 -0.212720
v -0.091681 0.083976 -0.265257
v -0.276272 0.083976 -0.118051
v -0.276272 0.083976 0.118051
v -0.091681 0.083976 0.265257
v 0.138501 0.083976 0.212720
v 0.240941 3.314765 -0.000001
v 0.138501 3.314765 -0.212720
v -0.091681 3.314765 -0.265258
v -0.276272 3.314765 -0.118051
v -0.276272 3.314765 0.118050
v -0.091681 3.314765 0.265257
v 0.138501 3.314765 0.212719
v 0.171410 3.424447 -0.000001
v 0.096513 3.424447 -0.155527
v -0.071780 3.424447 -0.193938
v -0.206741 3.424447 -0.086311
v -0.206741 3.424447 0.086310
v -0.071780 3.424447 0.193937
v 0.096513 3.424447 0.155526
v -0.027515 3.424447 -0.000001
v 0.125818 0.732053 0.303626
v 0.128535 1.754264 0.212720
v 0.123077 2.439396 0.150493
v 0.215399 2.395005 -0.062226
v 0.224439 1.790272 -0.000000
v 0.219938 0.691613 0.090906
v -0.255269 0.895790 0.208957
v -0.259769 1.608469 0.118050
v -0.250730 2.619132 0.055824
v -0.084370 2.539142 0.203031
v -0.086958 1.673354 0.265257
v -0.085669 0.822920 0.356164
v -0.085669 0.822920 -0.174351
v -0.086957 1.673354 -0.265258
v -0.084370 2.539142 -0.327484
v -0.250730 2.619132 -0.180277
v -0.259769 1.608469 -0.118051
v -0.255269 0.895790 -0.027144
v 0.123077 2.439396 -0.274946
v 0.128535 1.754264 -0.212720
v 0.125818 0.732053 -0.121814
v 0.009834 0.789109 0.140183
v 0.050891 0.725773 0.021766
v 0.027204 1.019970 0.090083
v 0.001065 0.914229 0.165474
v 0.100718 0.914229 -0.121943
v 0.074578 1.019970 -0.046552
v 0.091949 0.789108 -0.096652
v 0.415514 0.842629 0.267811
v 0.488470 0.798659 0.173481
v 0.300820 0.997318 0.156930
v 0.328736 0.938977 0.257342
v 0.414930 0.938977 0.008741
v 0.330848 0.997318 0.070321
v 0.489564 0.842629 0.054236
v 0.616389 1.275707 0.349913
v 0.716601 1.280239 0.252578
v 0.413429 1.255224 0.218908
v 0.482949 1.263720 0.331164
v 0.581742 1.263720 0.046224
v 0.457655 1.255224 0.091353
v 0.698149 1.275707 0.114101
v 0.621731 2.372815 0.351803
v 0.719247 2.372417 0.253495
v 0.409246 2.374472 0.219663
v 0.483794 2.373724 0.337026
v 0.586035 2.373724 0.042143
v 0.454837 2.374472 0.088170
v 0.703515 2.372815 0.115923
v 0.605718 2.462480 0.297805
v 0.667478 2.462310 0.235546
v 0.471146 2.463190 0.214125
v 0.518367 2.462870 0.288449
v 0.583118 2.462870 0.101695
v 0.500023 2.463190 0.130837
v 0.657513 2.462480 0.148420
v 0.570500 2.443016 0.201922
v -0.156841 1.348949 -0.150655
v -0.147751 1.285614 -0.025652
v -0.152995 1.579811 -0.097769
v -0.158783 1.474069 -0.177353
v -0.136720 1.474069 0.126049
v -0.142507 1.579811 0.046465
v -0.138661 1.348949 0.099351
v -0.658880 1.835547 -0.119768
v -0.735716 1.840080 -0.003094
v -0.432425 1.815065 -0.035669
v -0.524539 1.823560 -0.130269
v -0.559489 1.823560 0.169280
v -0.448070 1.815065 0.098427
v -0.687804 1.835547 0.128134
v -0.687813 2.456791 -0.103194
v -0.738533 2.456393 0.025652
v -0.440402 2.458448 -0.065798
v -0.555267 2.457700 -0.144139
v -0.532632 2.457700 0.167143
v -0.430308 2.458448 0.073008
v -0.669707 2.456791 0.145804
v -0.651762 2.546456 -0.059922
v -0.683885 2.546286 0.021678
v -0.495073 2.547166 -0.036245
v -0.567825 2.546846 -0.085853
v -0.553490 2.546846 0.111287
v -0.488680 2.547166 0.051675
v -0.640295 2.546456 0.097771
v -0.581514 2.526992 0.014234
v -0.447254 1.641344 -0.058512
v -0.525506 1.579282 -0.149084
v -0.649478 1.441568 0.019176
v -0.597011 1.485175 0.149786
v -0.438142 1.641344 0.066791
v -0.616458 1.485175 -0.117650
v -0.502468 1.579282 0.167730
v 0.183960 0.006262 0.000000
v 0.104092 0.006262 -0.165849
v -0.075372 0.006262 -0.206811
v -0.219291 0.006262 -0.092039
v -0.219291 0.006262 0.092040
v -0.075372 0.006262 0.206811
v 0.104091 0.006262 0.165850
v 0.554853 1.818722 0.043289
v 0.437995 1.814848 0.111948
v 0.510365 1.818722 0.346889
v 0.646794 1.824261 0.337963
v 0.682985 1.824261 0.090981
v 0.418119 1.814848 0.247589
v 0.725605 1.826328 0.223369
vt 1.000000 0.833359
vt 0.975884 0.839977
vt 0.969318 0.832499
vt 0.976144 0.798924
vt 0.935222 0.798116
vt 0.959565 0.833751
vt 0.953059 0.842873
vt 0.914789 0.841725
vt 0.921798 0.882995
vt 0.956172 0.853263
vt 0.966089 0.857025
vt 0.964352 0.890256
vt 1.000000 0.873877
vt 0.975036 0.851057
vt 0.753846 0.896840
vt 0.747556 0.907065
vt 0.735844 0.908127
vt 0.727955 0.899034
vt 0.729347 0.886861
vt 0.739219 0.880661
vt 0.750062 0.885129
vt 0.965968 0.425818
vt 0.922402 0.406886
vt 0.922837 0.388967
vt 0.963713 0.385867
vt 0.833256 0.957132
vt 0.792416 0.963248
vt 0.791974 0.949181
vt 0.835339 0.924326
vt 0.833552 0.884404
vt 0.792115 0.879389
vt 0.791848 0.861386
vt 0.835900 0.845187
vt 0.922747 0.370825
vt 0.965968 0.346988
vt 0.880508 0.474604
vt 0.839892 0.469717
vt 0.839792 0.447748
vt 0.880509 0.432697
vt 0.835339 0.998185
vt 0.791670 0.983395
vt 0.835900 0.924326
vt 0.791670 0.898149
vt 0.696797 0.909883
vt 0.723517 0.946956
vt 0.770185 0.946956
vt 0.791670 0.902506
vt 0.780444 0.856621
vt 0.735982 0.845187
vt 0.698299 0.864562
vt 0.687308 0.563187
vt 0.669778 0.555072
vt 0.676818 0.520488
vt 0.693733 0.517686
vt 0.654044 0.885076
vt 0.677416 0.882583
vt 0.681140 0.911673
vt 0.659057 0.920830
vt 0.690740 0.639116
vt 0.670146 0.642995
vt 0.669778 0.610251
vt 0.690905 0.598128
vt 0.685433 0.729850
vt 0.669778 0.724936
vt 0.670530 0.689736
vt 0.685433 0.684122
vt 0.693733 0.598128
vt 0.676354 0.583596
vt 0.658472 0.838123
vt 0.681140 0.846267
vt 0.690905 0.684122
vt 0.670251 0.677639
vt 0.386841 0.852150
vt 0.430915 0.873588
vt 0.415228 0.895062
vt 0.380865 0.878347
vt 0.432926 0.943295
vt 0.491637 0.943760
vt 0.490739 0.965422
vt 0.444965 0.965059
vt 0.236158 0.022510
vt 0.172331 0.021311
vt 0.182843 0.000000
vt 0.232606 0.000935
vt 0.322073 0.852150
vt 0.330368 0.878347
vt 0.028627 0.945852
vt 0.091784 0.945136
vt 0.089029 0.966090
vt 0.039788 0.966649
vt 0.285383 0.873588
vt 0.301763 0.895062
vt 0.235728 0.675272
vt 0.214986 0.934093
vt 0.151159 0.932894
vt 0.172332 0.686536
vt 0.493382 0.250339
vt 0.491637 0.031653
vt 0.550004 0.031177
vt 0.546851 0.227261
vt 0.092398 0.230163
vt 0.069262 0.034802
vt 0.120502 0.031045
vt 0.143024 0.249271
vt 0.285383 0.690202
vt 0.264211 0.936560
vt 0.440779 0.278056
vt 0.432926 0.031188
vt 0.029241 0.230879
vt 0.006105 0.035519
vt 0.341145 0.213048
vt 0.351235 0.020667
vt 0.416003 0.020667
vt 0.399034 0.239307
vt 0.604734 0.892883
vt 0.550004 0.892886
vt 0.570611 0.848972
vt 0.616913 0.947641
vt 0.570611 0.936798
vt 0.654044 0.868510
vt 0.654044 0.917250
vt 0.616913 0.838123
vt 0.363203 0.000000
vt 0.410557 0.000000
vt 0.337646 0.672111
vt 0.396677 0.695980
vt 0.337662 0.442982
vt 0.399297 0.422538
vt 0.018299 0.003271
vt 0.064475 0.002747
vt 0.000000 0.717008
vt 0.063157 0.716292
vt 0.019060 0.516003
vt 0.082217 0.515286
vt 0.447616 0.000009
vt 0.490541 0.000349
vt 0.430915 0.760753
vt 0.484603 0.735546
vt 0.435604 0.471755
vt 0.490368 0.495047
vt 0.245302 0.967274
vt 0.209311 0.965470
vt 0.285383 0.024977
vt 0.256076 0.207130
vt 0.206523 0.193304
vt 0.273727 0.496319
vt 0.223800 0.504052
vt 0.101938 0.000000
vt 0.113942 0.733336
vt 0.143024 0.941378
vt 0.132248 0.493458
vt 0.533215 0.000000
vt 0.538943 0.714482
vt 0.550004 0.943283
vt 0.545571 0.512877
vt 0.162646 0.964594
vt 0.143024 0.203464
vt 0.160675 0.492652
vt 0.751553 0.094814
vt 0.731467 0.190649
vt 0.696797 0.201415
vt 0.721366 0.075970
vt 0.585756 0.168977
vt 0.634275 0.022297
vt 0.670703 0.033176
vt 0.619908 0.181173
vt 0.840026 0.025408
vt 0.855399 0.000000
vt 0.872219 0.001069
vt 0.866589 0.027026
vt 0.896366 0.001069
vt 0.904711 0.027026
vt 0.881721 0.512211
vt 0.880619 0.486392
vt 0.901562 0.485978
vt 0.914789 0.511520
vt 0.380251 0.965519
vt 0.387857 0.949413
vt 0.412090 0.949409
vt 0.418514 0.965519
vt 0.846265 0.511697
vt 0.858165 0.486090
vt 0.690856 0.468745
vt 0.603109 0.434874
vt 0.620716 0.422607
vt 0.696797 0.439035
vt 0.829746 0.029662
vt 0.704946 0.055543
vt 0.821566 0.000000
vt 0.914789 0.982276
vt 0.926977 0.903756
vt 0.952149 0.905356
vt 0.954501 0.984800
vt 0.671695 0.517686
vt 0.555935 0.461292
vt 0.572637 0.453940
vt 0.680296 0.502248
vt 0.977053 0.890256
vt 0.977053 0.986386
vt 0.858813 0.184464
vt 0.896380 0.184895
vt 0.873320 0.666326
vt 0.909389 0.666513
vt 0.799543 0.304657
vt 0.839792 0.446110
vt 0.813439 0.464486
vt 0.779519 0.324342
vt 0.841155 0.666305
vt 0.776889 0.471732
vt 0.743828 0.336459
vt 0.696797 0.040416
vt 0.649141 0.190831
vt 0.902280 0.342429
vt 0.865299 0.342429
vt 0.914789 0.821116
vt 0.881787 0.820439
vt 0.755528 0.170879
vt 0.584500 0.333783
vt 0.550004 0.319717
vt 0.608279 0.343060
vt 0.846285 0.821293
vt 0.378267 0.905717
vt 0.399739 0.924007
vt 0.372773 0.929927
vt 0.427154 0.930011
vt 0.421808 0.905873
vt 0.400100 0.895062
vt 0.951964 0.346988
vt 0.954947 0.329855
vt 0.978633 0.324604
vt 0.989362 0.338692
vt 0.991482 0.248856
vt 0.979472 0.274135
vt 0.956556 0.273644
vt 0.955304 0.248081
vt 0.957381 0.770671
vt 0.952434 0.796814
vt 0.928528 0.796728
vt 0.919633 0.770571
vt 0.936098 0.273715
vt 0.923000 0.248125
vt 0.922402 0.322209
vt 0.936227 0.314161
vt 0.372773 0.895062
vt 0.372773 0.999042
vt 0.345764 0.979228
vt 0.350166 0.895433
vt 0.700118 0.828226
vt 0.818883 0.786132
vt 0.841155 0.797111
vt 0.710599 0.845187
vt 0.311200 0.979607
vt 0.310381 0.895869
vt 0.669778 0.838123
vt 0.550004 0.789672
vt 0.553639 0.762285
vt 0.664214 0.806040
vt 0.285383 1.000000
vt 0.289083 0.895979
vt 0.581449 0.737502
vt 0.669778 0.771296
vt 0.985043 0.772763
vt 0.969953 0.798116
vt 0.958823 0.017567
vt 0.949192 0.066505
vt 0.922402 0.069339
vt 0.927597 0.000000
vt 0.563584 0.673159
vt 0.597540 0.678883
vt 0.791517 0.760524
vt 0.804369 0.691116
vt 0.841155 0.686342
vt 0.626514 0.695890
vt 0.610828 0.735939
vt 0.985043 0.500076
vt 0.983828 0.597263
vt 0.951828 0.596797
vt 0.953685 0.485978
vt 0.991482 0.018266
vt 0.985950 0.067072
vt 0.915659 0.595801
vt 0.914789 0.497722
vt 0.594508 0.519131
vt 0.627066 0.517686
vt 0.791138 0.512418
vt 0.829224 0.511339
vt 0.661661 0.530994
vt 0.961781 0.302347
vt 0.955471 0.274135
vt 0.936481 0.289409
vt 0.989362 0.302288
vt 0.979005 0.279816
vt 0.799194 0.486714
vt 0.823311 0.485978
vt 0.814069 0.481344
vt 0.790937 0.485978
vt 0.874176 0.417249
vt 0.899286 0.417249
vt 0.922402 0.338313
vt 0.921110 0.432697
vt 0.839792 0.063446
vt 0.845248 0.941743
vt 0.877033 0.954383
vt 0.849036 0.432697
vt 0.839792 0.338313
vt 0.907293 0.941583
vt 0.536246 0.965050
vt 0.696797 0.793119
vt 0.648557 0.000000
vt 0.671611 0.006940
vn -0.3407 0.0982 0.9350
vn -0.1781 0.1306 0.9753
vn -0.1277 -0.0885 0.9879
vn -0.3835 -0.0813 0.9199
vn -0.2948 0.1352 0.9460
vn -0.1047 -0.0188 0.9943
vn 0.9988 0.0474 -0.0113
vn 0.9003 -0.2635 -0.3465
vn -0.5912 -0.6783 -0.4363
vn -0.3308 0.7813 -0.5293
vn 0.8752 0.2836 -0.3920
vn 0.3840 -0.8256 -0.4134
vn -0.8513 -0.1100 -0.5130
vn 0.2440 0.8395 -0.4854
vn 0.9972 0.0643 0.0375
vn 0.9918 0.0772 -0.1020
vn 0.9884 -0.0988 -0.1150
vn 0.9965 -0.0376 0.0741
vn 0.9969 0.0781 0.0110
vn 0.9888 0.0062 -0.1494
vn -0.4535 -0.2833 -0.8451
vn -0.4510 -0.6254 0.6368
vn -0.4483 0.7645 0.4633
vn -0.4674 0.3203 -0.8240
vn -0.4493 -0.8553 -0.2582
vn -0.4457 -0.0819 0.8915
vn -0.4598 0.8827 -0.0975
vn 0.7517 -0.5512 -0.3620
vn 0.1835 -0.5660 0.8038
vn 0.7517 -0.5512 0.3620
vn 0.1835 -0.5660 -0.8037
vn -0.8065 -0.5913 -0.0000
vn -0.5063 -0.5837 -0.6348
vn 0.9061 -0.0498 0.4200
vn -0.6511 -0.0784 0.7549
vn -0.6350 0.0510 -0.7708
vn 0.9095 0.0081 -0.4155
vn 0.2167 -0.0744 0.9734
vn -0.9993 -0.0367 -0.0000
vn 0.2483 0.0716 -0.9660
vn 0.0000 1.0000 -0.0000
vn 0.1914 0.5104 -0.8384
vn 0.2542 0.1269 -0.9588
vn 0.2358 -0.0941 -0.9672
vn -0.8446 0.5354 -0.0000
vn -0.9997 0.0259 -0.0000
vn -1.0000 -0.0063 -0.0000
vn 0.1914 0.5104 0.8384
vn 0.2049 -0.1262 0.9706
vn 0.2400 0.0936 0.9663
vn 0.7824 0.4960 -0.3768
vn 0.9076 0.0839 -0.4114
vn 0.9123 -0.0381 -0.4079
vn 0.9139 -0.0290 -0.4050
vn 0.9123 -0.0379 -0.4078
vn -0.5295 0.5279 -0.6640
vn -0.6234 0.1017 -0.7752
vn -0.6505 -0.0901 -0.7541
vn -0.5295 0.5279 0.6640
vn -0.6467 -0.0777 0.7588
vn -0.6484 0.0856 0.7565
vn 0.7824 0.4960 0.3768
vn 0.9058 -0.0368 0.4220
vn 0.9127 0.0318 0.4073
vn 0.4673 -0.1190 -0.8760
vn -0.0212 -0.0046 0.9998
vn -0.7158 0.5275 0.4576
vn -0.7962 0.5383 -0.2761
vn 0.6229 0.4820 0.6162
vn -0.2789 0.5275 -0.8025
vn 0.8706 0.4820 -0.0983
vn -0.1799 0.7182 0.6722
vn 0.2650 -0.8956 -0.3574
vn 0.0761 0.9968 0.0264
vn -0.0131 -0.8956 0.4447
vn 0.2748 0.7182 -0.6393
vn -0.2647 -0.1776 0.9478
vn -0.9714 -0.0033 -0.2373
vn -0.9713 -0.0041 -0.2380
vn 0.7671 -0.0034 0.6415
vn 0.7702 -0.0035 0.6378
vn 0.7670 -0.0034 0.6416
vn -0.4233 -0.0029 -0.9060
vn -0.4196 -0.0022 -0.9077
vn -0.4232 -0.0028 -0.9060
vn 0.9765 -0.0035 -0.2156
vn 0.9774 -0.0020 -0.2113
vn 0.9765 -0.0035 -0.2155
vn 0.4433 -0.0014 -0.8964
vn -0.7933 -0.0030 0.6088
vn -0.7924 -0.0045 0.6100
vn -0.7934 -0.0029 0.6087
vn -0.9716 -0.0026 -0.2366
vn 0.7640 -0.0032 0.6452
vn -0.4269 -0.0035 -0.9043
vn -0.0363 -0.0015 0.9993
vn 0.4276 -0.0050 -0.9040
vn -0.7943 -0.0013 0.6075
vn 0.9755 -0.0050 -0.2198
vn 0.1844 0.9763 -0.1129
vn -0.2035 0.9788 0.0252
vn 0.2069 0.9757 0.0717
vn -0.1442 0.9788 -0.1457
vn 0.0749 0.9763 0.2028
vn 0.0267 0.9777 -0.2083
vn -0.1080 0.9777 0.1801
vn 0.4766 0.5275 -0.7033
vn 0.8405 0.5383 -0.0611
vn -0.8157 0.4820 -0.3198
vn 0.5733 0.5275 0.6269
vn -0.2579 0.5026 -0.8252
vn 0.0986 0.6838 -0.7230
vn -0.2254 -0.8783 0.4217
vn 0.2028 0.9791 -0.0147
vn -0.2968 -0.8742 -0.3842
vn 0.2354 0.6726 0.7016
vn -0.1315 -0.2039 -0.9701
vn -0.7609 0.4820 0.4345
vn 0.6897 0.0531 0.7221
vn -0.1881 0.0145 -0.9821
vn -0.2464 -0.0285 0.9688
vn 0.7294 0.0405 -0.6828
vn -0.9064 -0.1922 0.3762
vn 0.9995 -0.0180 0.0252
vn 0.9998 -0.0069 0.0204
vn 0.9995 -0.0178 0.0251
vn -0.8950 -0.1672 -0.4136
vn 0.9998 -0.0067 0.0203
vn -0.8874 -0.0059 -0.4609
vn 0.6109 -0.0043 0.7917
vn -0.1895 -0.0069 -0.9818
vn -0.2293 -0.0038 0.9733
vn 0.6410 -0.0070 -0.7675
vn -0.9070 -0.0046 0.4211
vn -0.1247 0.9763 0.1766
vn 0.1769 0.9788 -0.1036
vn -0.2184 0.9757 0.0159
vn 0.1901 0.9788 0.0769
vn -0.1490 0.9763 -0.1567
vn 0.0578 0.9777 0.2019
vn 0.0280 0.9777 -0.2081
vn -0.1358 0.5026 0.8538
vn 0.4622 0.5026 -0.7306
vn 0.9137 0.0492 0.4033
vn -0.6532 0.0541 0.7553
vn -0.6560 -0.0459 -0.7534
vn 0.9139 -0.0288 -0.4049
vn 0.2436 0.0780 0.9667
vn -1.0000 0.0089 -0.0000
vn 0.2371 -0.0773 -0.9684
vn -0.8480 0.4409 -0.2940
vn -0.3835 0.2816 -0.8796
vn 0.3788 -0.1776 -0.9083
vn 0.9027 -0.4122 -0.1239
vn -0.8456 0.2816 0.4534
vn 0.6322 -0.4122 0.6560
vn -0.1752 -0.1190 0.9773
vn -0.2872 0.0541 0.9563
vn -0.3146 -0.1537 0.9367
vn 0.9918 -0.1267 -0.0152
vn -0.5063 -0.5837 0.6348
vn 0.0450 -0.2183 0.9748
vn -0.0892 0.5026 0.8599
usemtl CACTUS
s 1
f 1/1/1 8/2/1 14/3/1 7/4/1
f 6/5/2 13/6/2 12/7/2 5/8/2
f 4/9/3 11/10/3 10/11/3 3/12/3
f 2/13/4 9/14/4 8/2/4 1/1/4
f 7/4/5 14/3/5 13/6/5 6/5/5
f 5/8/6 12/7/6 11/10/6 4/9/6
f 33/15/7 34/16/7 35/17/7 29/18/7 30/19/7 31/20/7 32/21/7
f 7/22/8 21/23/8 15/24/8 1/25/8
f 5/26/9 19/27/9 20/28/9 6/29/9
f 3/30/10 17/31/10 18/32/10 4/33/10
f 1/25/11 15/24/11 16/34/11 2/35/11
f 6/36/12 20/37/12 21/38/12 7/39/12
f 4/40/13 18/41/13 19/27/13 5/26/13
f 2/42/14 16/43/14 17/31/14 3/30/14
f 22/44/15 29/18/15 35/17/15 28/45/15
f 27/46/16 34/16/16 33/15/16 26/47/16
f 25/48/17 32/21/17 31/20/17 24/49/17
f 23/50/18 30/19/18 29/18/18 22/44/18
f 28/45/19 35/17/19 34/16/19 27/46/19
f 26/47/20 33/15/20 32/21/20 25/48/20
f 28/51/21 42/52/21 36/53/21 22/54/21
f 26/55/22 40/56/22 41/57/22 27/58/22
f 24/59/23 38/60/23 39/61/23 25/62/23
f 22/63/24 36/64/24 37/65/24 23/66/24
f 27/67/25 41/68/25 42/52/25 28/51/25
f 25/69/26 39/70/26 40/56/26 26/55/26
f 23/71/27 37/72/27 38/60/27 24/59/27
f 44/73/28 43/74/28 158/75/28 159/76/28
f 49/77/29 48/78/29 163/79/29 164/80/29
f 43/81/30 49/82/30 164/83/30 158/84/30
f 45/85/31 44/73/31 159/76/31 160/86/31
f 47/87/32 46/88/32 161/89/32 162/90/32
f 46/91/33 45/85/33 160/86/33 161/92/33
f 68/93/34 50/94/34 56/95/34 67/96/34
f 74/97/35 55/98/35 54/99/35 73/100/35
f 80/101/36 53/102/36 52/103/36 79/104/36
f 83/105/37 51/106/37 50/94/37 68/93/37
f 67/107/38 56/108/38 55/98/38 74/97/38
f 73/109/39 54/110/39 53/102/39 80/101/39
f 79/111/40 52/112/40 51/113/40 83/114/40
f 64/115/41 62/116/41 63/117/41
f 64/115/41 60/118/41 61/119/41
f 64/115/41 58/120/41 59/121/41
f 64/115/41 63/117/41 57/122/41
f 64/115/41 61/119/41 62/116/41
f 64/115/41 59/121/41 60/118/41
f 64/115/41 57/122/41 58/120/41
f 51/113/42 52/112/42 59/123/42 58/124/42
f 45/85/43 77/125/43 85/126/43 44/73/43
f 77/125/44 78/127/44 84/128/44 85/126/44
f 53/102/45 54/110/45 61/129/45 60/130/45
f 47/87/46 71/131/46 82/132/46 46/88/46
f 71/131/47 72/133/47 81/134/47 82/132/47
f 55/98/48 56/108/48 63/135/48 62/136/48
f 49/77/49 65/137/49 76/138/49 48/78/49
f 65/137/50 66/139/50 75/140/50 76/138/50
f 50/94/51 51/106/51 58/141/51 57/142/51
f 44/143/52 85/144/52 70/145/52 43/81/52
f 85/144/53 84/146/54 69/147/55 70/145/53
f 52/103/56 53/102/56 60/130/56 59/148/56
f 46/88/57 82/132/57 77/149/57 45/150/57
f 82/132/58 81/134/58 78/151/58 77/149/58
f 54/99/59 55/98/59 62/136/59 61/152/59
f 48/78/60 76/138/60 71/153/60 47/154/60
f 76/138/61 75/140/61 72/155/61 71/153/61
f 56/95/62 50/94/62 57/142/62 63/156/62
f 43/81/63 70/145/63 65/157/63 49/82/63
f 70/145/64 69/147/64 66/158/64 65/157/64
f 97/159/65 104/160/65 106/161/65 99/162/65
f 168/163/66 107/164/66 110/165/66 167/166/66
f 110/167/67 117/168/67 116/169/67 109/170/67
f 109/170/68 116/169/68 119/171/68 112/172/68
f 108/173/69 115/174/69 114/175/69 107/176/69
f 112/177/70 119/178/70 118/179/70 111/180/70
f 113/181/71 120/182/71 115/174/71 108/173/71
f 89/183/72 96/184/72 95/185/72 88/186/72
f 92/187/73 99/162/73 94/188/73 87/189/73
f 88/190/74 95/191/74 98/192/74 91/193/74
f 87/194/75 94/195/75 93/196/75 86/197/75
f 91/193/76 98/192/76 97/198/76 90/199/76
f 86/197/77 93/196/77 96/184/77 89/183/77
f 170/200/78 109/170/79 112/172/79 166/201/78
f 171/202/80 108/173/81 107/176/81 168/203/82
f 166/204/83 112/205/84 111/206/84 165/207/85
f 169/208/86 113/181/87 108/173/87 171/202/88
f 165/207/89 111/206/89 113/209/89 169/210/89
f 167/166/90 110/165/91 109/211/91 170/212/92
f 170/200/78 166/201/78 105/213/93 102/214/93
f 171/202/80 168/203/82 100/215/94 101/216/94
f 166/204/83 165/207/85 104/160/95 105/217/95
f 168/163/96 167/166/96 103/218/96 100/219/96
f 165/207/97 169/210/97 106/161/97 104/160/97
f 167/166/90 170/212/92 102/220/98 103/218/98
f 169/208/86 171/202/88 101/216/99 106/221/99
f 117/222/100 121/223/100 116/224/100
f 120/225/101 121/223/101 115/226/101
f 116/224/102 121/223/102 119/178/102
f 115/226/103 121/223/103 114/227/103
f 119/178/104 121/223/104 118/179/104
f 114/227/105 121/223/105 117/222/105
f 118/179/106 121/223/106 120/225/106
f 139/228/107 146/229/107 145/230/107 138/231/107
f 138/232/108 145/233/108 148/234/108 141/235/108
f 137/236/109 144/237/109 143/238/109 136/239/109
f 141/235/110 148/234/110 147/240/110 140/241/110
f 136/242/111 143/243/111 146/229/111 139/228/111
f 125/244/112 152/245/112 151/246/112 124/247/112
f 128/248/113 154/249/113 153/250/113 123/251/113
f 124/247/114 151/246/114 155/252/114 127/253/114
f 123/254/115 153/255/115 156/256/115 122/257/115
f 127/253/116 155/252/116 157/258/116 126/259/116
f 122/257/117 156/256/117 152/260/117 125/261/117
f 142/262/118 149/263/118 144/237/118 137/236/118
f 155/264/119 134/265/119 133/266/119 157/267/119
f 156/256/120 129/268/120 132/269/120 152/260/120
f 157/270/121 133/271/121 135/272/121 154/249/121
f 152/260/122 132/269/122 131/273/122 151/274/122
f 154/275/123 135/276/123 130/277/123 153/278/123
f 151/279/124 131/280/125 134/265/126 155/264/124
f 153/278/127 130/277/127 129/281/127 156/282/127
f 131/280/125 138/232/128 141/235/128 134/265/126
f 130/277/129 137/236/129 136/239/129 129/281/129
f 134/265/130 141/235/130 140/241/130 133/266/130
f 129/268/131 136/283/131 139/284/131 132/269/131
f 133/271/132 140/285/132 142/286/132 135/272/132
f 132/269/133 139/284/133 138/287/133 131/273/133
f 135/276/134 142/262/134 137/236/134 130/277/134
f 146/229/135 150/288/135 145/230/135
f 149/289/136 150/288/136 144/290/136
f 145/230/137 150/288/137 148/291/137
f 144/290/138 150/288/138 143/243/138
f 148/291/139 150/288/139 147/292/139
f 143/243/140 150/288/140 146/229/140
f 147/292/141 150/288/141 149/289/141
f 140/285/142 147/293/142 149/294/142 142/286/142
f 111/206/143 118/295/143 120/296/143 113/209/143
f 69/147/144 68/93/144 67/96/144 66/158/144
f 75/140/145 74/97/145 73/100/145 72/155/145
f 81/134/146 80/101/146 79/104/146 78/151/146
f 84/146/54 83/105/147 68/93/147 69/147/55
f 66/139/148 67/107/148 74/97/148 75/140/148
f 72/133/149 73/109/149 80/101/149 81/134/149
f 78/127/150 79/111/150 83/114/150 84/128/150
f 95/297/151 102/214/151 105/213/151 98/298/151
f 98/298/152 105/213/152 104/299/152 97/300/152
f 90/301/153 97/159/153 99/162/153 92/187/153
f 99/302/154 106/221/154 101/216/154 94/303/154
f 96/304/155 103/305/155 102/214/155 95/297/155
f 94/303/156 101/216/156 100/215/156 93/306/156
f 93/196/157 100/219/157 103/218/157 96/184/157
f 9/14/158 10/11/158 11/10/158 12/7/158 13/6/158 14/3/158 8/2/158
f 3/12/159 10/11/159 9/14/159 2/13/159
f 24/49/160 31/20/160 30/19/160 23/50/160
f 48/78/161 47/154/161 162/307/161 163/79/161
f 126/308/162 157/270/162 154/249/162 128/248/162
f 107/164/163 114/309/163 117/310/163 110/165/163
