# Blender v2.79 (sub 0) OBJ File: ''
# www.blender.org
mtllib grass2.mtl
o Cube
v -7.676902 17.623209 -27.703987
v 8.834081 17.623209 -27.723869
v 7.999522 19.486370 -35.477158
v -6.861015 19.486370 -35.459267
v 1.266314 12.820917 -12.085887
v 0.251708 0.078816 0.677207
v 0.192207 23.200930 -48.735691
v 1.447895 20.474054 -24.602768
v 26.146320 20.474054 2.077246
v 50.280743 23.200930 0.850619
v 0.867802 0.078813 0.850619
v 13.629664 12.820917 1.880593
v 37.012814 19.486370 -6.218586
v 37.012814 19.486370 8.641963
v 29.258524 17.623209 9.467187
v 29.258524 17.623209 -7.043810
v 17.079695 10.497648 -7.043810
v 10.030767 7.849288 -7.043810
v 17.079695 10.497648 9.467187
v 10.030767 7.849288 9.467187
v -7.662237 10.497648 -15.525168
v -7.653747 7.849289 -8.476246
v 8.848745 10.497648 -15.545049
v 8.857234 7.849289 -8.496127
v -29.278624 17.623209 3.610374
v -26.267298 17.623209 -12.623691
v -34.042034 19.486370 -13.226560
v -36.752350 19.486370 1.384740
v -12.284240 12.820917 -2.313906
v 0.075725 0.078817 1.026339
v -48.508430 23.200930 -7.985741
v -24.555094 20.474054 -4.790085
v -17.304066 10.497648 5.831586
v -10.373364 7.849289 7.117188
v -14.292740 10.497648 -10.402477
v -7.362041 7.849289 -9.116875
v 5.789701 17.623209 30.168615
v -10.658091 17.623209 28.725361
v -10.513844 19.486370 36.522110
v 4.289823 19.486370 37.821095
v -1.734396 12.820917 13.819486
v 0.407168 0.078820 1.196504
v -3.912097 23.200930 50.420284
v -3.024399 20.474054 26.271038
v 6.854272 10.497648 18.036404
v 7.470429 7.849291 11.014460
v -9.593519 10.497648 16.593153
v -8.977364 7.849291 9.571209
vt 0.220947 0.154817
vt 0.133518 0.225904
vt 0.095284 0.000000
vt 1.000000 0.701318
vt 0.888984 0.824020
vt 0.868066 0.735504
vt 0.003689 0.153544
vt 0.217258 0.254107
vt 0.141199 0.419328
vt 0.553225 1.000000
vt 0.450430 0.885469
vt 0.553225 0.721252
vt 0.000000 0.252834
vt 0.003689 0.439162
vt 0.655084 0.571809
vt 0.735557 0.501103
vt 0.787026 0.721788
vt 0.006346 0.542364
vt 0.340242 0.305471
vt 0.226764 0.181546
vt 0.315130 0.000000
vt 0.220947 0.471252
vt 0.337245 0.498423
vt 0.868066 0.469099
vt 0.718844 0.309164
vt 0.855816 0.283939
vt 0.435851 0.468240
vt 0.439876 0.282246
vt 0.224971 0.570699
vt 0.323722 0.722456
vt 0.439876 0.567687
vt 0.868066 0.568756
vt 0.868066 0.129071
vt 0.989220 0.228032
vt 0.920328 0.416861
vt 0.850216 0.179808
vt 0.989220 0.008507
vt 0.873281 0.000000
vt 0.444438 0.573968
vt 0.556562 0.501436
vt 0.539176 0.721252
vt 0.655084 0.566382
vt 0.439876 0.474345
vt 0.560352 0.309804
vt 0.444822 0.184715
vt 0.529437 0.000000
vt 0.650522 0.466759
vt 0.655084 0.281824
vt 0.999816 0.416861
vt 0.889108 0.539626
vt 0.868066 0.450150
vt 1.000000 0.983647
vt 0.220947 0.440434
vt 0.439876 0.971562
vt 0.655084 0.472152
vt 0.087410 0.722435
vt 0.224971 0.285258
vt 0.984083 0.135890
vt 0.765131 0.000000
vt 0.444438 0.289410
vt 0.999816 0.701318
vn 0.7166 0.6974 0.0088
vn -0.3495 0.9187 0.1839
vn 0.6652 0.7077 0.2383
vn 0.5453 0.7599 -0.3537
vn 0.1448 0.9507 -0.2741
vn 0.3804 0.7894 0.4818
vn -0.7062 0.6974 0.1220
vn 0.1166 0.9187 0.3774
vn 0.2961 0.9507 0.0920
vn 0.4478 0.7599 0.4711
vn -0.4619 0.7894 -0.4043
vn -0.4038 0.7894 0.4624
vn 0.1229 0.6974 0.7060
vn -0.1121 0.7077 0.6976
vn -0.6975 0.7077 -0.1130
vn -0.0924 0.9507 0.2960
vn -0.1835 0.9187 -0.3498
vn -0.4717 0.7599 0.4472
vn -0.0598 0.6974 -0.7142
vn 0.1735 0.7077 -0.6849
vn -0.4043 0.7599 -0.5090
vn -0.2867 0.9507 -0.1179
vn 0.4432 0.7894 -0.4248
vn 0.3645 0.9187 -0.1522
vn 0.3901 0.8547 -0.3424
vn -0.2729 0.9543 0.1220
vn 0.2586 0.8752 0.4090
vn 0.5232 0.7577 -0.3901
vn 0.2434 0.8931 -0.3782
vn 0.3970 0.7886 0.4696
vn -0.3211 0.8547 0.4078
vn 0.0699 0.9543 0.2906
vn 0.4165 0.8931 0.1698
vn 0.4795 0.7577 0.4427
vn -0.4760 0.7886 -0.3893
vn -0.3887 0.7886 0.4765
vn 0.4082 0.8547 0.3206
vn -0.3545 0.8752 0.3292
vn -0.3288 0.8752 -0.3549
vn -0.1703 0.8931 0.4163
vn -0.1217 0.9543 -0.2730
vn -0.4433 0.7577 0.4790
vn -0.3782 0.8547 -0.3556
vn 0.3823 0.8752 -0.2965
vn -0.4384 0.7577 -0.4835
vn -0.3998 0.8931 -0.2060
vn 0.4294 0.7886 -0.4402
vn 0.2826 0.9543 -0.0974
usemtl Leaf
s off
f 36/1/1 29/2/1 30/3/1
f 8/4/2 4/5/2 1/6/2
f 29/2/3 34/7/3 30/3/3
f 35/8/4 32/9/4 29/2/4
f 32/10/5 27/11/5 31/12/5
f 33/13/6 32/9/6 25/14/6
f 20/15/7 12/16/7 11/17/7
f 32/9/8 28/18/8 25/14/8
f 8/19/9 3/20/9 7/21/9
f 23/22/10 8/19/10 5/23/10
f 17/24/11 9/25/11 16/26/11
f 21/27/12 8/19/12 1/28/12
f 24/29/13 5/23/13 6/30/13
f 5/23/14 22/31/14 6/30/14
f 12/16/15 18/32/15 11/17/15
f 9/33/16 14/34/16 10/35/16
f 9/25/17 13/36/17 16/26/17
f 19/37/18 9/33/18 12/38/18
f 48/39/19 41/40/19 42/41/19
f 41/40/20 46/42/20 42/41/20
f 47/43/21 44/44/21 41/40/21
f 44/44/22 39/45/22 43/46/22
f 45/47/23 44/44/23 37/48/23
f 44/49/24 40/50/24 37/51/24
f 36/1/25 35/8/25 29/2/25
f 8/4/26 7/52/26 4/5/26
f 29/2/27 33/13/27 34/7/27
f 35/8/28 26/53/28 32/9/28
f 32/10/29 26/54/29 27/11/29
f 33/13/30 29/2/30 32/9/30
f 20/15/31 19/55/31 12/16/31
f 32/9/32 31/56/32 28/18/32
f 8/19/33 2/57/33 3/20/33
f 23/22/34 2/57/34 8/19/34
f 17/24/35 12/16/35 9/25/35
f 21/27/36 5/23/36 8/19/36
f 24/29/37 23/22/37 5/23/37
f 5/23/38 21/27/38 22/31/38
f 12/16/39 17/24/39 18/32/39
f 9/33/40 15/58/40 14/34/40
f 9/25/41 10/59/41 13/36/41
f 19/37/42 15/58/42 9/33/42
f 48/39/43 47/43/43 41/40/43
f 41/40/44 45/47/44 46/42/44
f 47/43/45 38/60/45 44/44/45
f 44/44/46 38/60/46 39/45/46
f 45/47/47 41/40/47 44/44/47
f 44/49/48 43/61/48 40/50/48
