# MagicaVoxel @ Ephtracy

# group
g rock3

# material
mtllib rock3.mtl
usemtl palette

# normals
vn -1 0 0
vn 1 0 0
vn 0 0 1
vn 0 0 -1
vn 0 -1 0
vn 0 1 0

# texcoords
vt 0.0878906 0.5

# verts
v -7 5 11
v -7 5 8
v -7 8 11
v -7 8 8
v -6 0 11
v -6 0 3
v -6 5 11
v -6 5 8
v -6 8 8
v -6 8 3
v -3 0 -4
v -3 0 -14
v -3 2 -4
v -3 2 -14
v -2 2 -4
v -2 2 -14
v -2 7 -4
v -2 7 -14
v -1 0 3
v -1 0 -4
v -1 7 -4
v -1 7 -11
v -1 8 5
v -1 8 3
v -1 19 5
v -1 19 -11
v 0 19 5
v 0 19 -6
v 0 21 5
v 0 21 -6
v 7 8 10
v 7 8 5
v 7 15 10
v 7 15 5
v 5 0 -11
v 5 0 -14
v 5 7 -11
v 5 7 -14
v 7 0 11
v 7 0 10
v 7 8 11
v 7 8 10
v 15 0 -2
v 15 0 -11
v 15 15 5
v 15 15 -2
v 15 19 -6
v 15 19 -11
v 15 21 5
v 15 21 -6
v 19 0 10
v 19 0 -2
v 19 15 10
v 19 15 -2
v -7 5 11
v -7 8 11
v -6 0 11
v -6 5 11
v 7 0 11
v 7 8 11
v 7 0 10
v 7 8 10
v 7 15 10
v 19 0 10
v 19 15 10
v -1 8 5
v -1 19 5
v 0 19 5
v 0 21 5
v 7 8 5
v 7 15 5
v 15 15 5
v 15 21 5
v -3 0 -4
v -3 2 -4
v -2 2 -4
v -2 7 -4
v -1 0 -4
v -1 7 -4
v -7 5 8
v -7 8 8
v -6 5 8
v -6 8 8
v -6 0 3
v -6 8 3
v -1 0 3
v -1 8 3
v 15 0 -2
v 15 15 -2
v 19 0 -2
v 19 15 -2
v 0 19 -6
v 0 21 -6
v 15 19 -6
v 15 21 -6
v -1 7 -11
v -1 19 -11
v 5 0 -11
v 5 7 -11
v 15 0 -11
v 15 19 -11
v -3 0 -14
v -3 2 -14
v -2 2 -14
v -2 7 -14
v 5 0 -14
v 5 7 -14
v -6 0 11
v 7 0 11
v 7 0 10
v 19 0 10
v -6 0 3
v -1 0 3
v 15 0 -2
v 19 0 -2
v -3 0 -4
v -1 0 -4
v 5 0 -11
v 15 0 -11
v -3 0 -14
v 5 0 -14
v -7 5 11
v -6 5 11
v -7 5 8
v -6 5 8
v -3 2 -4
v -2 2 -4
v -3 2 -14
v -2 2 -14
v -2 7 -4
v -1 7 -4
v -1 7 -11
v 5 7 -11
v -2 7 -14
v 5 7 -14
v -7 8 11
v 7 8 11
v 7 8 10
v -7 8 8
v -6 8 8
v -1 8 5
v 7 8 5
v -6 8 3
v -1 8 3
v 7 15 10
v 19 15 10
v 7 15 5
v 15 15 5
v 15 15 -2
v 19 15 -2
v -1 19 5
v 0 19 5
v 0 19 -6
v 15 19 -6
v -1 19 -11
v 15 19 -11
v 0 21 5
v 15 21 5
v 0 21 -6
v 15 21 -6

# faces
f 3/1/1 2/1/1 1/1/1
f 4/1/1 2/1/1 3/1/1
f 7/1/1 6/1/1 5/1/1
f 8/1/1 6/1/1 7/1/1
f 9/1/1 6/1/1 8/1/1
f 10/1/1 6/1/1 9/1/1
f 13/1/1 12/1/1 11/1/1
f 14/1/1 12/1/1 13/1/1
f 17/1/1 16/1/1 15/1/1
f 18/1/1 16/1/1 17/1/1
f 21/1/1 20/1/1 19/1/1
f 24/1/1 21/1/1 19/1/1
f 24/1/1 22/1/1 21/1/1
f 25/1/1 24/1/1 23/1/1
f 26/1/1 22/1/1 24/1/1
f 26/1/1 24/1/1 25/1/1
f 29/1/1 28/1/1 27/1/1
f 30/1/1 28/1/1 29/1/1
f 33/1/1 32/1/1 31/1/1
f 34/1/1 32/1/1 33/1/1
f 35/1/2 36/1/2 37/1/2
f 37/1/2 36/1/2 38/1/2
f 39/1/2 40/1/2 41/1/2
f 41/1/2 40/1/2 42/1/2
f 43/1/2 44/1/2 46/1/2
f 46/1/2 44/1/2 47/1/2
f 45/1/2 46/1/2 47/1/2
f 47/1/2 44/1/2 48/1/2
f 45/1/2 47/1/2 49/1/2
f 49/1/2 47/1/2 50/1/2
f 51/1/2 52/1/2 53/1/2
f 53/1/2 52/1/2 54/1/2
f 58/1/3 56/1/3 55/1/3
f 59/1/3 58/1/3 57/1/3
f 60/1/3 56/1/3 58/1/3
f 60/1/3 58/1/3 59/1/3
f 64/1/3 62/1/3 61/1/3
f 64/1/3 63/1/3 62/1/3
f 65/1/3 63/1/3 64/1/3
f 68/1/3 67/1/3 66/1/3
f 70/1/3 68/1/3 66/1/3
f 70/1/3 69/1/3 68/1/3
f 71/1/3 69/1/3 70/1/3
f 72/1/3 69/1/3 71/1/3
f 73/1/3 69/1/3 72/1/3
f 76/1/3 75/1/3 74/1/3
f 78/1/3 76/1/3 74/1/3
f 78/1/3 77/1/3 76/1/3
f 79/1/3 77/1/3 78/1/3
f 80/1/4 81/1/4 82/1/4
f 82/1/4 81/1/4 83/1/4
f 84/1/4 85/1/4 86/1/4
f 86/1/4 85/1/4 87/1/4
f 88/1/4 89/1/4 90/1/4
f 90/1/4 89/1/4 91/1/4
f 92/1/4 93/1/4 94/1/4
f 94/1/4 93/1/4 95/1/4
f 96/1/4 97/1/4 99/1/4
f 98/1/4 99/1/4 100/1/4
f 99/1/4 97/1/4 101/1/4
f 100/1/4 99/1/4 101/1/4
f 102/1/4 103/1/4 104/1/4
f 102/1/4 104/1/4 106/1/4
f 104/1/4 105/1/4 106/1/4
f 106/1/4 105/1/4 107/1/4
f 110/1/5 109/1/5 108/1/5
f 112/1/5 110/1/5 108/1/5
f 112/1/5 111/1/5 110/1/5
f 113/1/5 111/1/5 112/1/5
f 114/1/5 111/1/5 113/1/5
f 115/1/5 111/1/5 114/1/5
f 117/1/5 114/1/5 113/1/5
f 118/1/5 114/1/5 117/1/5
f 118/1/5 117/1/5 116/1/5
f 119/1/5 114/1/5 118/1/5
f 120/1/5 118/1/5 116/1/5
f 121/1/5 118/1/5 120/1/5
f 124/1/5 123/1/5 122/1/5
f 125/1/5 123/1/5 124/1/5
f 126/1/6 127/1/6 128/1/6
f 128/1/6 127/1/6 129/1/6
f 130/1/6 131/1/6 132/1/6
f 130/1/6 132/1/6 134/1/6
f 132/1/6 133/1/6 134/1/6
f 134/1/6 133/1/6 135/1/6
f 136/1/6 137/1/6 138/1/6
f 136/1/6 138/1/6 139/1/6
f 139/1/6 138/1/6 140/1/6
f 140/1/6 138/1/6 141/1/6
f 141/1/6 138/1/6 142/1/6
f 140/1/6 141/1/6 143/1/6
f 143/1/6 141/1/6 144/1/6
f 145/1/6 146/1/6 147/1/6
f 147/1/6 146/1/6 148/1/6
f 148/1/6 146/1/6 149/1/6
f 149/1/6 146/1/6 150/1/6
f 151/1/6 152/1/6 153/1/6
f 151/1/6 153/1/6 155/1/6
f 153/1/6 154/1/6 155/1/6
f 155/1/6 154/1/6 156/1/6
f 157/1/6 158/1/6 159/1/6
f 159/1/6 158/1/6 160/1/6
