%YAML 1.1
%TAG !u! tag:unity3d.com,2011:
--- !u!74 &7400000
AnimationClip:
  m_ObjectHideFlags: 0
  m_PrefabParentObject: {fileID: 0}
  m_PrefabInternal: {fileID: 0}
  m_Name: Quick Popup
  serializedVersion: 6
  m_Legacy: 1
  m_Compressed: 0
  m_UseHighQualityCurve: 1
  m_RotationCurves: []
  m_CompressedRotationCurves: []
  m_EulerCurves: []
  m_PositionCurves: []
  m_ScaleCurves:
  - curve:
      serializedVersion: 2
      m_Curve:
      - time: 0
        value: {x: 1, y: 1, z: 1}
        inSlope: {x: 1.2000002, y: 1.2000002, z: 1.2000002}
        outSlope: {x: 1.2000002, y: 1.2000002, z: 1.2000002}
        tangentMode: -559038737
      - time: 0.08333334
        value: {x: 1.1, y: 1.1, z: 1.1}
        inSlope: {x: -0.00000017881393, y: -0.00000017881393, z: -0.00000017881393}
        outSlope: {x: -0.00000017881393, y: -0.00000017881393, z: -0.00000017881393}
        tangentMode: -559038737
      - time: 0.16666666
        value: {x: 1, y: 1, z: 1}
        inSlope: {x: -1.2000005, y: -1.2000005, z: -1.2000005}
        outSlope: {x: -1.2000005, y: -1.2000005, z: -1.2000005}
        tangentMode: -559038737
      m_PreInfinity: 2
      m_PostInfinity: 2
      m_RotationOrder: 4
    path: 
  m_FloatCurves:
  - curve:
      serializedVersion: 2
      m_Curve:
      - time: 0
        value: 0
        inSlope: 0
        outSlope: 0
        tangentMode: 10
      m_PreInfinity: 2
      m_PostInfinity: 2
      m_RotationOrder: 4
    attribute: m_PlayAutomatically
    path: 
    classID: 111
    script: {fileID: 0}
  m_PPtrCurves: []
  m_SampleRate: 60
  m_WrapMode: 0
  m_Bounds:
    m_Center: {x: 0, y: 0, z: 0}
    m_Extent: {x: 0, y: 0, z: 0}
  m_ClipBindingConstant:
    genericBindings: []
    pptrCurveMapping: []
  m_AnimationClipSettings:
    serializedVersion: 2
    m_AdditiveReferencePoseClip: {fileID: 0}
    m_AdditiveReferencePoseTime: 0
    m_StartTime: 0
    m_StopTime: 1
    m_OrientationOffsetY: 0
    m_Level: 0
    m_CycleOffset: 0
    m_HasAdditiveReferencePose: 0
    m_LoopTime: 0
    m_LoopBlend: 0
    m_LoopBlendOrientation: 0
    m_LoopBlendPositionY: 0
    m_LoopBlendPositionXZ: 0
    m_KeepOriginalOrientation: 0
    m_KeepOriginalPositionY: 1
    m_KeepOriginalPositionXZ: 0
    m_HeightFromFeet: 0
    m_Mirror: 0
  m_EditorCurves:
  - curve:
      serializedVersion: 2
      m_Curve:
      - time: 0
        value: 0
        inSlope: 0
        outSlope: 0
        tangentMode: 10
      m_PreInfinity: 2
      m_PostInfinity: 2
      m_RotationOrder: 4
    attribute: m_PlayAutomatically
    path: 
    classID: 111
    script: {fileID: 0}
  - curve:
      serializedVersion: 2
      m_Curve:
      - time: 0
        value: 1
        inSlope: 1.2000002
        outSlope: 1.2000002
        tangentMode: 10
      - time: 0.08333334
        value: 1.1
        inSlope: -0.00000017881393
        outSlope: -0.00000017881393
        tangentMode: 10
      - time: 0.16666666
        value: 1
        inSlope: -1.2000005
        outSlope: -1.2000005
        tangentMode: 10
      m_PreInfinity: 2
      m_PostInfinity: 2
      m_RotationOrder: 4
    attribute: m_LocalScale.x
    path: 
    classID: 4
    script: {fileID: 0}
  - curve:
      serializedVersion: 2
      m_Curve:
      - time: 0
        value: 1
        inSlope: 1.2000002
        outSlope: 1.2000002
        tangentMode: 10
      - time: 0.08333334
        value: 1.1
        inSlope: -0.00000017881393
        outSlope: -0.00000017881393
        tangentMode: 10
      - time: 0.16666666
        value: 1
        inSlope: -1.2000005
        outSlope: -1.2000005
        tangentMode: 10
      m_PreInfinity: 2
      m_PostInfinity: 2
      m_RotationOrder: 4
    attribute: m_LocalScale.y
    path: 
    classID: 4
    script: {fileID: 0}
  - curve:
      serializedVersion: 2
      m_Curve:
      - time: 0
        value: 1
        inSlope: 1.2000002
        outSlope: 1.2000002
        tangentMode: 10
      - time: 0.08333334
        value: 1.1
        inSlope: -0.00000017881393
        outSlope: -0.00000017881393
        tangentMode: 10
      - time: 0.16666666
        value: 1
        inSlope: -1.2000005
        outSlope: -1.2000005
        tangentMode: 10
      m_PreInfinity: 2
      m_PostInfinity: 2
      m_RotationOrder: 4
    attribute: m_LocalScale.z
    path: 
    classID: 4
    script: {fileID: 0}
  m_EulerEditorCurves: []
  m_HasGenericRootTransform: 0
  m_HasMotionFloatCurves: 0
  m_GenerateMotionCurves: 0
  m_Events: []
