%YAML 1.1
%TAG !u! tag:unity3d.com,2011:
--- !u!74 &7400000
AnimationClip:
  m_ObjectHideFlags: 0
  m_PrefabParentObject: {fileID: 0}
  m_PrefabInternal: {fileID: 0}
  m_Name: hunterIdle1
  serializedVersion: 6
  m_Legacy: 0
  m_Compressed: 0
  m_UseHighQualityCurve: 1
  m_RotationCurves: []
  m_CompressedRotationCurves: []
  m_EulerCurves:
  - curve:
      serializedVersion: 2
      m_Curve:
      - time: 0
        value: {x: 0, y: 90, z: -0.68759996}
        inSlope: {x: 0, y: 0.5592826, z: 0.5893714}
        outSlope: {x: 0, y: 0.5592826, z: 0.5893714}
        tangentMode: 0
      - time: 1.1666666
        value: {x: 0, y: 90.6525, z: 0}
        inSlope: {x: 0, y: 0.2796413, z: 0.2946857}
        outSlope: {x: 0, y: 0.2796413, z: 0.2946857}
        tangentMode: 0
      - time: 1.3333334
        value: {x: 0, y: 90.6525, z: 0}
        inSlope: {x: 0, y: 0, z: 0}
        outSlope: {x: 0, y: 0, z: 0}
        tangentMode: 0
      - time: 1.75
        value: {x: 0, y: 90.6525, z: 0}
        inSlope: {x: 0, y: 20.40306, z: 0}
        outSlope: {x: 0, y: 20.40306, z: 0}
        tangentMode: 0
      - time: 2
        value: {x: 0, y: 100.85403, z: 0}
        inSlope: {x: 0, y: 42.70703, z: 0}
        outSlope: {x: 0, y: 42.70703, z: 0}
        tangentMode: 0
      - time: 2.5
        value: {x: 0, y: 123.158, z: 0}
        inSlope: {x: 0, y: 12.039077, z: 0}
        outSlope: {x: 0, y: 12.039077, z: 0}
        tangentMode: 0
      - time: 4.0833335
        value: {x: 0, y: 90.6525, z: 0}
        inSlope: {x: 0, y: -34.77922, z: 0}
        outSlope: {x: 0, y: -34.77922, z: 0}
        tangentMode: 0
      - time: 4.9166665
        value: {x: 0, y: 49.7953, z: 0}
        inSlope: {x: 0, y: 6.1285553, z: 0}
        outSlope: {x: 0, y: 6.1285553, z: 0}
        tangentMode: 0
      - time: 5.5833335
        value: {x: 0, y: 90.6525, z: 0}
        inSlope: {x: 0, y: 30.642883, z: 0}
        outSlope: {x: 0, y: 30.642883, z: 0}
        tangentMode: 0
      - time: 6.75
        value: {x: 0, y: 90.6525, z: 0}
        inSlope: {x: 0, y: 20.40306, z: 0}
        outSlope: {x: 0, y: 20.40306, z: 0}
        tangentMode: 0
      - time: 7
        value: {x: 0, y: 100.85403, z: 0}
        inSlope: {x: 0, y: 42.70703, z: 0}
        outSlope: {x: 0, y: 42.70703, z: 0}
        tangentMode: 0
      - time: 7.5
        value: {x: 0, y: 123.158, z: 0}
        inSlope: {x: 0, y: 12.039073, z: 0}
        outSlope: {x: 0, y: 12.039073, z: 0}
        tangentMode: 0
      - time: 9.083333
        value: {x: 0, y: 90.6525, z: 0}
        inSlope: {x: 0, y: -34.779198, z: 0}
        outSlope: {x: 0, y: -34.779198, z: 0}
        tangentMode: 0
      - time: 9.916667
        value: {x: 0, y: 49.7953, z: 0}
        inSlope: {x: 0, y: 6.128628, z: 0}
        outSlope: {x: 0, y: 6.128628, z: 0}
        tangentMode: 0
      - time: 10.583333
        value: {x: 0, y: 90.6525, z: 0}
        inSlope: {x: 0, y: 30.642927, z: 0}
        outSlope: {x: 0, y: 30.642927, z: 0}
        tangentMode: 0
      - time: 19.416666
        value: {x: 0, y: 90.6525, z: 0}
        inSlope: {x: 0, y: 0, z: 0}
        outSlope: {x: 0, y: 0, z: 0}
        tangentMode: 0
      - time: 19.5
        value: {x: 0, y: 90.6525, z: 0}
        inSlope: {x: 0, y: -0.35590735, z: -0.37505478}
        outSlope: {x: 0, y: -0.35590735, z: -0.37505478}
        tangentMode: 0
      - time: 20.416666
        value: {x: 0, y: 90, z: -0.68759996}
        inSlope: {x: 0, y: -0.7118147, z: -0.75010955}
        outSlope: {x: 0, y: -0.7118147, z: -0.75010955}
        tangentMode: 0
      m_PreInfinity: 2
      m_PostInfinity: 2
      m_RotationOrder: 4
    path: Model
  - curve:
      serializedVersion: 2
      m_Curve:
      - time: 0
        value: {x: -9.9129, y: 463.185, z: -445.80478}
        inSlope: {x: 7.8000855, y: 19.781382, z: -3.5959039}
        outSlope: {x: 7.8000855, y: 19.781382, z: -3.5959039}
        tangentMode: 0
      - time: 1.1666666
        value: {x: -0.8128, y: 486.26328, z: -450}
        inSlope: {x: 3.9000428, y: 9.890691, z: -1.7979519}
        outSlope: {x: 3.9000428, y: 9.890691, z: -1.7979519}
        tangentMode: 0
      - time: 1.3333334
        value: {x: -0.8128, y: 486.26328, z: -450}
        inSlope: {x: 0, y: 0, z: 0}
        outSlope: {x: 0, y: 0, z: 0}
        tangentMode: 0
      - time: 19.416666
        value: {x: -0.8128, y: 486.26328, z: -450}
        inSlope: {x: 0, y: 0, z: 0}
        outSlope: {x: 0, y: 0, z: 0}
        tangentMode: 0
      - time: 19.5
        value: {x: -0.8128, y: 486.26328, z: -450}
        inSlope: {x: -4.963694, y: -12.5881605, z: 2.2883039}
        outSlope: {x: -4.963694, y: -12.5881605, z: 2.2883039}
        tangentMode: 0
      - time: 20.416666
        value: {x: -9.9129, y: 463.185, z: -445.80478}
        inSlope: {x: -9.927388, y: -25.176321, z: 4.5766077}
        outSlope: {x: -9.927388, y: -25.176321, z: 4.5766077}
        tangentMode: 0
      m_PreInfinity: 2
      m_PostInfinity: 2
      m_RotationOrder: 4
    path: Model/Arm.L
  - curve:
      serializedVersion: 2
      m_Curve:
      - time: 0
        value: {x: -46.6604, y: 90, z: -90}
        inSlope: {x: 42.915432, y: 0, z: 0}
        outSlope: {x: 42.915432, y: 0, z: 0}
        tangentMode: 0
      - time: 1.1666666
        value: {x: 3.4076, y: 90, z: -90}
        inSlope: {x: 21.457716, y: 0, z: 0}
        outSlope: {x: 21.457716, y: 0, z: 0}
        tangentMode: 0
      - time: 1.3333334
        value: {x: 3.4076, y: 90, z: -90}
        inSlope: {x: 0, y: 0, z: 0}
        outSlope: {x: 0, y: 0, z: 0}
        tangentMode: 0
      - time: 19.416666
        value: {x: 3.4076, y: 90, z: -90}
        inSlope: {x: 0, y: 0, z: 0}
        outSlope: {x: 0, y: 0, z: 0}
        tangentMode: 0
      - time: 19.5
        value: {x: 3.4076, y: 90, z: -90}
        inSlope: {x: -27.309837, y: 0, z: 0}
        outSlope: {x: -27.309837, y: 0, z: 0}
        tangentMode: 0
      - time: 20.416666
        value: {x: -46.6604, y: 90, z: -90}
        inSlope: {x: -54.619675, y: 0, z: 0}
        outSlope: {x: -54.619675, y: 0, z: 0}
        tangentMode: 0
      m_PreInfinity: 2
      m_PostInfinity: 2
      m_RotationOrder: 4
    path: Model/Arm.R
  - curve:
      serializedVersion: 2
      m_Curve:
      - time: 0
        value: {x: -65.9114, y: 6.7377, z: -90.0001}
        inSlope: {x: -20.630396, y: -5.7751718, z: 77.142944}
        outSlope: {x: -20.630396, y: -5.7751718, z: 77.142944}
        tangentMode: 0
      - time: 1.1666666
        value: {x: -89.980194, y: 0, z: 0}
        inSlope: {x: -10.315198, y: -2.8875859, z: 38.571472}
        outSlope: {x: -10.315198, y: -2.8875859, z: 38.571472}
        tangentMode: 0
      - time: 1.3333334
        value: {x: -89.980194, y: 0, z: 0}
        inSlope: {x: 0, y: 0, z: 0}
        outSlope: {x: 0, y: 0, z: 0}
        tangentMode: 0
      - time: 19.416666
        value: {x: -89.980194, y: 0, z: 0}
        inSlope: {x: 0, y: 0, z: 0}
        outSlope: {x: 0, y: 0, z: 0}
        tangentMode: 0
      - time: 19.5
        value: {x: -89.980194, y: 0, z: 0}
        inSlope: {x: 13.128443, y: 3.6751115, z: -49.090996}
        outSlope: {x: 13.128443, y: 3.6751115, z: -49.090996}
        tangentMode: 0
      - time: 20.416666
        value: {x: -65.9114, y: 6.7377, z: -90.0001}
        inSlope: {x: 26.256886, y: 7.350223, z: -98.18199}
        outSlope: {x: 26.256886, y: 7.350223, z: -98.18199}
        tangentMode: 0
      m_PreInfinity: 2
      m_PostInfinity: 2
      m_RotationOrder: 4
    path: Model/Rifle
  - curve:
      serializedVersion: 2
      m_Curve:
      - time: 0
        value: {x: 1.3651999, y: 271.0766, z: 249.49309}
        inSlope: {x: 6.119571, y: 17.59199, z: 37.124493}
        outSlope: {x: 6.119571, y: 17.59199, z: 37.124493}
        tangentMode: 0
      - time: 1.1666666
        value: {x: 8.5047, y: 291.6006, z: 292.805}
        inSlope: {x: 3.070586, y: 7.337103, z: 15.667809}
        outSlope: {x: 3.070586, y: 7.337103, z: 15.667809}
        tangentMode: 0
      - time: 1.3333334
        value: {x: 8.5083, y: 291.1143, z: 291.84018}
        inSlope: {x: -0.016608866, y: -1.5844249, z: -3.1630414}
        outSlope: {x: -0.016608866, y: -1.5844249, z: -3.1630414}
        tangentMode: 0
      - time: 19.416666
        value: {x: 7.5169997, y: 286.5742, z: 282.1257}
        inSlope: {x: Infinity, y: Infinity, z: Infinity}
        outSlope: {x: -2.426903, y: -6.4331446, z: -13.811792}
        tangentMode: 0
      - time: 20.416666
        value: {x: 3.1176999, y: 275.0092, z: 257.29428}
        inSlope: {x: -4.3992996, y: -11.565002, z: -24.83142}
        outSlope: {x: -4.3992996, y: -11.565002, z: -24.83142}
        tangentMode: 0
      m_PreInfinity: 2
      m_PostInfinity: 2
      m_RotationOrder: 4
    path: Model/FireAxe
  m_PositionCurves:
  - curve:
      serializedVersion: 2
      m_Curve:
      - time: 0
        value: {x: 0, y: 0, z: 0}
        inSlope: {x: 0, y: 0, z: 0}
        outSlope: {x: 0, y: 0, z: 0}
        tangentMode: 0
      - time: 20.416666
        value: {x: 0, y: 0, z: 0}
        inSlope: {x: 0, y: 0, z: 0}
        outSlope: {x: 0, y: 0, z: 0}
        tangentMode: 0
      m_PreInfinity: 2
      m_PostInfinity: 2
      m_RotationOrder: 4
    path: Model
  - curve:
      serializedVersion: 2
      m_Curve:
      - time: 0
        value: {x: -0.65, y: 5.03, z: -1.49}
        inSlope: {x: -0.85714287, y: 0.6428821, z: 0.18857145}
        outSlope: {x: -0.85714287, y: 0.6428821, z: 0.18857145}
        tangentMode: 0
      - time: 1.1666666
        value: {x: -1.65, y: 5.7800293, z: -1.27}
        inSlope: {x: -0.42857143, y: 0.32144105, z: 0.09428573}
        outSlope: {x: -0.42857143, y: 0.32144105, z: 0.09428573}
        tangentMode: 0
      - time: 1.3333334
        value: {x: -1.65, y: 5.7800293, z: -1.27}
        inSlope: {x: 0, y: 0, z: 0}
        outSlope: {x: 0, y: 0, z: 0}
        tangentMode: 0
      - time: 19.416666
        value: {x: -1.65, y: 5.7800293, z: -1.27}
        inSlope: {x: 0, y: 0, z: 0}
        outSlope: {x: 0, y: 0, z: 0}
        tangentMode: 0
      - time: 19.5
        value: {x: -1.65, y: 5.7800293, z: -1.27}
        inSlope: {x: 0.5454549, y: -0.40910706, z: -0.1200001}
        outSlope: {x: 0.5454549, y: -0.40910706, z: -0.1200001}
        tangentMode: 0
      - time: 20.416666
        value: {x: -0.65, y: 5.03, z: -1.49}
        inSlope: {x: 1.0909098, y: -0.8182141, z: -0.2400002}
        outSlope: {x: 1.0909098, y: -0.8182141, z: -0.2400002}
        tangentMode: 0
      m_PreInfinity: 2
      m_PostInfinity: 2
      m_RotationOrder: 4
    path: Model/Arm.L
  - curve:
      serializedVersion: 2
      m_Curve:
      - time: 0
        value: {x: -0.7, y: 4.59, z: 1.8}
        inSlope: {x: -0.36857146, y: 1.0885714, z: 0}
        outSlope: {x: -0.36857146, y: 1.0885714, z: 0}
        tangentMode: 0
      - time: 1.1666666
        value: {x: -1.13, y: 5.86, z: 1.8}
        inSlope: {x: -0.18428573, y: 0.5442857, z: 0}
        outSlope: {x: -0.18428573, y: 0.5442857, z: 0}
        tangentMode: 0
      - time: 1.3333334
        value: {x: -1.13, y: 5.86, z: 1.8}
        inSlope: {x: 0, y: 0, z: 0}
        outSlope: {x: 0, y: 0, z: 0}
        tangentMode: 0
      - time: 19.416666
        value: {x: -1.13, y: 5.86, z: 1.8}
        inSlope: {x: 0, y: 0, z: 0}
        outSlope: {x: 0, y: 0, z: 0}
        tangentMode: 0
      - time: 19.5
        value: {x: -1.13, y: 5.86, z: 1.8}
        inSlope: {x: 0.23454562, y: -0.69272774, z: 0}
        outSlope: {x: 0.23454562, y: -0.69272774, z: 0}
        tangentMode: 0
      - time: 20.416666
        value: {x: -0.7, y: 4.59, z: 1.8}
        inSlope: {x: 0.46909124, y: -1.3854555, z: 0}
        outSlope: {x: 0.46909124, y: -1.3854555, z: 0}
        tangentMode: 0
      m_PreInfinity: 2
      m_PostInfinity: 2
      m_RotationOrder: 4
    path: Model/Arm.R
  - curve:
      serializedVersion: 2
      m_Curve:
      - time: 0
        value: {x: -2.19, y: 9.34, z: -4.2}
        inSlope: {x: -5.348572, y: -0.8742861, z: 4.14}
        outSlope: {x: -5.348572, y: -0.8742861, z: 4.14}
        tangentMode: 0
      - time: 1.1666666
        value: {x: -8.43, y: 8.32, z: 0.63}
        inSlope: {x: -2.674286, y: -0.43714306, z: 2.07}
        outSlope: {x: -2.674286, y: -0.43714306, z: 2.07}
        tangentMode: 0
      - time: 1.3333334
        value: {x: -8.43, y: 8.32, z: 0.63}
        inSlope: {x: 0, y: 0, z: 0}
        outSlope: {x: 0, y: 0, z: 0}
        tangentMode: 0
      - time: 19.416666
        value: {x: -8.43, y: 8.32, z: 0.63}
        inSlope: {x: 0, y: 0, z: 0}
        outSlope: {x: 0, y: 0, z: 0}
        tangentMode: 0
      - time: 19.5
        value: {x: -8.43, y: 8.32, z: 0.63}
        inSlope: {x: 3.4036388, y: 0.5563643, z: -2.6345472}
        outSlope: {x: 3.4036388, y: 0.5563643, z: -2.6345472}
        tangentMode: 0
      - time: 20.416666
        value: {x: -2.19, y: 9.34, z: -4.2}
        inSlope: {x: 6.8072777, y: 1.1127286, z: -5.2690945}
        outSlope: {x: 6.8072777, y: 1.1127286, z: -5.2690945}
        tangentMode: 0
      m_PreInfinity: 2
      m_PostInfinity: 2
      m_RotationOrder: 4
    path: Model/Rifle
  - curve:
      serializedVersion: 2
      m_Curve:
      - time: 0
        value: {x: -2.75, y: 4.88, z: 0.26334018}
        inSlope: {x: 0.051428523, y: 1.3457141, z: 0.6228513}
        outSlope: {x: 0.051428523, y: 1.3457141, z: 0.6228513}
        tangentMode: 0
      - time: 1.1666666
        value: {x: -2.69, y: 6.45, z: 0.99}
        inSlope: {x: 0.020921335, y: 0.0058541894, z: 0.30602977}
        outSlope: {x: 0.020921335, y: 0.0058541894, z: 0.30602977}
        tangentMode: 0
      - time: 1.3333334
        value: {x: -2.6915977, y: 6.2276654, z: 0.9882014}
        inSlope: {x: -0.005808128, y: -0.67053276, z: -0.0077195894}
        outSlope: {x: -0.005808128, y: -0.67053276, z: -0.0077195894}
        tangentMode: 0
      - time: 19.416666
        value: {x: -2.7283142, y: 6.1, z: 0.9041608}
        inSlope: {x: Infinity, y: Infinity, z: Infinity}
        outSlope: {x: -0.00042300072, y: -0.001470801, z: -0.0009682095}
        tangentMode: 0
      - time: 19.5
        value: {x: -2.7283142, y: 6.1, z: 0.9041608}
        inSlope: {x: -0.00091955945, y: -0.6000004, z: -0.0022389146}
        outSlope: {x: -0.00091955945, y: -0.6000004, z: -0.0022389146}
        tangentMode: 0
      - time: 20.416666
        value: {x: -2.73, y: 5, z: 0.9000561}
        inSlope: {x: -0.0018391189, y: -1.2000008, z: -0.004477829}
        outSlope: {x: -0.0018391189, y: -1.2000008, z: -0.004477829}
        tangentMode: 0
      m_PreInfinity: 2
      m_PostInfinity: 2
      m_RotationOrder: 4
    path: Model/FireAxe
  m_ScaleCurves: []
  m_FloatCurves: []
  m_PPtrCurves: []
  m_SampleRate: 12
  m_WrapMode: 0
  m_Bounds:
    m_Center: {x: 0, y: 0, z: 0}
    m_Extent: {x: 0, y: 0, z: 0}
  m_ClipBindingConstant:
    genericBindings:
    - path: 3843559670
      attribute: 1
      script: {fileID: 0}
      classID: 4
      customType: 0
      isPPtrCurve: 0
    - path: 521612693
      attribute: 1
      script: {fileID: 0}
      classID: 4
      customType: 0
      isPPtrCurve: 0
    - path: 3387455280
      attribute: 1
      script: {fileID: 0}
      classID: 4
      customType: 0
      isPPtrCurve: 0
    - path: 3464316795
      attribute: 1
      script: {fileID: 0}
      classID: 4
      customType: 0
      isPPtrCurve: 0
    - path: 374627805
      attribute: 4
      script: {fileID: 0}
      classID: 4
      customType: 14
      isPPtrCurve: 0
    - path: 3843559670
      attribute: 4
      script: {fileID: 0}
      classID: 4
      customType: 14
      isPPtrCurve: 0
    - path: 521612693
      attribute: 4
      script: {fileID: 0}
      classID: 4
      customType: 14
      isPPtrCurve: 0
    - path: 3387455280
      attribute: 4
      script: {fileID: 0}
      classID: 4
      customType: 14
      isPPtrCurve: 0
    - path: 3464316795
      attribute: 4
      script: {fileID: 0}
      classID: 4
      customType: 14
      isPPtrCurve: 0
    - path: 374627805
      attribute: 1
      script: {fileID: 0}
      classID: 4
      customType: 0
      isPPtrCurve: 0
    pptrCurveMapping: []
  m_AnimationClipSettings:
    serializedVersion: 2
    m_AdditiveReferencePoseClip: {fileID: 0}
    m_AdditiveReferencePoseTime: 0
    m_StartTime: 0
    m_StopTime: 20.416666
    m_OrientationOffsetY: 0
    m_Level: 0
    m_CycleOffset: 0
    m_HasAdditiveReferencePose: 0
    m_LoopTime: 0
    m_LoopBlend: 0
    m_LoopBlendOrientation: 0
    m_LoopBlendPositionY: 0
    m_LoopBlendPositionXZ: 0
    m_KeepOriginalOrientation: 0
    m_KeepOriginalPositionY: 1
    m_KeepOriginalPositionXZ: 0
    m_HeightFromFeet: 0
    m_Mirror: 0
  m_EditorCurves:
  - curve:
      serializedVersion: 2
      m_Curve:
      - time: 0
        value: 0
        inSlope: 0
        outSlope: 0
        tangentMode: 10
      - time: 1.1666666
        value: 0
        inSlope: 0
        outSlope: 0
        tangentMode: 10
      - time: 1.3333334
        value: 0
        inSlope: 0
        outSlope: 0
        tangentMode: 10
      - time: 1.75
        value: 0
        inSlope: 0
        outSlope: 0
        tangentMode: 10
      - time: 2
        value: 0
        inSlope: 0
        outSlope: 0
        tangentMode: 10
      - time: 2.5
        value: 0
        inSlope: 0
        outSlope: 0
        tangentMode: 10
      - time: 4.0833335
        value: 0
        inSlope: 0
        outSlope: 0
        tangentMode: 10
      - time: 4.9166665
        value: 0
        inSlope: 0
        outSlope: 0
        tangentMode: 10
      - time: 5.5833335
        value: 0
        inSlope: 0
        outSlope: 0
        tangentMode: 10
      - time: 6.75
        value: 0
        inSlope: 0
        outSlope: 0
        tangentMode: 10
      - time: 7
        value: 0
        inSlope: 0
        outSlope: 0
        tangentMode: 10
      - time: 7.5
        value: 0
        inSlope: 0
        outSlope: 0
        tangentMode: 10
      - time: 9.083333
        value: 0
        inSlope: 0
        outSlope: 0
        tangentMode: 10
      - time: 9.916667
        value: 0
        inSlope: 0
        outSlope: 0
        tangentMode: 10
      - time: 10.583333
        value: 0
        inSlope: 0
        outSlope: 0
        tangentMode: 10
      - time: 19.416666
        value: 0
        inSlope: 0
        outSlope: 0
        tangentMode: 10
      - time: 19.5
        value: 0
        inSlope: 0
        outSlope: 0
        tangentMode: 10
      - time: 20.416666
        value: 0
        inSlope: 0
        outSlope: 0
        tangentMode: 10
      m_PreInfinity: 2
      m_PostInfinity: 2
      m_RotationOrder: 4
    attribute: localEulerAnglesRaw.x
    path: Model
    classID: 4
    script: {fileID: 0}
  - curve:
      serializedVersion: 2
      m_Curve:
      - time: 0
        value: 90
        inSlope: 0.5592826
        outSlope: 0.5592826
        tangentMode: 10
      - time: 1.1666666
        value: 90.6525
        inSlope: 0.2796413
        outSlope: 0.2796413
        tangentMode: 10
      - time: 1.3333334
        value: 90.6525
        inSlope: 0
        outSlope: 0
        tangentMode: 10
      - time: 1.75
        value: 90.6525
        inSlope: 20.40306
        outSlope: 20.40306
        tangentMode: 10
      - time: 2
        value: 100.85403
        inSlope: 42.70703
        outSlope: 42.70703
        tangentMode: 10
      - time: 2.5
        value: 123.158
        inSlope: 12.039077
        outSlope: 12.039077
        tangentMode: 10
      - time: 4.0833335
        value: 90.6525
        inSlope: -34.77922
        outSlope: -34.77922
        tangentMode: 10
      - time: 4.9166665
        value: 49.7953
        inSlope: 6.1285553
        outSlope: 6.1285553
        tangentMode: 10
      - time: 5.5833335
        value: 90.6525
        inSlope: 30.642883
        outSlope: 30.642883
        tangentMode: 10
      - time: 6.75
        value: 90.6525
        inSlope: 20.40306
        outSlope: 20.40306
        tangentMode: 10
      - time: 7
        value: 100.85403
        inSlope: 42.70703
        outSlope: 42.70703
        tangentMode: 10
      - time: 7.5
        value: 123.158
        inSlope: 12.039073
        outSlope: 12.039073
        tangentMode: 10
      - time: 9.083333
        value: 90.6525
        inSlope: -34.779198
        outSlope: -34.779198
        tangentMode: 10
      - time: 9.916667
        value: 49.7953
        inSlope: 6.128628
        outSlope: 6.128628
        tangentMode: 10
      - time: 10.583333
        value: 90.6525
        inSlope: 30.642927
        outSlope: 30.642927
        tangentMode: 10
      - time: 19.416666
        value: 90.6525
        inSlope: 0
        outSlope: 0
        tangentMode: 10
      - time: 19.5
        value: 90.6525
        inSlope: -0.35590735
        outSlope: -0.35590735
        tangentMode: 10
      - time: 20.416666
        value: 90
        inSlope: -0.7118147
        outSlope: -0.7118147
        tangentMode: 10
      m_PreInfinity: 2
      m_PostInfinity: 2
      m_RotationOrder: 4
    attribute: localEulerAnglesRaw.y
    path: Model
    classID: 4
    script: {fileID: 0}
  - curve:
      serializedVersion: 2
      m_Curve:
      - time: 0
        value: -0.68759996
        inSlope: 0.5893714
        outSlope: 0.5893714
        tangentMode: 10
      - time: 1.1666666
        value: 0
        inSlope: 0.2946857
        outSlope: 0.2946857
        tangentMode: 10
      - time: 1.3333334
        value: 0
        inSlope: 0
        outSlope: 0
        tangentMode: 10
      - time: 1.75
        value: 0
        inSlope: 0
        outSlope: 0
        tangentMode: 10
      - time: 2
        value: 0
        inSlope: 0
        outSlope: 0
        tangentMode: 10
      - time: 2.5
        value: 0
        inSlope: 0
        outSlope: 0
        tangentMode: 10
      - time: 4.0833335
        value: 0
        inSlope: 0
        outSlope: 0
        tangentMode: 10
      - time: 4.9166665
        value: 0
        inSlope: 0
        outSlope: 0
        tangentMode: 10
      - time: 5.5833335
        value: 0
        inSlope: 0
        outSlope: 0
        tangentMode: 10
      - time: 6.75
        value: 0
        inSlope: 0
        outSlope: 0
        tangentMode: 10
      - time: 7
        value: 0
        inSlope: 0
        outSlope: 0
        tangentMode: 10
      - time: 7.5
        value: 0
        inSlope: 0
        outSlope: 0
        tangentMode: 10
      - time: 9.083333
        value: 0
        inSlope: 0
        outSlope: 0
        tangentMode: 10
      - time: 9.916667
        value: 0
        inSlope: 0
        outSlope: 0
        tangentMode: 10
      - time: 10.583333
        value: 0
        inSlope: 0
        outSlope: 0
        tangentMode: 10
      - time: 19.416666
        value: 0
        inSlope: 0
        outSlope: 0
        tangentMode: 10
      - time: 19.5
        value: 0
        inSlope: -0.37505478
        outSlope: -0.37505478
        tangentMode: 10
      - time: 20.416666
        value: -0.68759996
        inSlope: -0.75010955
        outSlope: -0.75010955
        tangentMode: 10
      m_PreInfinity: 2
      m_PostInfinity: 2
      m_RotationOrder: 4
    attribute: localEulerAnglesRaw.z
    path: Model
    classID: 4
    script: {fileID: 0}
  - curve:
      serializedVersion: 2
      m_Curve:
      - time: 0
        value: 0
        inSlope: 0
        outSlope: 0
        tangentMode: 10
      - time: 20.416666
        value: 0
        inSlope: 0
        outSlope: 0
        tangentMode: 10
      m_PreInfinity: 2
      m_PostInfinity: 2
      m_RotationOrder: 4
    attribute: m_LocalPosition.x
    path: Model
    classID: 4
    script: {fileID: 0}
  - curve:
      serializedVersion: 2
      m_Curve:
      - time: 0
        value: 0
        inSlope: 0
        outSlope: 0
        tangentMode: 10
      - time: 20.416666
        value: 0
        inSlope: 0
        outSlope: 0
        tangentMode: 10
      m_PreInfinity: 2
      m_PostInfinity: 2
      m_RotationOrder: 4
    attribute: m_LocalPosition.y
    path: Model
    classID: 4
    script: {fileID: 0}
  - curve:
      serializedVersion: 2
      m_Curve:
      - time: 0
        value: 0
        inSlope: 0
        outSlope: 0
        tangentMode: 10
      - time: 20.416666
        value: 0
        inSlope: 0
        outSlope: 0
        tangentMode: 10
      m_PreInfinity: 2
      m_PostInfinity: 2
      m_RotationOrder: 4
    attribute: m_LocalPosition.z
    path: Model
    classID: 4
    script: {fileID: 0}
  - curve:
      serializedVersion: 2
      m_Curve:
      - time: 0
        value: -0.65
        inSlope: -0.85714287
        outSlope: -0.85714287
        tangentMode: 10
      - time: 1.1666666
        value: -1.65
        inSlope: -0.42857143
        outSlope: -0.42857143
        tangentMode: 10
      - time: 1.3333334
        value: -1.65
        inSlope: 0
        outSlope: 0
        tangentMode: 10
      - time: 19.416666
        value: -1.65
        inSlope: 0
        outSlope: 0
        tangentMode: 10
      - time: 19.5
        value: -1.65
        inSlope: 0.5454549
        outSlope: 0.5454549
        tangentMode: 10
      - time: 20.416666
        value: -0.65
        inSlope: 1.0909098
        outSlope: 1.0909098
        tangentMode: 10
      m_PreInfinity: 2
      m_PostInfinity: 2
      m_RotationOrder: 4
    attribute: m_LocalPosition.x
    path: Model/Arm.L
    classID: 4
    script: {fileID: 0}
  - curve:
      serializedVersion: 2
      m_Curve:
      - time: 0
        value: 5.03
        inSlope: 0.6428821
        outSlope: 0.6428821
        tangentMode: 10
      - time: 1.1666666
        value: 5.7800293
        inSlope: 0.32144105
        outSlope: 0.32144105
        tangentMode: 10
      - time: 1.3333334
        value: 5.7800293
        inSlope: 0
        outSlope: 0
        tangentMode: 10
      - time: 19.416666
        value: 5.7800293
        inSlope: 0
        outSlope: 0
        tangentMode: 10
      - time: 19.5
        value: 5.7800293
        inSlope: -0.40910706
        outSlope: -0.40910706
        tangentMode: 10
      - time: 20.416666
        value: 5.03
        inSlope: -0.8182141
        outSlope: -0.8182141
        tangentMode: 10
      m_PreInfinity: 2
      m_PostInfinity: 2
      m_RotationOrder: 4
    attribute: m_LocalPosition.y
    path: Model/Arm.L
    classID: 4
    script: {fileID: 0}
  - curve:
      serializedVersion: 2
      m_Curve:
      - time: 0
        value: -1.49
        inSlope: 0.18857145
        outSlope: 0.18857145
        tangentMode: 10
      - time: 1.1666666
        value: -1.27
        inSlope: 0.09428573
        outSlope: 0.09428573
        tangentMode: 10
      - time: 1.3333334
        value: -1.27
        inSlope: 0
        outSlope: 0
        tangentMode: 10
      - time: 19.416666
        value: -1.27
        inSlope: 0
        outSlope: 0
        tangentMode: 10
      - time: 19.5
        value: -1.27
        inSlope: -0.1200001
        outSlope: -0.1200001
        tangentMode: 10
      - time: 20.416666
        value: -1.49
        inSlope: -0.2400002
        outSlope: -0.2400002
        tangentMode: 10
      m_PreInfinity: 2
      m_PostInfinity: 2
      m_RotationOrder: 4
    attribute: m_LocalPosition.z
    path: Model/Arm.L
    classID: 4
    script: {fileID: 0}
  - curve:
      serializedVersion: 2
      m_Curve:
      - time: 0
        value: -9.9129
        inSlope: 7.8000855
        outSlope: 7.8000855
        tangentMode: 10
      - time: 1.1666666
        value: -0.8128
        inSlope: 3.9000428
        outSlope: 3.9000428
        tangentMode: 10
      - time: 1.3333334
        value: -0.8128
        inSlope: 0
        outSlope: 0
        tangentMode: 10
      - time: 19.416666
        value: -0.8128
        inSlope: 0
        outSlope: 0
        tangentMode: 10
      - time: 19.5
        value: -0.8128
        inSlope: -4.963694
        outSlope: -4.963694
        tangentMode: 10
      - time: 20.416666
        value: -9.9129
        inSlope: -9.927388
        outSlope: -9.927388
        tangentMode: 10
      m_PreInfinity: 2
      m_PostInfinity: 2
      m_RotationOrder: 4
    attribute: localEulerAnglesRaw.x
    path: Model/Arm.L
    classID: 4
    script: {fileID: 0}
  - curve:
      serializedVersion: 2
      m_Curve:
      - time: 0
        value: 463.185
        inSlope: 19.781382
        outSlope: 19.781382
        tangentMode: 10
      - time: 1.1666666
        value: 486.26328
        inSlope: 9.890691
        outSlope: 9.890691
        tangentMode: 10
      - time: 1.3333334
        value: 486.26328
        inSlope: 0
        outSlope: 0
        tangentMode: 10
      - time: 19.416666
        value: 486.26328
        inSlope: 0
        outSlope: 0
        tangentMode: 10
      - time: 19.5
        value: 486.26328
        inSlope: -12.5881605
        outSlope: -12.5881605
        tangentMode: 10
      - time: 20.416666
        value: 463.185
        inSlope: -25.176321
        outSlope: -25.176321
        tangentMode: 10
      m_PreInfinity: 2
      m_PostInfinity: 2
      m_RotationOrder: 4
    attribute: localEulerAnglesRaw.y
    path: Model/Arm.L
    classID: 4
    script: {fileID: 0}
  - curve:
      serializedVersion: 2
      m_Curve:
      - time: 0
        value: -445.80478
        inSlope: -3.5959039
        outSlope: -3.5959039
        tangentMode: 10
      - time: 1.1666666
        value: -450
        inSlope: -1.7979519
        outSlope: -1.7979519
        tangentMode: 10
      - time: 1.3333334
        value: -450
        inSlope: 0
        outSlope: 0
        tangentMode: 10
      - time: 19.416666
        value: -450
        inSlope: 0
        outSlope: 0
        tangentMode: 10
      - time: 19.5
        value: -450
        inSlope: 2.2883039
        outSlope: 2.2883039
        tangentMode: 10
      - time: 20.416666
        value: -445.80478
        inSlope: 4.5766077
        outSlope: 4.5766077
        tangentMode: 10
      m_PreInfinity: 2
      m_PostInfinity: 2
      m_RotationOrder: 4
    attribute: localEulerAnglesRaw.z
    path: Model/Arm.L
    classID: 4
    script: {fileID: 0}
  - curve:
      serializedVersion: 2
      m_Curve:
      - time: 0
        value: -0.7
        inSlope: -0.36857146
        outSlope: -0.36857146
        tangentMode: 10
      - time: 1.1666666
        value: -1.13
        inSlope: -0.18428573
        outSlope: -0.18428573
        tangentMode: 10
      - time: 1.3333334
        value: -1.13
        inSlope: 0
        outSlope: 0
        tangentMode: 10
      - time: 19.416666
        value: -1.13
        inSlope: 0
        outSlope: 0
        tangentMode: 10
      - time: 19.5
        value: -1.13
        inSlope: 0.23454562
        outSlope: 0.23454562
        tangentMode: 10
      - time: 20.416666
        value: -0.7
        inSlope: 0.46909124
        outSlope: 0.46909124
        tangentMode: 10
      m_PreInfinity: 2
      m_PostInfinity: 2
      m_RotationOrder: 4
    attribute: m_LocalPosition.x
    path: Model/Arm.R
    classID: 4
    script: {fileID: 0}
  - curve:
      serializedVersion: 2
      m_Curve:
      - time: 0
        value: 4.59
        inSlope: 1.0885714
        outSlope: 1.0885714
        tangentMode: 10
      - time: 1.1666666
        value: 5.86
        inSlope: 0.5442857
        outSlope: 0.5442857
        tangentMode: 10
      - time: 1.3333334
        value: 5.86
        inSlope: 0
        outSlope: 0
        tangentMode: 10
      - time: 19.416666
        value: 5.86
        inSlope: 0
        outSlope: 0
        tangentMode: 10
      - time: 19.5
        value: 5.86
        inSlope: -0.69272774
        outSlope: -0.69272774
        tangentMode: 10
      - time: 20.416666
        value: 4.59
        inSlope: -1.3854555
        outSlope: -1.3854555
        tangentMode: 10
      m_PreInfinity: 2
      m_PostInfinity: 2
      m_RotationOrder: 4
    attribute: m_LocalPosition.y
    path: Model/Arm.R
    classID: 4
    script: {fileID: 0}
  - curve:
      serializedVersion: 2
      m_Curve:
      - time: 0
        value: 1.8
        inSlope: 0
        outSlope: 0
        tangentMode: 10
      - time: 1.1666666
        value: 1.8
        inSlope: 0
        outSlope: 0
        tangentMode: 10
      - time: 1.3333334
        value: 1.8
        inSlope: 0
        outSlope: 0
        tangentMode: 10
      - time: 19.416666
        value: 1.8
        inSlope: 0
        outSlope: 0
        tangentMode: 10
      - time: 19.5
        value: 1.8
        inSlope: 0
        outSlope: 0
        tangentMode: 10
      - time: 20.416666
        value: 1.8
        inSlope: 0
        outSlope: 0
        tangentMode: 10
      m_PreInfinity: 2
      m_PostInfinity: 2
      m_RotationOrder: 4
    attribute: m_LocalPosition.z
    path: Model/Arm.R
    classID: 4
    script: {fileID: 0}
  - curve:
      serializedVersion: 2
      m_Curve:
      - time: 0
        value: -46.6604
        inSlope: 42.915432
        outSlope: 42.915432
        tangentMode: 10
      - time: 1.1666666
        value: 3.4076
        inSlope: 21.457716
        outSlope: 21.457716
        tangentMode: 10
      - time: 1.3333334
        value: 3.4076
        inSlope: 0
        outSlope: 0
        tangentMode: 10
      - time: 19.416666
        value: 3.4076
        inSlope: 0
        outSlope: 0
        tangentMode: 10
      - time: 19.5
        value: 3.4076
        inSlope: -27.309837
        outSlope: -27.309837
        tangentMode: 10
      - time: 20.416666
        value: -46.6604
        inSlope: -54.619675
        outSlope: -54.619675
        tangentMode: 10
      m_PreInfinity: 2
      m_PostInfinity: 2
      m_RotationOrder: 4
    attribute: localEulerAnglesRaw.x
    path: Model/Arm.R
    classID: 4
    script: {fileID: 0}
  - curve:
      serializedVersion: 2
      m_Curve:
      - time: 0
        value: 90
        inSlope: 0
        outSlope: 0
        tangentMode: 10
      - time: 1.1666666
        value: 90
        inSlope: 0
        outSlope: 0
        tangentMode: 10
      - time: 1.3333334
        value: 90
        inSlope: 0
        outSlope: 0
        tangentMode: 10
      - time: 19.416666
        value: 90
        inSlope: 0
        outSlope: 0
        tangentMode: 10
      - time: 19.5
        value: 90
        inSlope: 0
        outSlope: 0
        tangentMode: 10
      - time: 20.416666
        value: 90
        inSlope: 0
        outSlope: 0
        tangentMode: 10
      m_PreInfinity: 2
      m_PostInfinity: 2
      m_RotationOrder: 4
    attribute: localEulerAnglesRaw.y
    path: Model/Arm.R
    classID: 4
    script: {fileID: 0}
  - curve:
      serializedVersion: 2
      m_Curve:
      - time: 0
        value: -90
        inSlope: 0
        outSlope: 0
        tangentMode: 10
      - time: 1.1666666
        value: -90
        inSlope: 0
        outSlope: 0
        tangentMode: 10
      - time: 1.3333334
        value: -90
        inSlope: 0
        outSlope: 0
        tangentMode: 10
      - time: 19.416666
        value: -90
        inSlope: 0
        outSlope: 0
        tangentMode: 10
      - time: 19.5
        value: -90
        inSlope: 0
        outSlope: 0
        tangentMode: 10
      - time: 20.416666
        value: -90
        inSlope: 0
        outSlope: 0
        tangentMode: 10
      m_PreInfinity: 2
      m_PostInfinity: 2
      m_RotationOrder: 4
    attribute: localEulerAnglesRaw.z
    path: Model/Arm.R
    classID: 4
    script: {fileID: 0}
  - curve:
      serializedVersion: 2
      m_Curve:
      - time: 0
        value: -2.19
        inSlope: -5.348572
        outSlope: -5.348572
        tangentMode: 10
      - time: 1.1666666
        value: -8.43
        inSlope: -2.674286
        outSlope: -2.674286
        tangentMode: 10
      - time: 1.3333334
        value: -8.43
        inSlope: 0
        outSlope: 0
        tangentMode: 10
      - time: 19.416666
        value: -8.43
        inSlope: 0
        outSlope: 0
        tangentMode: 10
      - time: 19.5
        value: -8.43
        inSlope: 3.4036388
        outSlope: 3.4036388
        tangentMode: 10
      - time: 20.416666
        value: -2.19
        inSlope: 6.8072777
        outSlope: 6.8072777
        tangentMode: 10
      m_PreInfinity: 2
      m_PostInfinity: 2
      m_RotationOrder: 4
    attribute: m_LocalPosition.x
    path: Model/Rifle
    classID: 4
    script: {fileID: 0}
  - curve:
      serializedVersion: 2
      m_Curve:
      - time: 0
        value: 9.34
        inSlope: -0.8742861
        outSlope: -0.8742861
        tangentMode: 10
      - time: 1.1666666
        value: 8.32
        inSlope: -0.43714306
        outSlope: -0.43714306
        tangentMode: 10
      - time: 1.3333334
        value: 8.32
        inSlope: 0
        outSlope: 0
        tangentMode: 10
      - time: 19.416666
        value: 8.32
        inSlope: 0
        outSlope: 0
        tangentMode: 10
      - time: 19.5
        value: 8.32
        inSlope: 0.5563643
        outSlope: 0.5563643
        tangentMode: 10
      - time: 20.416666
        value: 9.34
        inSlope: 1.1127286
        outSlope: 1.1127286
        tangentMode: 10
      m_PreInfinity: 2
      m_PostInfinity: 2
      m_RotationOrder: 4
    attribute: m_LocalPosition.y
    path: Model/Rifle
    classID: 4
    script: {fileID: 0}
  - curve:
      serializedVersion: 2
      m_Curve:
      - time: 0
        value: -4.2
        inSlope: 4.14
        outSlope: 4.14
        tangentMode: 10
      - time: 1.1666666
        value: 0.63
        inSlope: 2.07
        outSlope: 2.07
        tangentMode: 10
      - time: 1.3333334
        value: 0.63
        inSlope: 0
        outSlope: 0
        tangentMode: 10
      - time: 19.416666
        value: 0.63
        inSlope: 0
        outSlope: 0
        tangentMode: 10
      - time: 19.5
        value: 0.63
        inSlope: -2.6345472
        outSlope: -2.6345472
        tangentMode: 10
      - time: 20.416666
        value: -4.2
        inSlope: -5.2690945
        outSlope: -5.2690945
        tangentMode: 10
      m_PreInfinity: 2
      m_PostInfinity: 2
      m_RotationOrder: 4
    attribute: m_LocalPosition.z
    path: Model/Rifle
    classID: 4
    script: {fileID: 0}
  - curve:
      serializedVersion: 2
      m_Curve:
      - time: 0
        value: -65.9114
        inSlope: -20.630396
        outSlope: -20.630396
        tangentMode: 10
      - time: 1.1666666
        value: -89.980194
        inSlope: -10.315198
        outSlope: -10.315198
        tangentMode: 10
      - time: 1.3333334
        value: -89.980194
        inSlope: 0
        outSlope: 0
        tangentMode: 10
      - time: 19.416666
        value: -89.980194
        inSlope: 0
        outSlope: 0
        tangentMode: 10
      - time: 19.5
        value: -89.980194
        inSlope: 13.128443
        outSlope: 13.128443
        tangentMode: 10
      - time: 20.416666
        value: -65.9114
        inSlope: 26.256886
        outSlope: 26.256886
        tangentMode: 10
      m_PreInfinity: 2
      m_PostInfinity: 2
      m_RotationOrder: 4
    attribute: localEulerAnglesRaw.x
    path: Model/Rifle
    classID: 4
    script: {fileID: 0}
  - curve:
      serializedVersion: 2
      m_Curve:
      - time: 0
        value: 6.7377
        inSlope: -5.7751718
        outSlope: -5.7751718
        tangentMode: 10
      - time: 1.1666666
        value: 0
        inSlope: -2.8875859
        outSlope: -2.8875859
        tangentMode: 10
      - time: 1.3333334
        value: 0
        inSlope: 0
        outSlope: 0
        tangentMode: 10
      - time: 19.416666
        value: 0
        inSlope: 0
        outSlope: 0
        tangentMode: 10
      - time: 19.5
        value: 0
        inSlope: 3.6751115
        outSlope: 3.6751115
        tangentMode: 10
      - time: 20.416666
        value: 6.7377
        inSlope: 7.350223
        outSlope: 7.350223
        tangentMode: 10
      m_PreInfinity: 2
      m_PostInfinity: 2
      m_RotationOrder: 4
    attribute: localEulerAnglesRaw.y
    path: Model/Rifle
    classID: 4
    script: {fileID: 0}
  - curve:
      serializedVersion: 2
      m_Curve:
      - time: 0
        value: -90.0001
        inSlope: 77.142944
        outSlope: 77.142944
        tangentMode: 10
      - time: 1.1666666
        value: 0
        inSlope: 38.571472
        outSlope: 38.571472
        tangentMode: 10
      - time: 1.3333334
        value: 0
        inSlope: 0
        outSlope: 0
        tangentMode: 10
      - time: 19.416666
        value: 0
        inSlope: 0
        outSlope: 0
        tangentMode: 10
      - time: 19.5
        value: 0
        inSlope: -49.090996
        outSlope: -49.090996
        tangentMode: 10
      - time: 20.416666
        value: -90.0001
        inSlope: -98.18199
        outSlope: -98.18199
        tangentMode: 10
      m_PreInfinity: 2
      m_PostInfinity: 2
      m_RotationOrder: 4
    attribute: localEulerAnglesRaw.z
    path: Model/Rifle
    classID: 4
    script: {fileID: 0}
  - curve:
      serializedVersion: 2
      m_Curve:
      - time: 0
        value: 1.3651999
        inSlope: 6.119571
        outSlope: 6.119571
        tangentMode: 10
      - time: 1.1666666
        value: 8.5047
        inSlope: 3.070586
        outSlope: 3.070586
        tangentMode: 10
      - time: 1.3333334
        value: 8.5083
        inSlope: -0.016608866
        outSlope: -0.016608866
        tangentMode: 10
      - time: 19.416666
        value: 7.5169997
        inSlope: Infinity
        outSlope: -2.426903
        tangentMode: 7
      - time: 20.416666
        value: 3.1176999
        inSlope: -4.3992996
        outSlope: -4.3992996
        tangentMode: 10
      m_PreInfinity: 2
      m_PostInfinity: 2
      m_RotationOrder: 4
    attribute: localEulerAnglesRaw.x
    path: Model/FireAxe
    classID: 4
    script: {fileID: 0}
  - curve:
      serializedVersion: 2
      m_Curve:
      - time: 0
        value: 271.0766
        inSlope: 17.59199
        outSlope: 17.59199
        tangentMode: 10
      - time: 1.1666666
        value: 291.6006
        inSlope: 7.337103
        outSlope: 7.337103
        tangentMode: 10
      - time: 1.3333334
        value: 291.1143
        inSlope: -1.5844249
        outSlope: -1.5844249
        tangentMode: 10
      - time: 19.416666
        value: 286.5742
        inSlope: Infinity
        outSlope: -6.4331446
        tangentMode: 7
      - time: 20.416666
        value: 275.0092
        inSlope: -11.565002
        outSlope: -11.565002
        tangentMode: 10
      m_PreInfinity: 2
      m_PostInfinity: 2
      m_RotationOrder: 4
    attribute: localEulerAnglesRaw.y
    path: Model/FireAxe
    classID: 4
    script: {fileID: 0}
  - curve:
      serializedVersion: 2
      m_Curve:
      - time: 0
        value: 249.49309
        inSlope: 37.124493
        outSlope: 37.124493
        tangentMode: 10
      - time: 1.1666666
        value: 292.805
        inSlope: 15.667809
        outSlope: 15.667809
        tangentMode: 10
      - time: 1.3333334
        value: 291.84018
        inSlope: -3.1630414
        outSlope: -3.1630414
        tangentMode: 10
      - time: 19.416666
        value: 282.1257
        inSlope: Infinity
        outSlope: -13.811792
        tangentMode: 7
      - time: 20.416666
        value: 257.29428
        inSlope: -24.83142
        outSlope: -24.83142
        tangentMode: 10
      m_PreInfinity: 2
      m_PostInfinity: 2
      m_RotationOrder: 4
    attribute: localEulerAnglesRaw.z
    path: Model/FireAxe
    classID: 4
    script: {fileID: 0}
  - curve:
      serializedVersion: 2
      m_Curve:
      - time: 0
        value: -2.75
        inSlope: 0.051428523
        outSlope: 0.051428523
        tangentMode: 10
      - time: 1.1666666
        value: -2.69
        inSlope: 0.020921335
        outSlope: 0.020921335
        tangentMode: 10
      - time: 1.3333334
        value: -2.6915977
        inSlope: -0.005808128
        outSlope: -0.005808128
        tangentMode: 10
      - time: 19.416666
        value: -2.7283142
        inSlope: Infinity
        outSlope: -0.00042300072
        tangentMode: 7
      - time: 19.5
        value: -2.7283142
        inSlope: -0.00091955945
        outSlope: -0.00091955945
        tangentMode: 10
      - time: 20.416666
        value: -2.73
        inSlope: -0.0018391189
        outSlope: -0.0018391189
        tangentMode: 10
      m_PreInfinity: 2
      m_PostInfinity: 2
      m_RotationOrder: 4
    attribute: m_LocalPosition.x
    path: Model/FireAxe
    classID: 4
    script: {fileID: 0}
  - curve:
      serializedVersion: 2
      m_Curve:
      - time: 0
        value: 4.88
        inSlope: 1.3457141
        outSlope: 1.3457141
        tangentMode: 10
      - time: 1.1666666
        value: 6.45
        inSlope: 0.0058541894
        outSlope: 0.0058541894
        tangentMode: 10
      - time: 1.3333334
        value: 6.2276654
        inSlope: -0.67053276
        outSlope: -0.67053276
        tangentMode: 10
      - time: 19.416666
        value: 6.1
        inSlope: Infinity
        outSlope: -0.001470801
        tangentMode: 7
      - time: 19.5
        value: 6.1
        inSlope: -0.6000004
        outSlope: -0.6000004
        tangentMode: 10
      - time: 20.416666
        value: 5
        inSlope: -1.2000008
        outSlope: -1.2000008
        tangentMode: 10
      m_PreInfinity: 2
      m_PostInfinity: 2
      m_RotationOrder: 4
    attribute: m_LocalPosition.y
    path: Model/FireAxe
    classID: 4
    script: {fileID: 0}
  - curve:
      serializedVersion: 2
      m_Curve:
      - time: 0
        value: 0.26334018
        inSlope: 0.6228513
        outSlope: 0.6228513
        tangentMode: 10
      - time: 1.1666666
        value: 0.99
        inSlope: 0.30602977
        outSlope: 0.30602977
        tangentMode: 10
      - time: 1.3333334
        value: 0.9882014
        inSlope: -0.0077195894
        outSlope: -0.0077195894
        tangentMode: 10
      - time: 19.416666
        value: 0.9041608
        inSlope: Infinity
        outSlope: -0.0009682095
        tangentMode: 7
      - time: 19.5
        value: 0.9041608
        inSlope: -0.0022389146
        outSlope: -0.0022389146
        tangentMode: 10
      - time: 20.416666
        value: 0.9000561
        inSlope: -0.004477829
        outSlope: -0.004477829
        tangentMode: 10
      m_PreInfinity: 2
      m_PostInfinity: 2
      m_RotationOrder: 4
    attribute: m_LocalPosition.z
    path: Model/FireAxe
    classID: 4
    script: {fileID: 0}
  m_EulerEditorCurves:
  - curve:
      serializedVersion: 2
      m_Curve: []
      m_PreInfinity: 2
      m_PostInfinity: 2
      m_RotationOrder: 4
    attribute: m_LocalEulerAngles.z
    path: Model
    classID: 4
    script: {fileID: 0}
  - curve:
      serializedVersion: 2
      m_Curve: []
      m_PreInfinity: 2
      m_PostInfinity: 2
      m_RotationOrder: 4
    attribute: m_LocalEulerAngles.y
    path: Model
    classID: 4
    script: {fileID: 0}
  - curve:
      serializedVersion: 2
      m_Curve: []
      m_PreInfinity: 2
      m_PostInfinity: 2
      m_RotationOrder: 4
    attribute: m_LocalEulerAngles.x
    path: Model
    classID: 4
    script: {fileID: 0}
  - curve:
      serializedVersion: 2
      m_Curve: []
      m_PreInfinity: 2
      m_PostInfinity: 2
      m_RotationOrder: 4
    attribute: m_LocalEulerAngles.z
    path: Model/Arm.L
    classID: 4
    script: {fileID: 0}
  - curve:
      serializedVersion: 2
      m_Curve: []
      m_PreInfinity: 2
      m_PostInfinity: 2
      m_RotationOrder: 4
    attribute: m_LocalEulerAngles.y
    path: Model/Arm.L
    classID: 4
    script: {fileID: 0}
  - curve:
      serializedVersion: 2
      m_Curve: []
      m_PreInfinity: 2
      m_PostInfinity: 2
      m_RotationOrder: 4
    attribute: m_LocalEulerAngles.x
    path: Model/Arm.L
    classID: 4
    script: {fileID: 0}
  - curve:
      serializedVersion: 2
      m_Curve: []
      m_PreInfinity: 2
      m_PostInfinity: 2
      m_RotationOrder: 4
    attribute: m_LocalEulerAngles.z
    path: Model/Arm.R
    classID: 4
    script: {fileID: 0}
  - curve:
      serializedVersion: 2
      m_Curve: []
      m_PreInfinity: 2
      m_PostInfinity: 2
      m_RotationOrder: 4
    attribute: m_LocalEulerAngles.y
    path: Model/Arm.R
    classID: 4
    script: {fileID: 0}
  - curve:
      serializedVersion: 2
      m_Curve: []
      m_PreInfinity: 2
      m_PostInfinity: 2
      m_RotationOrder: 4
    attribute: m_LocalEulerAngles.x
    path: Model/Arm.R
    classID: 4
    script: {fileID: 0}
  - curve:
      serializedVersion: 2
      m_Curve: []
      m_PreInfinity: 2
      m_PostInfinity: 2
      m_RotationOrder: 4
    attribute: m_LocalEulerAngles.z
    path: Model/FireAxe
    classID: 4
    script: {fileID: 0}
  - curve:
      serializedVersion: 2
      m_Curve: []
      m_PreInfinity: 2
      m_PostInfinity: 2
      m_RotationOrder: 4
    attribute: m_LocalEulerAngles.y
    path: Model/FireAxe
    classID: 4
    script: {fileID: 0}
  - curve:
      serializedVersion: 2
      m_Curve: []
      m_PreInfinity: 2
      m_PostInfinity: 2
      m_RotationOrder: 4
    attribute: m_LocalEulerAngles.x
    path: Model/FireAxe
    classID: 4
    script: {fileID: 0}
  - curve:
      serializedVersion: 2
      m_Curve: []
      m_PreInfinity: 2
      m_PostInfinity: 2
      m_RotationOrder: 4
    attribute: m_LocalEulerAngles.x
    path: Model/Rifle
    classID: 4
    script: {fileID: 0}
  - curve:
      serializedVersion: 2
      m_Curve: []
      m_PreInfinity: 2
      m_PostInfinity: 2
      m_RotationOrder: 4
    attribute: m_LocalEulerAngles.y
    path: Model/Rifle
    classID: 4
    script: {fileID: 0}
  - curve:
      serializedVersion: 2
      m_Curve: []
      m_PreInfinity: 2
      m_PostInfinity: 2
      m_RotationOrder: 4
    attribute: m_LocalEulerAngles.z
    path: Model/Rifle
    classID: 4
    script: {fileID: 0}
  m_HasGenericRootTransform: 0
  m_HasMotionFloatCurves: 0
  m_GenerateMotionCurves: 0
  m_Events: []
