%YAML 1.1
%TAG !u! tag:unity3d.com,2011:
--- !u!74 &7400000
AnimationClip:
  m_ObjectHideFlags: 0
  m_PrefabParentObject: {fileID: 0}
  m_PrefabInternal: {fileID: 0}
  m_Name: Levitate
  serializedVersion: 6
  m_Legacy: 0
  m_Compressed: 0
  m_UseHighQualityCurve: 1
  m_RotationCurves: []
  m_CompressedRotationCurves: []
  m_EulerCurves:
  - curve:
      serializedVersion: 2
      m_Curve:
      - time: 0
        value: {x: -0.48619998, y: 0, z: 0}
        inSlope: {x: -196.73369, y: 0, z: 0}
        outSlope: {x: -196.73369, y: 0, z: 0}
        tangentMode: 0
      - time: 0.33333334
        value: {x: -66.064095, y: 0, z: 0}
        inSlope: {x: -41.85234, y: 0.40148568, z: -63.800735}
        outSlope: {x: -41.85234, y: 0.40148568, z: -63.800735}
        tangentMode: 0
      - time: 0.9166667
        value: {x: -0.1305, y: 0.4684, z: -74.4342}
        inSlope: {x: 56.514503, y: 0.40148568, z: -63.800735}
        outSlope: {x: 56.514503, y: 0.40148568, z: -63.800735}
        tangentMode: 0
      - time: 1.5
        value: {x: -0.1305, y: 0.4684, z: -74.4342}
        inSlope: {x: -0.35569996, y: -0.4684, z: 74.4342}
        outSlope: {x: -0.35569996, y: -0.4684, z: 74.4342}
        tangentMode: 0
      - time: 2
        value: {x: -0.48619998, y: 0, z: 0}
        inSlope: {x: -0.7113999, y: -0.9368, z: 148.8684}
        outSlope: {x: -0.7113999, y: -0.9368, z: 148.8684}
        tangentMode: 0
      m_PreInfinity: 2
      m_PostInfinity: 2
      m_RotationOrder: 4
    path: Model
  m_PositionCurves:
  - curve:
      serializedVersion: 2
      m_Curve:
      - time: 0
        value: {x: 0, y: -1.1, z: 0}
        inSlope: {x: 0, y: 126.59999, z: 0}
        outSlope: {x: 0, y: 126.59999, z: 0}
        tangentMode: 0
      - time: 0.33333334
        value: {x: 0, y: 41.1, z: 0}
        inSlope: {x: 0, y: 0, z: 0}
        outSlope: {x: 0, y: 0, z: 0}
        tangentMode: 0
      - time: 0.6666667
        value: {x: 0, y: -1.1, z: 0}
        inSlope: {x: 0, y: -63.299995, z: 0}
        outSlope: {x: 0, y: -63.299995, z: 0}
        tangentMode: 0
      - time: 0.9166667
        value: {x: 0, y: -1.1, z: 0}
        inSlope: {x: 0, y: 0, z: 0}
        outSlope: {x: 0, y: 0, z: 0}
        tangentMode: 0
      - time: 1.5
        value: {x: 0, y: -1.1, z: 0}
        inSlope: {x: 0, y: 0, z: 0}
        outSlope: {x: 0, y: 0, z: 0}
        tangentMode: 0
      - time: 2
        value: {x: 0, y: -1.1, z: 0}
        inSlope: {x: 0, y: 0, z: 0}
        outSlope: {x: 0, y: 0, z: 0}
        tangentMode: 0
      m_PreInfinity: 2
      m_PostInfinity: 2
      m_RotationOrder: 4
    path: Model
  m_ScaleCurves: []
  m_FloatCurves: []
  m_PPtrCurves: []
  m_SampleRate: 12
  m_WrapMode: 0
  m_Bounds:
    m_Center: {x: 0, y: 0, z: 0}
    m_Extent: {x: 0, y: 0, z: 0}
  m_ClipBindingConstant:
    genericBindings:
    - path: 374627805
      attribute: 1
      script: {fileID: 0}
      classID: 4
      customType: 0
      isPPtrCurve: 0
    - path: 374627805
      attribute: 4
      script: {fileID: 0}
      classID: 4
      customType: 14
      isPPtrCurve: 0
    pptrCurveMapping: []
  m_AnimationClipSettings:
    serializedVersion: 2
    m_AdditiveReferencePoseClip: {fileID: 0}
    m_AdditiveReferencePoseTime: 0
    m_StartTime: 0
    m_StopTime: 2
    m_OrientationOffsetY: 0
    m_Level: 0
    m_CycleOffset: 0
    m_HasAdditiveReferencePose: 0
    m_LoopTime: 0
    m_LoopBlend: 0
    m_LoopBlendOrientation: 0
    m_LoopBlendPositionY: 0
    m_LoopBlendPositionXZ: 0
    m_KeepOriginalOrientation: 0
    m_KeepOriginalPositionY: 1
    m_KeepOriginalPositionXZ: 0
    m_HeightFromFeet: 0
    m_Mirror: 0
  m_EditorCurves:
  - curve:
      serializedVersion: 2
      m_Curve:
      - time: 0
        value: 0
        inSlope: 0
        outSlope: 0
        tangentMode: 10
      - time: 0.33333334
        value: 0
        inSlope: 0
        outSlope: 0
        tangentMode: 10
      - time: 0.6666667
        value: 0
        inSlope: 0
        outSlope: 0
        tangentMode: 10
      - time: 0.9166667
        value: 0
        inSlope: 0
        outSlope: 0
        tangentMode: 10
      - time: 1.5
        value: 0
        inSlope: 0
        outSlope: 0
        tangentMode: 10
      - time: 2
        value: 0
        inSlope: 0
        outSlope: 0
        tangentMode: 10
      m_PreInfinity: 2
      m_PostInfinity: 2
      m_RotationOrder: 4
    attribute: m_LocalPosition.x
    path: Model
    classID: 4
    script: {fileID: 0}
  - curve:
      serializedVersion: 2
      m_Curve:
      - time: 0
        value: -1.1
        inSlope: 126.59999
        outSlope: 126.59999
        tangentMode: 10
      - time: 0.33333334
        value: 41.1
        inSlope: 0
        outSlope: 0
        tangentMode: 10
      - time: 0.6666667
        value: -1.1
        inSlope: -63.299995
        outSlope: -63.299995
        tangentMode: 10
      - time: 0.9166667
        value: -1.1
        inSlope: 0
        outSlope: 0
        tangentMode: 10
      - time: 1.5
        value: -1.1
        inSlope: 0
        outSlope: 0
        tangentMode: 10
      - time: 2
        value: -1.1
        inSlope: 0
        outSlope: 0
        tangentMode: 10
      m_PreInfinity: 2
      m_PostInfinity: 2
      m_RotationOrder: 4
    attribute: m_LocalPosition.y
    path: Model
    classID: 4
    script: {fileID: 0}
  - curve:
      serializedVersion: 2
      m_Curve:
      - time: 0
        value: 0
        inSlope: 0
        outSlope: 0
        tangentMode: 10
      - time: 0.33333334
        value: 0
        inSlope: 0
        outSlope: 0
        tangentMode: 10
      - time: 0.6666667
        value: 0
        inSlope: 0
        outSlope: 0
        tangentMode: 10
      - time: 0.9166667
        value: 0
        inSlope: 0
        outSlope: 0
        tangentMode: 10
      - time: 1.5
        value: 0
        inSlope: 0
        outSlope: 0
        tangentMode: 10
      - time: 2
        value: 0
        inSlope: 0
        outSlope: 0
        tangentMode: 10
      m_PreInfinity: 2
      m_PostInfinity: 2
      m_RotationOrder: 4
    attribute: m_LocalPosition.z
    path: Model
    classID: 4
    script: {fileID: 0}
  - curve:
      serializedVersion: 2
      m_Curve:
      - time: 0
        value: -0.48619998
        inSlope: -196.73369
        outSlope: -196.73369
        tangentMode: 10
      - time: 0.33333334
        value: -66.064095
        inSlope: -41.85234
        outSlope: -41.85234
        tangentMode: 10
      - time: 0.9166667
        value: -0.1305
        inSlope: 56.514503
        outSlope: 56.514503
        tangentMode: 10
      - time: 1.5
        value: -0.1305
        inSlope: -0.35569996
        outSlope: -0.35569996
        tangentMode: 10
      - time: 2
        value: -0.48619998
        inSlope: -0.7113999
        outSlope: -0.7113999
        tangentMode: 10
      m_PreInfinity: 2
      m_PostInfinity: 2
      m_RotationOrder: 4
    attribute: localEulerAnglesRaw.x
    path: Model
    classID: 4
    script: {fileID: 0}
  - curve:
      serializedVersion: 2
      m_Curve:
      - time: 0
        value: 0
        inSlope: 0
        outSlope: 0
        tangentMode: 10
      - time: 0.33333334
        value: 0
        inSlope: 0.40148568
        outSlope: 0.40148568
        tangentMode: 10
      - time: 0.9166667
        value: 0.4684
        inSlope: 0.40148568
        outSlope: 0.40148568
        tangentMode: 10
      - time: 1.5
        value: 0.4684
        inSlope: -0.4684
        outSlope: -0.4684
        tangentMode: 10
      - time: 2
        value: 0
        inSlope: -0.9368
        outSlope: -0.9368
        tangentMode: 10
      m_PreInfinity: 2
      m_PostInfinity: 2
      m_RotationOrder: 4
    attribute: localEulerAnglesRaw.y
    path: Model
    classID: 4
    script: {fileID: 0}
  - curve:
      serializedVersion: 2
      m_Curve:
      - time: 0
        value: 0
        inSlope: 0
        outSlope: 0
        tangentMode: 10
      - time: 0.33333334
        value: 0
        inSlope: -63.800735
        outSlope: -63.800735
        tangentMode: 10
      - time: 0.9166667
        value: -74.4342
        inSlope: -63.800735
        outSlope: -63.800735
        tangentMode: 10
      - time: 1.5
        value: -74.4342
        inSlope: 74.4342
        outSlope: 74.4342
        tangentMode: 10
      - time: 2
        value: 0
        inSlope: 148.8684
        outSlope: 148.8684
        tangentMode: 10
      m_PreInfinity: 2
      m_PostInfinity: 2
      m_RotationOrder: 4
    attribute: localEulerAnglesRaw.z
    path: Model
    classID: 4
    script: {fileID: 0}
  m_EulerEditorCurves:
  - curve:
      serializedVersion: 2
      m_Curve: []
      m_PreInfinity: 2
      m_PostInfinity: 2
      m_RotationOrder: 4
    attribute: m_LocalEulerAngles.x
    path: Model
    classID: 4
    script: {fileID: 0}
  - curve:
      serializedVersion: 2
      m_Curve: []
      m_PreInfinity: 2
      m_PostInfinity: 2
      m_RotationOrder: 4
    attribute: m_LocalEulerAngles.y
    path: Model
    classID: 4
    script: {fileID: 0}
  - curve:
      serializedVersion: 2
      m_Curve: []
      m_PreInfinity: 2
      m_PostInfinity: 2
      m_RotationOrder: 4
    attribute: m_LocalEulerAngles.z
    path: Model
    classID: 4
    script: {fileID: 0}
  m_HasGenericRootTransform: 0
  m_HasMotionFloatCurves: 0
  m_GenerateMotionCurves: 0
  m_Events: []
