%YAML 1.1
%TAG !u! tag:unity3d.com,2011:
--- !u!74 &7400000
AnimationClip:
  m_ObjectHideFlags: 0
  m_PrefabParentObject: {fileID: 0}
  m_PrefabInternal: {fileID: 0}
  m_Name: struggle6
  serializedVersion: 6
  m_Legacy: 0
  m_Compressed: 0
  m_UseHighQualityCurve: 1
  m_RotationCurves: []
  m_CompressedRotationCurves: []
  m_EulerCurves:
  - curve:
      serializedVersion: 2
      m_Curve:
      - time: 0
        value: {x: 0, y: 90, z: 0}
        inSlope: {x: 373.54318, y: 0, z: 0}
        outSlope: {x: 373.54318, y: 0, z: 0}
        tangentMode: 0
      - time: 0.083333336
        value: {x: 31.1286, y: 90, z: 0}
        inSlope: {x: 163.42514, y: 0, z: 0}
        outSlope: {x: 163.42514, y: 0, z: 0}
        tangentMode: 0
      - time: 0.75
        value: {x: 0, y: 90, z: 0}
        inSlope: {x: -23.346449, y: 0, z: 0}
        outSlope: {x: -23.346449, y: 0, z: 0}
        tangentMode: 0
      - time: 1.1666666
        value: {x: 0, y: 90, z: 0}
        inSlope: {x: 0, y: 0, z: 0}
        outSlope: {x: 0, y: 0, z: 0}
        tangentMode: 0
      - time: 1.4166666
        value: {x: 0, y: 90, z: 0}
        inSlope: {x: 0, y: 0, z: 0}
        outSlope: {x: 0, y: 0, z: 0}
        tangentMode: 0
      - time: 1.6666666
        value: {x: 0, y: 90, z: 0}
        inSlope: {x: 0, y: 0, z: 0}
        outSlope: {x: 0, y: 0, z: 0}
        tangentMode: 0
      - time: 1.9166666
        value: {x: 0, y: 90, z: 0}
        inSlope: {x: 0, y: 0, z: 0}
        outSlope: {x: 0, y: 0, z: 0}
        tangentMode: 0
      - time: 2.1666667
        value: {x: 0, y: 90, z: 0}
        inSlope: {x: 0, y: 0, z: 0}
        outSlope: {x: 0, y: 0, z: 0}
        tangentMode: 0
      - time: 2.4166667
        value: {x: 0, y: 90, z: 0}
        inSlope: {x: 0, y: 0, z: 0}
        outSlope: {x: 0, y: 0, z: 0}
        tangentMode: 0
      m_PreInfinity: 2
      m_PostInfinity: 2
      m_RotationOrder: 4
    path: Model
  m_PositionCurves:
  - curve:
      serializedVersion: 2
      m_Curve:
      - time: 0
        value: {x: 0, y: 0, z: 0}
        inSlope: {x: 84, y: 9.959999, z: 0}
        outSlope: {x: 84, y: 9.959999, z: 0}
        tangentMode: 0
      - time: 0.083333336
        value: {x: 7, y: 0.83, z: 0}
        inSlope: {x: 36.75, y: 4.3574996, z: 0}
        outSlope: {x: 36.75, y: 4.3574996, z: 0}
        tangentMode: 0
      - time: 0.75
        value: {x: 0, y: 0, z: 0}
        inSlope: {x: -5.2647257, y: -1.2449999, z: 0}
        outSlope: {x: -5.2647257, y: -1.2449999, z: 0}
        tangentMode: 0
      - time: 1.1666666
        value: {x: -0.012271413, y: 0, z: 0}
        inSlope: {x: -0.014725696, y: 0, z: 0}
        outSlope: {x: -0.014725696, y: 0, z: 0}
        tangentMode: 0
      - time: 1.4166666
        value: {x: -0.012271413, y: 0, z: 0}
        inSlope: {x: -0.5767897, y: 0, z: 0}
        outSlope: {x: -0.5767897, y: 0, z: 0}
        tangentMode: 0
      - time: 1.6666666
        value: {x: -0.30066624, y: 0, z: 0}
        inSlope: {x: 0, y: 0, z: 0}
        outSlope: {x: 0, y: 0, z: 0}
        tangentMode: 0
      - time: 1.9166666
        value: {x: -0.012271413, y: 0, z: 0}
        inSlope: {x: 0.048702955, y: 0, z: 0}
        outSlope: {x: 0.048702955, y: 0, z: 0}
        tangentMode: 0
      - time: 2.1666667
        value: {x: -0.27631488, y: 0, z: 0}
        inSlope: {x: 0.00000023841858, y: 0, z: 0}
        outSlope: {x: 0.00000023841858, y: 0, z: 0}
        tangentMode: 0
      - time: 2.4166667
        value: {x: -0.012271413, y: 0, z: 0}
        inSlope: {x: 1.0561739, y: 0, z: 0}
        outSlope: {x: 1.0561739, y: 0, z: 0}
        tangentMode: 0
      m_PreInfinity: 2
      m_PostInfinity: 2
      m_RotationOrder: 4
    path: Model
  m_ScaleCurves: []
  m_FloatCurves: []
  m_PPtrCurves: []
  m_SampleRate: 12
  m_WrapMode: 0
  m_Bounds:
    m_Center: {x: 0, y: 0, z: 0}
    m_Extent: {x: 0, y: 0, z: 0}
  m_ClipBindingConstant:
    genericBindings:
    - path: 374627805
      attribute: 1
      script: {fileID: 0}
      classID: 4
      customType: 0
      isPPtrCurve: 0
    - path: 374627805
      attribute: 4
      script: {fileID: 0}
      classID: 4
      customType: 14
      isPPtrCurve: 0
    pptrCurveMapping: []
  m_AnimationClipSettings:
    serializedVersion: 2
    m_AdditiveReferencePoseClip: {fileID: 0}
    m_AdditiveReferencePoseTime: 0
    m_StartTime: 0
    m_StopTime: 2.4166667
    m_OrientationOffsetY: 0
    m_Level: 0
    m_CycleOffset: 0
    m_HasAdditiveReferencePose: 0
    m_LoopTime: 0
    m_LoopBlend: 0
    m_LoopBlendOrientation: 0
    m_LoopBlendPositionY: 0
    m_LoopBlendPositionXZ: 0
    m_KeepOriginalOrientation: 0
    m_KeepOriginalPositionY: 1
    m_KeepOriginalPositionXZ: 0
    m_HeightFromFeet: 0
    m_Mirror: 0
  m_EditorCurves:
  - curve:
      serializedVersion: 2
      m_Curve:
      - time: 0
        value: 0
        inSlope: 84
        outSlope: 84
        tangentMode: 10
      - time: 0.083333336
        value: 7
        inSlope: 36.75
        outSlope: 36.75
        tangentMode: 10
      - time: 0.75
        value: 0
        inSlope: -5.2647257
        outSlope: -5.2647257
        tangentMode: 10
      - time: 1.1666666
        value: -0.012271413
        inSlope: -0.014725696
        outSlope: -0.014725696
        tangentMode: 10
      - time: 1.4166666
        value: -0.012271413
        inSlope: -0.5767897
        outSlope: -0.5767897
        tangentMode: 10
      - time: 1.6666666
        value: -0.30066624
        inSlope: 0
        outSlope: 0
        tangentMode: 10
      - time: 1.9166666
        value: -0.012271413
        inSlope: 0.048702955
        outSlope: 0.048702955
        tangentMode: 10
      - time: 2.1666667
        value: -0.27631488
        inSlope: 0.00000023841858
        outSlope: 0.00000023841858
        tangentMode: 10
      - time: 2.4166667
        value: -0.012271413
        inSlope: 1.0561739
        outSlope: 1.0561739
        tangentMode: 10
      m_PreInfinity: 2
      m_PostInfinity: 2
      m_RotationOrder: 4
    attribute: m_LocalPosition.x
    path: Model
    classID: 4
    script: {fileID: 0}
  - curve:
      serializedVersion: 2
      m_Curve:
      - time: 0
        value: 0
        inSlope: 9.959999
        outSlope: 9.959999
        tangentMode: 10
      - time: 0.083333336
        value: 0.83
        inSlope: 4.3574996
        outSlope: 4.3574996
        tangentMode: 10
      - time: 0.75
        value: 0
        inSlope: -1.2449999
        outSlope: -1.2449999
        tangentMode: 10
      m_PreInfinity: 2
      m_PostInfinity: 2
      m_RotationOrder: 4
    attribute: m_LocalPosition.y
    path: Model
    classID: 4
    script: {fileID: 0}
  - curve:
      serializedVersion: 2
      m_Curve:
      - time: 0
        value: 0
        inSlope: 0
        outSlope: 0
        tangentMode: 10
      - time: 0.083333336
        value: 0
        inSlope: 0
        outSlope: 0
        tangentMode: 10
      - time: 0.75
        value: 0
        inSlope: 0
        outSlope: 0
        tangentMode: 10
      - time: 2.4166667
        value: 0
        inSlope: 0
        outSlope: 0
        tangentMode: 10
      m_PreInfinity: 2
      m_PostInfinity: 2
      m_RotationOrder: 4
    attribute: m_LocalPosition.z
    path: Model
    classID: 4
    script: {fileID: 0}
  - curve:
      serializedVersion: 2
      m_Curve:
      - time: 0
        value: 0
        inSlope: 373.54318
        outSlope: 373.54318
        tangentMode: 10
      - time: 0.083333336
        value: 31.1286
        inSlope: 163.42514
        outSlope: 163.42514
        tangentMode: 10
      - time: 0.75
        value: 0
        inSlope: -23.346449
        outSlope: -23.346449
        tangentMode: 10
      - time: 1.1666666
        value: 0
        inSlope: 0
        outSlope: 0
        tangentMode: 10
      - time: 1.4166666
        value: 0
        inSlope: 0
        outSlope: 0
        tangentMode: 10
      - time: 1.6666666
        value: 0
        inSlope: 0
        outSlope: 0
        tangentMode: 10
      - time: 1.9166666
        value: 0
        inSlope: 0
        outSlope: 0
        tangentMode: 10
      - time: 2.1666667
        value: 0
        inSlope: 0
        outSlope: 0
        tangentMode: 10
      - time: 2.4166667
        value: 0
        inSlope: 0
        outSlope: 0
        tangentMode: 10
      m_PreInfinity: 2
      m_PostInfinity: 2
      m_RotationOrder: 4
    attribute: localEulerAnglesRaw.x
    path: Model
    classID: 4
    script: {fileID: 0}
  - curve:
      serializedVersion: 2
      m_Curve:
      - time: 0
        value: 0
        inSlope: 0
        outSlope: 0
        tangentMode: 10
      - time: 0.083333336
        value: 0
        inSlope: 0
        outSlope: 0
        tangentMode: 10
      - time: 0.75
        value: 0
        inSlope: 0
        outSlope: 0
        tangentMode: 10
      - time: 1.1666666
        value: 0
        inSlope: 0
        outSlope: 0
        tangentMode: 10
      - time: 1.4166666
        value: 0
        inSlope: 0
        outSlope: 0
        tangentMode: 10
      - time: 1.6666666
        value: 0
        inSlope: 0
        outSlope: 0
        tangentMode: 10
      - time: 1.9166666
        value: 0
        inSlope: 0
        outSlope: 0
        tangentMode: 10
      - time: 2.1666667
        value: 0
        inSlope: 0
        outSlope: 0
        tangentMode: 10
      - time: 2.4166667
        value: 0
        inSlope: 0
        outSlope: 0
        tangentMode: 10
      m_PreInfinity: 2
      m_PostInfinity: 2
      m_RotationOrder: 4
    attribute: localEulerAnglesRaw.z
    path: Model
    classID: 4
    script: {fileID: 0}
  - curve:
      serializedVersion: 2
      m_Curve:
      - time: 0
        value: 90
        inSlope: 0
        outSlope: 0
        tangentMode: 10
      - time: 0.083333336
        value: 90
        inSlope: 0
        outSlope: 0
        tangentMode: 10
      - time: 0.75
        value: 90
        inSlope: 0
        outSlope: 0
        tangentMode: 10
      m_PreInfinity: 2
      m_PostInfinity: 2
      m_RotationOrder: 4
    attribute: localEulerAnglesRaw.y
    path: Model
    classID: 4
    script: {fileID: 0}
  m_EulerEditorCurves:
  - curve:
      serializedVersion: 2
      m_Curve: []
      m_PreInfinity: 2
      m_PostInfinity: 2
      m_RotationOrder: 4
    attribute: m_LocalEulerAngles.x
    path: Model
    classID: 4
    script: {fileID: 0}
  - curve:
      serializedVersion: 2
      m_Curve: []
      m_PreInfinity: 2
      m_PostInfinity: 2
      m_RotationOrder: 4
    attribute: m_LocalEulerAngles.y
    path: Model
    classID: 4
    script: {fileID: 0}
  - curve:
      serializedVersion: 2
      m_Curve: []
      m_PreInfinity: 2
      m_PostInfinity: 2
      m_RotationOrder: 4
    attribute: m_LocalEulerAngles.z
    path: Model
    classID: 4
    script: {fileID: 0}
  m_HasGenericRootTransform: 0
  m_HasMotionFloatCurves: 0
  m_GenerateMotionCurves: 0
  m_Events: []
