%YAML 1.1
%TAG !u! tag:unity3d.com,2011:
--- !u!74 &7400000
AnimationClip:
  m_ObjectHideFlags: 0
  m_PrefabParentObject: {fileID: 0}
  m_PrefabInternal: {fileID: 0}
  m_Name: struggle2
  serializedVersion: 6
  m_Legacy: 0
  m_Compressed: 0
  m_UseHighQualityCurve: 1
  m_RotationCurves: []
  m_CompressedRotationCurves: []
  m_EulerCurves:
  - curve:
      serializedVersion: 2
      m_Curve:
      - time: 0
        value: {x: 0, y: 90, z: 0}
        inSlope: {x: 0, y: 61.19998, z: 0}
        outSlope: {x: 0, y: 61.19998, z: 0}
        tangentMode: 0
      - time: 0.25
        value: {x: 0, y: 105.299995, z: 0}
        inSlope: {x: 0, y: 0, z: 0}
        outSlope: {x: 0, y: 0, z: 0}
        tangentMode: 0
      - time: 0.5
        value: {x: 0, y: 90, z: 0}
        inSlope: {x: 0, y: -94.799995, z: 0}
        outSlope: {x: 0, y: -94.799995, z: 0}
        tangentMode: 0
      - time: 0.75
        value: {x: 0, y: 57.899998, z: 0}
        inSlope: {x: 0, y: 0, z: 0}
        outSlope: {x: 0, y: 0, z: 0}
        tangentMode: 0
      - time: 1
        value: {x: 0, y: 90, z: 0}
        inSlope: {x: 0, y: 91.920006, z: 0}
        outSlope: {x: 0, y: 91.920006, z: 0}
        tangentMode: 0
      - time: 1.4166666
        value: {x: 0, y: 113.1, z: 0}
        inSlope: {x: 0, y: -18.479996, z: 0}
        outSlope: {x: 0, y: -18.479996, z: 0}
        tangentMode: 0
      - time: 1.6666666
        value: {x: 0, y: 90, z: 0}
        inSlope: {x: 0, y: -56.199997, z: 0}
        outSlope: {x: 0, y: -56.199997, z: 0}
        tangentMode: 0
      - time: 1.9166666
        value: {x: 0, y: 85, z: 0}
        inSlope: {x: 0, y: 9.99999, z: 0}
        outSlope: {x: 0, y: 9.99999, z: 0}
        tangentMode: 0
      - time: 2.1666665
        value: {x: 0, y: 95, z: 0}
        inSlope: {x: 0, y: 9.99999, z: 0}
        outSlope: {x: 0, y: 9.99999, z: 0}
        tangentMode: 0
      - time: 2.4166667
        value: {x: 0, y: 90, z: 0}
        inSlope: {x: 0, y: -20, z: 0}
        outSlope: {x: 0, y: -20, z: 0}
        tangentMode: 0
      m_PreInfinity: 2
      m_PostInfinity: 2
      m_RotationOrder: 4
    path: Model
  m_PositionCurves:
  - curve:
      serializedVersion: 2
      m_Curve:
      - time: 0
        value: {x: -0.012271413, y: 0, z: 0}
        inSlope: {x: -1.1535794, y: 0, z: 0}
        outSlope: {x: -1.1535794, y: 0, z: 0}
        tangentMode: 0
      - time: 0.25
        value: {x: -0.30066624, y: 0, z: 0}
        inSlope: {x: 0, y: 0, z: 0}
        outSlope: {x: 0, y: 0, z: 0}
        tangentMode: 0
      - time: 0.5
        value: {x: -0.012271413, y: 0, z: 0}
        inSlope: {x: 0.048702717, y: 0, z: 0}
        outSlope: {x: 0.048702717, y: 0, z: 0}
        tangentMode: 0
      - time: 0.75
        value: {x: -0.27631488, y: 0, z: 0}
        inSlope: {x: 0, y: 0, z: 0}
        outSlope: {x: 0, y: 0, z: 0}
        tangentMode: 0
      - time: 1
        value: {x: -0.012271413, y: 0, z: 0}
        inSlope: {x: 0.52808696, y: 0, z: 0}
        outSlope: {x: 0.52808696, y: 0, z: 0}
        tangentMode: 0
      - time: 1.4166666
        value: {x: -0.012271413, y: 0, z: 0}
        inSlope: {x: -0.5767897, y: 0, z: 0}
        outSlope: {x: -0.5767897, y: 0, z: 0}
        tangentMode: 0
      - time: 1.6666666
        value: {x: -0.30066624, y: 0, z: 0}
        inSlope: {x: 0, y: 0, z: 0}
        outSlope: {x: 0, y: 0, z: 0}
        tangentMode: 0
      - time: 1.9166666
        value: {x: -0.012271413, y: 0, z: 0}
        inSlope: {x: 0.04870248, y: 0, z: 0}
        outSlope: {x: 0.04870248, y: 0, z: 0}
        tangentMode: 0
      - time: 2.1666665
        value: {x: -0.27631488, y: 0, z: 0}
        inSlope: {x: -0.00000071525574, y: 0, z: 0}
        outSlope: {x: -0.00000071525574, y: 0, z: 0}
        tangentMode: 0
      - time: 2.4166667
        value: {x: -0.012271413, y: 0, z: 0}
        inSlope: {x: 1.056173, y: 0, z: 0}
        outSlope: {x: 1.056173, y: 0, z: 0}
        tangentMode: 0
      m_PreInfinity: 2
      m_PostInfinity: 2
      m_RotationOrder: 4
    path: Model
  m_ScaleCurves: []
  m_FloatCurves: []
  m_PPtrCurves: []
  m_SampleRate: 12
  m_WrapMode: 0
  m_Bounds:
    m_Center: {x: 0, y: 0, z: 0}
    m_Extent: {x: 0, y: 0, z: 0}
  m_ClipBindingConstant:
    genericBindings:
    - path: 374627805
      attribute: 1
      script: {fileID: 0}
      classID: 4
      customType: 0
      isPPtrCurve: 0
    - path: 374627805
      attribute: 4
      script: {fileID: 0}
      classID: 4
      customType: 14
      isPPtrCurve: 0
    pptrCurveMapping: []
  m_AnimationClipSettings:
    serializedVersion: 2
    m_AdditiveReferencePoseClip: {fileID: 0}
    m_AdditiveReferencePoseTime: 0
    m_StartTime: 0
    m_StopTime: 2.4166667
    m_OrientationOffsetY: 0
    m_Level: 0
    m_CycleOffset: 0
    m_HasAdditiveReferencePose: 0
    m_LoopTime: 0
    m_LoopBlend: 0
    m_LoopBlendOrientation: 0
    m_LoopBlendPositionY: 0
    m_LoopBlendPositionXZ: 0
    m_KeepOriginalOrientation: 0
    m_KeepOriginalPositionY: 1
    m_KeepOriginalPositionXZ: 0
    m_HeightFromFeet: 0
    m_Mirror: 0
  m_EditorCurves:
  - curve:
      serializedVersion: 2
      m_Curve:
      - time: 0
        value: -0.012271413
        inSlope: -1.1535794
        outSlope: -1.1535794
        tangentMode: 10
      - time: 0.25
        value: -0.30066624
        inSlope: 0
        outSlope: 0
        tangentMode: 10
      - time: 0.5
        value: -0.012271413
        inSlope: 0.048702717
        outSlope: 0.048702717
        tangentMode: 10
      - time: 0.75
        value: -0.27631488
        inSlope: 0
        outSlope: 0
        tangentMode: 10
      - time: 1
        value: -0.012271413
        inSlope: 0.52808696
        outSlope: 0.52808696
        tangentMode: 10
      - time: 1.4166666
        value: -0.012271413
        inSlope: -0.5767897
        outSlope: -0.5767897
        tangentMode: 10
      - time: 1.6666666
        value: -0.30066624
        inSlope: 0
        outSlope: 0
        tangentMode: 10
      - time: 1.9166666
        value: -0.012271413
        inSlope: 0.04870248
        outSlope: 0.04870248
        tangentMode: 10
      - time: 2.1666665
        value: -0.27631488
        inSlope: -0.00000071525574
        outSlope: -0.00000071525574
        tangentMode: 10
      - time: 2.4166667
        value: -0.012271413
        inSlope: 1.056173
        outSlope: 1.056173
        tangentMode: 10
      m_PreInfinity: 2
      m_PostInfinity: 2
      m_RotationOrder: 4
    attribute: m_LocalPosition.x
    path: Model
    classID: 4
    script: {fileID: 0}
  - curve:
      serializedVersion: 2
      m_Curve:
      - time: 0
        value: 0
        inSlope: 0
        outSlope: 0
        tangentMode: 10
      - time: 0.25
        value: 0
        inSlope: 0
        outSlope: 0
        tangentMode: 10
      - time: 0.5
        value: 0
        inSlope: 0
        outSlope: 0
        tangentMode: 10
      - time: 0.75
        value: 0
        inSlope: 0
        outSlope: 0
        tangentMode: 10
      - time: 1
        value: 0
        inSlope: 0
        outSlope: 0
        tangentMode: 10
      - time: 1.4166666
        value: 0
        inSlope: 0
        outSlope: 0
        tangentMode: 10
      - time: 1.6666666
        value: 0
        inSlope: 0
        outSlope: 0
        tangentMode: 10
      - time: 1.9166666
        value: 0
        inSlope: 0
        outSlope: 0
        tangentMode: 10
      - time: 2.1666665
        value: 0
        inSlope: 0
        outSlope: 0
        tangentMode: 10
      - time: 2.4166667
        value: 0
        inSlope: 0
        outSlope: 0
        tangentMode: 10
      m_PreInfinity: 2
      m_PostInfinity: 2
      m_RotationOrder: 4
    attribute: localEulerAnglesRaw.x
    path: Model
    classID: 4
    script: {fileID: 0}
  - curve:
      serializedVersion: 2
      m_Curve:
      - time: 0
        value: 0
        inSlope: 0
        outSlope: 0
        tangentMode: 10
      - time: 0.25
        value: 0
        inSlope: 0
        outSlope: 0
        tangentMode: 10
      - time: 0.5
        value: 0
        inSlope: 0
        outSlope: 0
        tangentMode: 10
      - time: 0.75
        value: 0
        inSlope: 0
        outSlope: 0
        tangentMode: 10
      - time: 1
        value: 0
        inSlope: 0
        outSlope: 0
        tangentMode: 10
      - time: 1.4166666
        value: 0
        inSlope: 0
        outSlope: 0
        tangentMode: 10
      - time: 1.6666666
        value: 0
        inSlope: 0
        outSlope: 0
        tangentMode: 10
      - time: 1.9166666
        value: 0
        inSlope: 0
        outSlope: 0
        tangentMode: 10
      - time: 2.1666665
        value: 0
        inSlope: 0
        outSlope: 0
        tangentMode: 10
      - time: 2.4166667
        value: 0
        inSlope: 0
        outSlope: 0
        tangentMode: 10
      m_PreInfinity: 2
      m_PostInfinity: 2
      m_RotationOrder: 4
    attribute: localEulerAnglesRaw.z
    path: Model
    classID: 4
    script: {fileID: 0}
  - curve:
      serializedVersion: 2
      m_Curve:
      - time: 0
        value: 90
        inSlope: 61.19998
        outSlope: 61.19998
        tangentMode: 10
      - time: 0.25
        value: 105.299995
        inSlope: 0
        outSlope: 0
        tangentMode: 10
      - time: 0.5
        value: 90
        inSlope: -94.799995
        outSlope: -94.799995
        tangentMode: 10
      - time: 0.75
        value: 57.899998
        inSlope: 0
        outSlope: 0
        tangentMode: 10
      - time: 1
        value: 90
        inSlope: 91.920006
        outSlope: 91.920006
        tangentMode: 10
      - time: 1.4166666
        value: 113.1
        inSlope: -18.479996
        outSlope: -18.479996
        tangentMode: 10
      - time: 1.6666666
        value: 90
        inSlope: -56.199997
        outSlope: -56.199997
        tangentMode: 10
      - time: 1.9166666
        value: 85
        inSlope: 9.99999
        outSlope: 9.99999
        tangentMode: 10
      - time: 2.1666667
        value: 95
        inSlope: 9.99999
        outSlope: 9.99999
        tangentMode: 10
      - time: 2.4166667
        value: 90
        inSlope: -20
        outSlope: -20
        tangentMode: 10
      m_PreInfinity: 2
      m_PostInfinity: 2
      m_RotationOrder: 4
    attribute: localEulerAnglesRaw.y
    path: Model
    classID: 4
    script: {fileID: 0}
  m_EulerEditorCurves:
  - curve:
      serializedVersion: 2
      m_Curve: []
      m_PreInfinity: 2
      m_PostInfinity: 2
      m_RotationOrder: 4
    attribute: m_LocalEulerAngles.x
    path: Model
    classID: 4
    script: {fileID: 0}
  - curve:
      serializedVersion: 2
      m_Curve: []
      m_PreInfinity: 2
      m_PostInfinity: 2
      m_RotationOrder: 4
    attribute: m_LocalEulerAngles.y
    path: Model
    classID: 4
    script: {fileID: 0}
  - curve:
      serializedVersion: 2
      m_Curve: []
      m_PreInfinity: 2
      m_PostInfinity: 2
      m_RotationOrder: 4
    attribute: m_LocalEulerAngles.z
    path: Model
    classID: 4
    script: {fileID: 0}
  m_HasGenericRootTransform: 0
  m_HasMotionFloatCurves: 0
  m_GenerateMotionCurves: 0
  m_Events: []
