%YAML 1.1
%TAG !u! tag:unity3d.com,2011:
--- !u!74 &7400000
AnimationClip:
  m_ObjectHideFlags: 0
  m_PrefabParentObject: {fileID: 0}
  m_PrefabInternal: {fileID: 0}
  m_Name: struggle3
  serializedVersion: 6
  m_Legacy: 0
  m_Compressed: 0
  m_UseHighQualityCurve: 1
  m_RotationCurves: []
  m_CompressedRotationCurves: []
  m_EulerCurves:
  - curve:
      serializedVersion: 2
      m_Curve:
      - time: 0
        value: {x: 0, y: 0.6989, z: 0}
        inSlope: {x: 0, y: 0, z: 0}
        outSlope: {x: 0, y: 0, z: 0}
        tangentMode: 0
      - time: 0.16666667
        value: {x: 0, y: 0.6989, z: 0}
        inSlope: {x: -41.340897, y: 60.2925, z: -27.3435}
        outSlope: {x: -41.340897, y: 60.2925, z: -27.3435}
        tangentMode: 0
      - time: 0.33333334
        value: {x: -13.780299, y: 20.7964, z: -9.1145}
        inSlope: {x: 0.0000038146973, y: -0.0000038146973, z: 0.0000019073486}
        outSlope: {x: 0.0000038146973, y: -0.0000038146973, z: 0.0000019073486}
        tangentMode: 0
      - time: 0.5
        value: {x: 0, y: 0.6989, z: 0}
        inSlope: {x: 41.3409, y: -60.292503, z: 27.343502}
        outSlope: {x: 41.3409, y: -60.292503, z: 27.343502}
        tangentMode: 0
      - time: 0.6666666
        value: {x: 0, y: 0.6989, z: 0}
        inSlope: {x: 0, y: 6.7400002, z: 0}
        outSlope: {x: 0, y: 6.7400002, z: 0}
        tangentMode: 0
      - time: 0.9166666
        value: {x: 0, y: 4.0689, z: 0}
        inSlope: {x: 0, y: 0, z: 0}
        outSlope: {x: 0, y: 0, z: 0}
        tangentMode: 0
      - time: 1.1666666
        value: {x: 0, y: 0.6989, z: 0}
        inSlope: {x: 0, y: -6.7400002, z: 0}
        outSlope: {x: 0, y: -6.7400002, z: 0}
        tangentMode: 0
      - time: 1.4166666
        value: {x: 0, y: 0.6989, z: 0}
        inSlope: {x: 0, y: 6.7400002, z: 0}
        outSlope: {x: 0, y: 6.7400002, z: 0}
        tangentMode: 0
      - time: 1.6666666
        value: {x: 0, y: 4.0689, z: 0}
        inSlope: {x: 0, y: 0, z: 0}
        outSlope: {x: 0, y: 0, z: 0}
        tangentMode: 0
      - time: 1.9166666
        value: {x: 0, y: 0.6989, z: 0}
        inSlope: {x: 0, y: -12.4274025, z: 0}
        outSlope: {x: 0, y: -12.4274025, z: 0}
        tangentMode: 0
      - time: 2.1666665
        value: {x: 0, y: -2.1448, z: 0}
        inSlope: {x: 0, y: -0.000008106232, z: 0}
        outSlope: {x: 0, y: -0.000008106232, z: 0}
        tangentMode: 0
      - time: 2.4166667
        value: {x: 0, y: 0.6989, z: 0}
        inSlope: {x: 0, y: 11.374789, z: 0}
        outSlope: {x: 0, y: 11.374789, z: 0}
        tangentMode: 0
      m_PreInfinity: 2
      m_PostInfinity: 2
      m_RotationOrder: 4
    path: default
  m_PositionCurves:
  - curve:
      serializedVersion: 2
      m_Curve:
      - time: 0
        value: {x: -0.012271413, y: 0, z: 0}
        inSlope: {x: 0, y: 0, z: 0}
        outSlope: {x: 0, y: 0, z: 0}
        tangentMode: 0
      - time: 0.16666667
        value: {x: -0.012271413, y: 0, z: 0}
        inSlope: {x: -1.8695884, y: 0, z: 0}
        outSlope: {x: -1.8695884, y: 0, z: 0}
        tangentMode: 0
      - time: 0.33333334
        value: {x: -0.6354675, y: 0, z: 0}
        inSlope: {x: 0.00000011920929, y: 0, z: 0}
        outSlope: {x: 0.00000011920929, y: 0, z: 0}
        tangentMode: 0
      - time: 0.5
        value: {x: -0.012271413, y: 0, z: 0}
        inSlope: {x: 1.8695885, y: 0, z: 0}
        outSlope: {x: 1.8695885, y: 0, z: 0}
        tangentMode: 0
      - time: 0.6666666
        value: {x: -0.012271413, y: 0, z: 0}
        inSlope: {x: -0.5767897, y: 0, z: 0}
        outSlope: {x: -0.5767897, y: 0, z: 0}
        tangentMode: 0
      - time: 0.9166666
        value: {x: -0.30066624, y: 0, z: 0}
        inSlope: {x: 0, y: 0, z: 0}
        outSlope: {x: 0, y: 0, z: 0}
        tangentMode: 0
      - time: 1.1666666
        value: {x: -0.012271413, y: 0, z: 0}
        inSlope: {x: 0.5767897, y: 0, z: 0}
        outSlope: {x: 0.5767897, y: 0, z: 0}
        tangentMode: 0
      - time: 1.4166666
        value: {x: -0.012271413, y: 0, z: 0}
        inSlope: {x: -0.5767897, y: 0, z: 0}
        outSlope: {x: -0.5767897, y: 0, z: 0}
        tangentMode: 0
      - time: 1.6666666
        value: {x: -0.30066624, y: 0, z: 0}
        inSlope: {x: 0, y: 0, z: 0}
        outSlope: {x: 0, y: 0, z: 0}
        tangentMode: 0
      - time: 1.9166666
        value: {x: -0.012271413, y: 0, z: 0}
        inSlope: {x: 0.04870248, y: 0, z: 0}
        outSlope: {x: 0.04870248, y: 0, z: 0}
        tangentMode: 0
      - time: 2.1666665
        value: {x: -0.27631488, y: 0, z: 0}
        inSlope: {x: -0.00000071525574, y: 0, z: 0}
        outSlope: {x: -0.00000071525574, y: 0, z: 0}
        tangentMode: 0
      - time: 2.4166667
        value: {x: -0.012271413, y: 0, z: 0}
        inSlope: {x: 1.056173, y: 0, z: 0}
        outSlope: {x: 1.056173, y: 0, z: 0}
        tangentMode: 0
      m_PreInfinity: 2
      m_PostInfinity: 2
      m_RotationOrder: 4
    path: default
  m_ScaleCurves: []
  m_FloatCurves: []
  m_PPtrCurves: []
  m_SampleRate: 12
  m_WrapMode: 0
  m_Bounds:
    m_Center: {x: 0, y: 0, z: 0}
    m_Extent: {x: 0, y: 0, z: 0}
  m_ClipBindingConstant:
    genericBindings:
    - path: 3814588639
      attribute: 1
      script: {fileID: 0}
      classID: 4
      customType: 0
      isPPtrCurve: 0
    - path: 3814588639
      attribute: 4
      script: {fileID: 0}
      classID: 4
      customType: 14
      isPPtrCurve: 0
    pptrCurveMapping: []
  m_AnimationClipSettings:
    serializedVersion: 2
    m_AdditiveReferencePoseClip: {fileID: 0}
    m_AdditiveReferencePoseTime: 0
    m_StartTime: 0
    m_StopTime: 2.4166667
    m_OrientationOffsetY: 0
    m_Level: 0
    m_CycleOffset: 0
    m_HasAdditiveReferencePose: 0
    m_LoopTime: 0
    m_LoopBlend: 0
    m_LoopBlendOrientation: 0
    m_LoopBlendPositionY: 0
    m_LoopBlendPositionXZ: 0
    m_KeepOriginalOrientation: 0
    m_KeepOriginalPositionY: 1
    m_KeepOriginalPositionXZ: 0
    m_HeightFromFeet: 0
    m_Mirror: 0
  m_EditorCurves:
  - curve:
      serializedVersion: 2
      m_Curve:
      - time: 0
        value: 0
        inSlope: 0
        outSlope: 0
        tangentMode: 10
      - time: 0.16666667
        value: 0
        inSlope: -41.340897
        outSlope: -41.340897
        tangentMode: 10
      - time: 0.33333334
        value: -13.780299
        inSlope: 0.0000038146973
        outSlope: 0.0000038146973
        tangentMode: 10
      - time: 0.5
        value: 0
        inSlope: 41.3409
        outSlope: 41.3409
        tangentMode: 10
      - time: 0.6666666
        value: 0
        inSlope: 0
        outSlope: 0
        tangentMode: 10
      - time: 0.9166666
        value: 0
        inSlope: 0
        outSlope: 0
        tangentMode: 10
      - time: 1.1666666
        value: 0
        inSlope: 0
        outSlope: 0
        tangentMode: 10
      - time: 1.4166666
        value: 0
        inSlope: 0
        outSlope: 0
        tangentMode: 10
      - time: 1.6666666
        value: 0
        inSlope: 0
        outSlope: 0
        tangentMode: 10
      - time: 1.9166666
        value: 0
        inSlope: 0
        outSlope: 0
        tangentMode: 10
      - time: 2.1666665
        value: 0
        inSlope: 0
        outSlope: 0
        tangentMode: 10
      - time: 2.4166667
        value: 0
        inSlope: 0
        outSlope: 0
        tangentMode: 10
      m_PreInfinity: 2
      m_PostInfinity: 2
      m_RotationOrder: 4
    attribute: localEulerAnglesRaw.x
    path: default
    classID: 4
    script: {fileID: 0}
  - curve:
      serializedVersion: 2
      m_Curve:
      - time: 0
        value: 0.6989
        inSlope: 0
        outSlope: 0
        tangentMode: 10
      - time: 0.16666667
        value: 0.6989
        inSlope: 60.2925
        outSlope: 60.2925
        tangentMode: 10
      - time: 0.33333334
        value: 20.7964
        inSlope: -0.0000038146973
        outSlope: -0.0000038146973
        tangentMode: 10
      - time: 0.5
        value: 0.6989
        inSlope: -60.292503
        outSlope: -60.292503
        tangentMode: 10
      - time: 0.6666666
        value: 0.6989
        inSlope: 6.7400002
        outSlope: 6.7400002
        tangentMode: 10
      - time: 0.9166666
        value: 4.0689
        inSlope: 0
        outSlope: 0
        tangentMode: 10
      - time: 1.1666666
        value: 0.6989
        inSlope: -6.7400002
        outSlope: -6.7400002
        tangentMode: 10
      - time: 1.4166666
        value: 0.6989
        inSlope: 6.7400002
        outSlope: 6.7400002
        tangentMode: 10
      - time: 1.6666666
        value: 4.0689
        inSlope: 0
        outSlope: 0
        tangentMode: 10
      - time: 1.9166666
        value: 0.6989
        inSlope: -12.4274025
        outSlope: -12.4274025
        tangentMode: 10
      - time: 2.1666665
        value: -2.1448
        inSlope: -0.000008106232
        outSlope: -0.000008106232
        tangentMode: 10
      - time: 2.4166667
        value: 0.6989
        inSlope: 11.374789
        outSlope: 11.374789
        tangentMode: 10
      m_PreInfinity: 2
      m_PostInfinity: 2
      m_RotationOrder: 4
    attribute: localEulerAnglesRaw.y
    path: default
    classID: 4
    script: {fileID: 0}
  - curve:
      serializedVersion: 2
      m_Curve:
      - time: 0
        value: 0
        inSlope: 0
        outSlope: 0
        tangentMode: 10
      - time: 0.16666667
        value: 0
        inSlope: -27.3435
        outSlope: -27.3435
        tangentMode: 10
      - time: 0.33333334
        value: -9.1145
        inSlope: 0.0000019073486
        outSlope: 0.0000019073486
        tangentMode: 10
      - time: 0.5
        value: 0
        inSlope: 27.343502
        outSlope: 27.343502
        tangentMode: 10
      - time: 0.6666666
        value: 0
        inSlope: 0
        outSlope: 0
        tangentMode: 10
      - time: 0.9166666
        value: 0
        inSlope: 0
        outSlope: 0
        tangentMode: 10
      - time: 1.1666666
        value: 0
        inSlope: 0
        outSlope: 0
        tangentMode: 10
      - time: 1.4166666
        value: 0
        inSlope: 0
        outSlope: 0
        tangentMode: 10
      - time: 1.6666666
        value: 0
        inSlope: 0
        outSlope: 0
        tangentMode: 10
      - time: 1.9166666
        value: 0
        inSlope: 0
        outSlope: 0
        tangentMode: 10
      - time: 2.1666665
        value: 0
        inSlope: 0
        outSlope: 0
        tangentMode: 10
      - time: 2.4166667
        value: 0
        inSlope: 0
        outSlope: 0
        tangentMode: 10
      m_PreInfinity: 2
      m_PostInfinity: 2
      m_RotationOrder: 4
    attribute: localEulerAnglesRaw.z
    path: default
    classID: 4
    script: {fileID: 0}
  - curve:
      serializedVersion: 2
      m_Curve:
      - time: 0
        value: -0.012271413
        inSlope: 0
        outSlope: 0
        tangentMode: 10
      - time: 0.16666667
        value: -0.012271413
        inSlope: -1.8695884
        outSlope: -1.8695884
        tangentMode: 10
      - time: 0.33333334
        value: -0.6354675
        inSlope: 0.00000011920929
        outSlope: 0.00000011920929
        tangentMode: 10
      - time: 0.5
        value: -0.012271413
        inSlope: 1.8695885
        outSlope: 1.8695885
        tangentMode: 10
      - time: 0.6666666
        value: -0.012271413
        inSlope: -0.5767897
        outSlope: -0.5767897
        tangentMode: 10
      - time: 0.9166666
        value: -0.30066624
        inSlope: 0
        outSlope: 0
        tangentMode: 10
      - time: 1.1666666
        value: -0.012271413
        inSlope: 0.5767897
        outSlope: 0.5767897
        tangentMode: 10
      - time: 1.4166666
        value: -0.012271413
        inSlope: -0.5767897
        outSlope: -0.5767897
        tangentMode: 10
      - time: 1.6666666
        value: -0.30066624
        inSlope: 0
        outSlope: 0
        tangentMode: 10
      - time: 1.9166666
        value: -0.012271413
        inSlope: 0.04870248
        outSlope: 0.04870248
        tangentMode: 10
      - time: 2.1666665
        value: -0.27631488
        inSlope: -0.00000071525574
        outSlope: -0.00000071525574
        tangentMode: 10
      - time: 2.4166667
        value: -0.012271413
        inSlope: 1.056173
        outSlope: 1.056173
        tangentMode: 10
      m_PreInfinity: 2
      m_PostInfinity: 2
      m_RotationOrder: 4
    attribute: m_LocalPosition.x
    path: default
    classID: 4
    script: {fileID: 0}
  - curve:
      serializedVersion: 2
      m_Curve:
      - time: 0
        value: 0
        inSlope: 0
        outSlope: 0
        tangentMode: 10
      - time: 0.33333334
        value: 0
        inSlope: 0
        outSlope: 0
        tangentMode: 10
      - time: 2.4166667
        value: 0
        inSlope: 0
        outSlope: 0
        tangentMode: 10
      m_PreInfinity: 2
      m_PostInfinity: 2
      m_RotationOrder: 4
    attribute: m_LocalPosition.z
    path: default
    classID: 4
    script: {fileID: 0}
  m_EulerEditorCurves:
  - curve:
      serializedVersion: 2
      m_Curve: []
      m_PreInfinity: 2
      m_PostInfinity: 2
      m_RotationOrder: 4
    attribute: m_LocalEulerAngles.x
    path: default
    classID: 4
    script: {fileID: 0}
  - curve:
      serializedVersion: 2
      m_Curve: []
      m_PreInfinity: 2
      m_PostInfinity: 2
      m_RotationOrder: 4
    attribute: m_LocalEulerAngles.y
    path: default
    classID: 4
    script: {fileID: 0}
  - curve:
      serializedVersion: 2
      m_Curve: []
      m_PreInfinity: 2
      m_PostInfinity: 2
      m_RotationOrder: 4
    attribute: m_LocalEulerAngles.z
    path: default
    classID: 4
    script: {fileID: 0}
  m_HasGenericRootTransform: 0
  m_HasMotionFloatCurves: 0
  m_GenerateMotionCurves: 0
  m_Events: []
