%YAML 1.1
%TAG !u! tag:unity3d.com,2011:
--- !u!74 &7400000
AnimationClip:
  m_ObjectHideFlags: 0
  m_PrefabParentObject: {fileID: 0}
  m_PrefabInternal: {fileID: 0}
  m_Name: struggle4
  serializedVersion: 6
  m_Legacy: 0
  m_Compressed: 0
  m_UseHighQualityCurve: 1
  m_RotationCurves: []
  m_CompressedRotationCurves: []
  m_EulerCurves:
  - curve:
      serializedVersion: 2
      m_Curve:
      - time: 0
        value: {x: 0, y: 0.7636, z: 0.3075}
        inSlope: {x: 142.50238, y: 0, z: 0}
        outSlope: {x: 142.50238, y: 0, z: 0}
        tangentMode: 0
      - time: 0.16666667
        value: {x: 23.750399, y: 0.7636, z: 0.3075}
        inSlope: {x: 35.62559, y: -0.064700015, z: -0.30750003}
        outSlope: {x: 35.62559, y: -0.064700015, z: -0.30750003}
        tangentMode: 0
      - time: 0.5
        value: {x: 0, y: 0.739637, z: 0.1936111}
        inSlope: {x: -35.6256, y: -0.07548339, z: -0.35875002}
        outSlope: {x: -35.6256, y: -0.07548339, z: -0.35875002}
        tangentMode: 0
      - time: 1.1666666
        value: {x: 0, y: 0.6989, z: 0}
        inSlope: {x: 0, y: -0.032350007, z: -0.15375002}
        outSlope: {x: 0, y: -0.032350007, z: -0.15375002}
        tangentMode: 0
      - time: 1.4166666
        value: {x: 0, y: 0.6989, z: 0}
        inSlope: {x: 0, y: 6.7400002, z: 0}
        outSlope: {x: 0, y: 6.7400002, z: 0}
        tangentMode: 0
      - time: 1.6666666
        value: {x: 0, y: 4.0689, z: 0}
        inSlope: {x: 0, y: 0, z: 0}
        outSlope: {x: 0, y: 0, z: 0}
        tangentMode: 0
      - time: 1.9166666
        value: {x: 0, y: 0.6989, z: 0}
        inSlope: {x: 0, y: -12.427397, z: 0}
        outSlope: {x: 0, y: -12.427397, z: 0}
        tangentMode: 0
      - time: 2.1666667
        value: {x: 0, y: -2.1448, z: 0}
        inSlope: {x: 0, y: 0.000002861023, z: 0}
        outSlope: {x: 0, y: 0.000002861023, z: 0}
        tangentMode: 0
      - time: 2.4166667
        value: {x: 0, y: 0.6989, z: 0}
        inSlope: {x: 0, y: 11.3748, z: 0}
        outSlope: {x: 0, y: 11.3748, z: 0}
        tangentMode: 0
      m_PreInfinity: 2
      m_PostInfinity: 2
      m_RotationOrder: 4
    path: default
  m_PositionCurves:
  - curve:
      serializedVersion: 2
      m_Curve:
      - time: 0
        value: {x: 0, y: 0, z: 0}
        inSlope: {x: 0, y: 18.179998, z: 60}
        outSlope: {x: 0, y: 18.179998, z: 60}
        tangentMode: 0
      - time: 0.16666667
        value: {x: 0, y: 3.03, z: 10}
        inSlope: {x: 0, y: 4.544999, z: 14.999999}
        outSlope: {x: 0, y: 4.544999, z: 14.999999}
        tangentMode: 0
      - time: 0.5
        value: {x: 0, y: 0, z: 0}
        inSlope: {x: -0.00920356, y: -9.09, z: -15.000001}
        outSlope: {x: -0.00920356, y: -9.09, z: -15.000001}
        tangentMode: 0
      - time: 1.1666666
        value: {x: -0.012271413, y: 0, z: -4.253309}
        inSlope: {x: -0.00920356, y: 0, z: 0.42533043}
        outSlope: {x: -0.00920356, y: 0, z: 0.42533043}
        tangentMode: 0
      - time: 1.4166666
        value: {x: -0.012271413, y: 0, z: -3.742912}
        inSlope: {x: -0.5767897, y: 0, z: 3.402647}
        outSlope: {x: -0.5767897, y: 0, z: 3.402647}
        tangentMode: 0
      - time: 1.6666666
        value: {x: -0.30066624, y: 0, z: -2.6795852}
        inSlope: {x: 0, y: 0, z: 4.848771}
        outSlope: {x: 0, y: 0, z: 4.848771}
        tangentMode: 0
      - time: 1.9166666
        value: {x: -0.012271413, y: 0, z: -1.4461253}
        inSlope: {x: 0.048702955, y: 0, z: 4.7637076}
        outSlope: {x: 0.048702955, y: 0, z: 4.7637076}
        tangentMode: 0
      - time: 2.1666667
        value: {x: -0.27631488, y: 0, z: -0.42532903}
        inSlope: {x: 0.00000023841858, y: 0, z: 3.1474473}
        outSlope: {x: 0.00000023841858, y: 0, z: 3.1474473}
        tangentMode: 0
      - time: 2.4166667
        value: {x: -0.012271413, y: 0, z: 0}
        inSlope: {x: 1.0561739, y: 0, z: 0}
        outSlope: {x: 1.0561739, y: 0, z: 0}
        tangentMode: 0
      m_PreInfinity: 2
      m_PostInfinity: 2
      m_RotationOrder: 4
    path: default
  m_ScaleCurves: []
  m_FloatCurves: []
  m_PPtrCurves: []
  m_SampleRate: 12
  m_WrapMode: 0
  m_Bounds:
    m_Center: {x: 0, y: 0, z: 0}
    m_Extent: {x: 0, y: 0, z: 0}
  m_ClipBindingConstant:
    genericBindings:
    - path: 3814588639
      attribute: 1
      script: {fileID: 0}
      classID: 4
      customType: 0
      isPPtrCurve: 0
    - path: 3814588639
      attribute: 4
      script: {fileID: 0}
      classID: 4
      customType: 14
      isPPtrCurve: 0
    pptrCurveMapping: []
  m_AnimationClipSettings:
    serializedVersion: 2
    m_AdditiveReferencePoseClip: {fileID: 0}
    m_AdditiveReferencePoseTime: 0
    m_StartTime: 0
    m_StopTime: 2.4166667
    m_OrientationOffsetY: 0
    m_Level: 0
    m_CycleOffset: 0
    m_HasAdditiveReferencePose: 0
    m_LoopTime: 0
    m_LoopBlend: 0
    m_LoopBlendOrientation: 0
    m_LoopBlendPositionY: 0
    m_LoopBlendPositionXZ: 0
    m_KeepOriginalOrientation: 0
    m_KeepOriginalPositionY: 1
    m_KeepOriginalPositionXZ: 0
    m_HeightFromFeet: 0
    m_Mirror: 0
  m_EditorCurves:
  - curve:
      serializedVersion: 2
      m_Curve:
      - time: 0
        value: 0
        inSlope: 0
        outSlope: 0
        tangentMode: 10
      - time: 0.16666667
        value: 0
        inSlope: 0
        outSlope: 0
        tangentMode: 10
      - time: 0.5
        value: 0
        inSlope: -0.00920356
        outSlope: -0.00920356
        tangentMode: 10
      - time: 1.1666666
        value: -0.012271413
        inSlope: -0.00920356
        outSlope: -0.00920356
        tangentMode: 10
      - time: 1.4166666
        value: -0.012271413
        inSlope: -0.5767897
        outSlope: -0.5767897
        tangentMode: 10
      - time: 1.6666666
        value: -0.30066624
        inSlope: 0
        outSlope: 0
        tangentMode: 10
      - time: 1.9166666
        value: -0.012271413
        inSlope: 0.048702955
        outSlope: 0.048702955
        tangentMode: 10
      - time: 2.1666667
        value: -0.27631488
        inSlope: 0.00000023841858
        outSlope: 0.00000023841858
        tangentMode: 10
      - time: 2.4166667
        value: -0.012271413
        inSlope: 1.0561739
        outSlope: 1.0561739
        tangentMode: 10
      m_PreInfinity: 2
      m_PostInfinity: 2
      m_RotationOrder: 4
    attribute: m_LocalPosition.x
    path: default
    classID: 4
    script: {fileID: 0}
  - curve:
      serializedVersion: 2
      m_Curve:
      - time: 0
        value: 0
        inSlope: 18.179998
        outSlope: 18.179998
        tangentMode: 10
      - time: 0.16666667
        value: 3.03
        inSlope: 4.544999
        outSlope: 4.544999
        tangentMode: 10
      - time: 0.5
        value: 0
        inSlope: -9.09
        outSlope: -9.09
        tangentMode: 10
      m_PreInfinity: 2
      m_PostInfinity: 2
      m_RotationOrder: 4
    attribute: m_LocalPosition.y
    path: default
    classID: 4
    script: {fileID: 0}
  - curve:
      serializedVersion: 2
      m_Curve:
      - time: 0
        value: 0
        inSlope: 60
        outSlope: 60
        tangentMode: 10
      - time: 0.16666667
        value: 10
        inSlope: 14.999999
        outSlope: 14.999999
        tangentMode: 10
      - time: 0.5
        value: 0
        inSlope: -15.000001
        outSlope: -15.000001
        tangentMode: 10
      - time: 2.4166667
        value: 0
        inSlope: 0
        outSlope: 0
        tangentMode: 10
      m_PreInfinity: 2
      m_PostInfinity: 2
      m_RotationOrder: 4
    attribute: m_LocalPosition.z
    path: default
    classID: 4
    script: {fileID: 0}
  - curve:
      serializedVersion: 2
      m_Curve:
      - time: 0
        value: 0
        inSlope: 142.50238
        outSlope: 142.50238
        tangentMode: 10
      - time: 0.16666667
        value: 23.750399
        inSlope: 35.62559
        outSlope: 35.62559
        tangentMode: 10
      - time: 0.5
        value: 0
        inSlope: -35.6256
        outSlope: -35.6256
        tangentMode: 10
      - time: 1.1666666
        value: 0
        inSlope: 0
        outSlope: 0
        tangentMode: 10
      - time: 1.4166666
        value: 0
        inSlope: 0
        outSlope: 0
        tangentMode: 10
      - time: 1.6666666
        value: 0
        inSlope: 0
        outSlope: 0
        tangentMode: 10
      - time: 1.9166666
        value: 0
        inSlope: 0
        outSlope: 0
        tangentMode: 10
      - time: 2.1666667
        value: 0
        inSlope: 0
        outSlope: 0
        tangentMode: 10
      - time: 2.4166667
        value: 0
        inSlope: 0
        outSlope: 0
        tangentMode: 10
      m_PreInfinity: 2
      m_PostInfinity: 2
      m_RotationOrder: 4
    attribute: localEulerAnglesRaw.x
    path: default
    classID: 4
    script: {fileID: 0}
  - curve:
      serializedVersion: 2
      m_Curve:
      - time: 0.16666667
        value: 0.7636
        inSlope: -0.064700015
        outSlope: -0.064700015
        tangentMode: 10
      - time: 1.1666666
        value: 0.6989
        inSlope: -0.032350007
        outSlope: -0.032350007
        tangentMode: 10
      - time: 1.4166666
        value: 0.6989
        inSlope: 6.7400002
        outSlope: 6.7400002
        tangentMode: 10
      - time: 1.6666666
        value: 4.0689
        inSlope: 0
        outSlope: 0
        tangentMode: 10
      - time: 1.9166666
        value: 0.6989
        inSlope: -12.427397
        outSlope: -12.427397
        tangentMode: 10
      - time: 2.1666667
        value: -2.1448
        inSlope: 0.000002861023
        outSlope: 0.000002861023
        tangentMode: 10
      - time: 2.4166667
        value: 0.6989
        inSlope: 11.3748
        outSlope: 11.3748
        tangentMode: 10
      m_PreInfinity: 2
      m_PostInfinity: 2
      m_RotationOrder: 4
    attribute: localEulerAnglesRaw.y
    path: default
    classID: 4
    script: {fileID: 0}
  - curve:
      serializedVersion: 2
      m_Curve:
      - time: 0.16666667
        value: 0.3075
        inSlope: -0.30750003
        outSlope: -0.30750003
        tangentMode: 10
      - time: 1.1666666
        value: 0
        inSlope: -0.15375002
        outSlope: -0.15375002
        tangentMode: 10
      - time: 1.4166666
        value: 0
        inSlope: 0
        outSlope: 0
        tangentMode: 10
      - time: 1.6666666
        value: 0
        inSlope: 0
        outSlope: 0
        tangentMode: 10
      - time: 1.9166666
        value: 0
        inSlope: 0
        outSlope: 0
        tangentMode: 10
      - time: 2.1666667
        value: 0
        inSlope: 0
        outSlope: 0
        tangentMode: 10
      - time: 2.4166667
        value: 0
        inSlope: 0
        outSlope: 0
        tangentMode: 10
      m_PreInfinity: 2
      m_PostInfinity: 2
      m_RotationOrder: 4
    attribute: localEulerAnglesRaw.z
    path: default
    classID: 4
    script: {fileID: 0}
  m_EulerEditorCurves:
  - curve:
      serializedVersion: 2
      m_Curve: []
      m_PreInfinity: 2
      m_PostInfinity: 2
      m_RotationOrder: 4
    attribute: m_LocalEulerAngles.x
    path: default
    classID: 4
    script: {fileID: 0}
  - curve:
      serializedVersion: 2
      m_Curve: []
      m_PreInfinity: 2
      m_PostInfinity: 2
      m_RotationOrder: 4
    attribute: m_LocalEulerAngles.y
    path: default
    classID: 4
    script: {fileID: 0}
  - curve:
      serializedVersion: 2
      m_Curve: []
      m_PreInfinity: 2
      m_PostInfinity: 2
      m_RotationOrder: 4
    attribute: m_LocalEulerAngles.z
    path: default
    classID: 4
    script: {fileID: 0}
  m_HasGenericRootTransform: 0
  m_HasMotionFloatCurves: 0
  m_GenerateMotionCurves: 0
  m_Events: []
