# MagicaVoxel @ Ephtracy

# group
g chimpanzee

# material
mtllib chimpanzee.mtl
usemtl palette

# normals
vn -1 0 0
vn 1 0 0
vn 0 0 1
vn 0 0 -1
vn 0 -1 0
vn 0 1 0

# texcoords
vt 0.876953 0.5
vt 0.888672 0.5
vt 0.974609 0.5
vt 0.986328 0.5

# verts
v -7 4 12
v -7 4 5
v -7 4 -2
v -7 4 -9
v -7 5 -2
v -7 5 -9
v -7 6 6
v -7 6 5
v -7 6 -2
v -7 6 -5
v -7 7 8
v -7 7 6
v -7 7 5
v -7 7 -5
v -7 7 -6
v -7 8 -4
v -7 8 -6
v -7 9 13
v -7 9 12
v -7 9 8
v -7 9 6
v -7 9 -3
v -7 9 -4
v -7 10 -8
v -7 10 -9
v -7 11 -2
v -7 11 -3
v -7 12 -7
v -7 12 -8
v -7 13 -1
v -7 13 -2
v -7 14 -7
v -7 14 -8
v -7 15 -8
v -7 15 -10
v -7 16 13
v -7 16 12
v -7 16 6
v -7 16 5
v -7 16 -10
v -7 16 -11
v -7 17 -11
v -7 17 -13
v -7 18 -1
v -7 18 -2
v -7 18 -13
v -7 18 -14
v -7 19 12
v -7 19 11
v -7 20 5
v -7 20 4
v -7 20 -14
v -7 20 -15
v -7 21 11
v -7 21 10
v -7 21 4
v -7 21 3
v -7 22 3
v -7 22 2
v -7 22 -2
v -7 22 -3
v -7 24 -3
v -7 24 -4
v -7 24 -14
v -7 24 -15
v -7 25 -4
v -7 25 -5
v -7 25 -13
v -7 25 -14
v -7 26 11
v -7 26 10
v -7 26 -5
v -7 26 -6
v -7 26 -11
v -7 26 -13
v -7 27 -6
v -7 27 -7
v -7 27 -10
v -7 27 -11
v -7 28 12
v -7 28 11
v -7 28 -7
v -7 28 -10
v -7 30 3
v -7 30 2
v -7 32 4
v -7 32 3
v -7 34 5
v -7 34 4
v -7 36 12
v -7 36 5
v -6 21 -0
v -6 21 -2
v -6 22 -2
v -6 22 -3
v -6 23 1
v -6 23 -0
v -6 24 -3
v -6 24 -4
v -6 24 -14
v -6 24 -15
v -6 25 2
v -6 25 1
v -6 25 -4
v -6 25 -5
v -6 25 -13
v -6 25 -14
v -6 25 -15
v -6 26 -5
v -6 26 -6
v -6 26 -11
v -6 26 -13
v -6 27 -6
v -6 27 -7
v -6 27 -10
v -6 27 -11
v -6 27 -13
v -6 27 -14
v -6 28 -7
v -6 28 -10
v -6 28 -12
v -6 28 -13
v -6 29 -11
v -6 29 -12
v -6 30 3
v -6 30 2
v -6 30 -8
v -6 30 -11
v -6 31 -6
v -6 31 -8
v -6 32 4
v -6 32 3
v -6 32 -4
v -6 32 -6
v -6 33 -3
v -6 33 -4
v -6 34 5
v -6 34 4
v -6 35 -2
v -6 35 -3
v -6 36 7
v -6 36 5
v -6 36 -0
v -6 36 -2
v -6 37 7
v -6 37 -0
v -5 25 -14
v -5 25 -15
v -5 26 -14
v -5 26 -15
v -5 36 15
v -5 36 14
v -5 38 15
v -5 38 14
v -4 36 16
v -4 36 15
v -4 36 14
v -4 36 12
v -4 36 7
v -4 37 7
v -4 37 4
v -4 38 15
v -4 38 14
v -4 38 6
v -4 38 4
v -4 39 16
v -4 39 6
v -3 24 2
v -3 24 1
v -3 25 2
v -3 25 1
v -3 32 13
v -3 32 12
v -3 35 16
v -3 35 13
v -3 36 16
v -3 36 12
v -3 39 16
v -3 39 14
v -3 40 16
v -3 40 14
v -2 31 17
v -2 31 15
v -2 32 15
v -2 32 14
v -2 32 13
v -2 33 17
v -2 33 14
v -2 35 17
v -2 35 16
v -2 35 13
v 4 4 12
v 4 4 5
v 4 4 -2
v 4 4 -9
v 4 5 -2
v 4 5 -9
v 4 6 9
v 4 6 5
v 4 6 -2
v 4 6 -6
v 4 7 10
v 4 7 9
v 4 7 8
v 4 7 5
v 4 8 10
v 4 8 8
v 4 8 -4
v 4 8 -6
v 4 9 13
v 4 9 12
v 4 9 8
v 4 9 6
v 4 9 -3
v 4 9 -4
v 4 10 -8
v 4 10 -9
v 4 11 -2
v 4 11 -3
v 4 12 -7
v 4 12 -8
v 4 13 -1
v 4 13 -2
v 4 14 -7
v 4 14 -8
v 4 15 -8
v 4 15 -10
v 4 16 13
v 4 16 12
v 4 16 6
v 4 16 5
v 4 16 -10
v 4 16 -11
v 4 17 -11
v 4 17 -13
v 4 18 -1
v 4 18 -2
v 4 18 -13
v 4 18 -14
v 4 19 12
v 4 19 11
v 4 20 5
v 4 20 4
v 4 20 -2
v 4 20 -14
v 4 20 -15
v 4 21 11
v 4 21 10
v 4 21 -14
v 4 21 -15
v 4 25 8
v 4 25 4
v 4 26 11
v 4 26 10
v 4 26 9
v 4 26 8
v 4 27 10
v 4 27 9
v 4 28 12
v 4 28 11
v 4 28 10
v 4 30 12
v 4 30 11
v 5 6 -5
v 5 6 -6
v 5 7 -5
v 5 7 -6
v 6 21 4
v 6 21 3
v 6 22 3
v 6 22 2
v 6 25 4
v 6 25 2
v -6 21 4
v -6 21 3
v -6 22 3
v -6 22 2
v -6 25 4
v -6 25 2
v -5 6 -5
v -5 6 -6
v -5 7 -5
v -5 7 -6
v -4 4 12
v -4 4 5
v -4 4 -2
v -4 4 -9
v -4 5 -2
v -4 5 -9
v -4 6 10
v -4 6 5
v -4 6 -2
v -4 6 -6
v -4 7 8
v -4 7 5
v -4 8 10
v -4 8 8
v -4 8 -4
v -4 8 -6
v -4 9 13
v -4 9 12
v -4 9 8
v -4 9 6
v -4 9 -3
v -4 9 -4
v -4 10 -8
v -4 10 -9
v -4 11 -2
v -4 11 -3
v -4 12 -7
v -4 12 -8
v -4 13 -1
v -4 13 -2
v -4 14 -7
v -4 14 -8
v -4 15 -8
v -4 15 -10
v -4 16 13
v -4 16 12
v -4 16 6
v -4 16 5
v -4 16 -10
v -4 16 -11
v -4 17 -11
v -4 17 -13
v -4 18 -1
v -4 18 -2
v -4 18 -13
v -4 18 -14
v -4 19 12
v -4 19 11
v -4 20 5
v -4 20 4
v -4 20 -2
v -4 20 -14
v -4 20 -15
v -4 21 11
v -4 21 10
v -4 21 -14
v -4 21 -15
v -4 25 8
v -4 25 4
v -4 26 11
v -4 26 10
v -4 26 9
v -4 26 8
v -4 27 10
v -4 27 9
v -4 28 12
v -4 28 11
v -4 28 10
v -4 30 12
v -4 30 11
v 2 31 17
v 2 31 15
v 2 32 15
v 2 32 14
v 2 32 13
v 2 33 17
v 2 33 14
v 2 35 17
v 2 35 16
v 2 35 13
v 3 24 2
v 3 24 1
v 3 25 2
v 3 25 1
v 3 32 13
v 3 32 12
v 3 35 16
v 3 35 13
v 3 36 16
v 3 36 12
v 3 39 16
v 3 39 14
v 3 40 16
v 3 40 14
v 4 36 16
v 4 36 15
v 4 36 14
v 4 36 12
v 4 36 7
v 4 37 7
v 4 37 4
v 4 38 15
v 4 38 14
v 4 38 6
v 4 38 4
v 4 39 16
v 4 39 6
v 5 25 -14
v 5 25 -15
v 5 26 -14
v 5 26 -15
v 5 36 15
v 5 36 14
v 5 38 15
v 5 38 14
v 6 21 -0
v 6 21 -2
v 6 22 -2
v 6 22 -3
v 6 23 1
v 6 23 -0
v 6 24 -3
v 6 24 -4
v 6 24 -14
v 6 24 -15
v 6 25 2
v 6 25 1
v 6 25 -4
v 6 25 -5
v 6 25 -13
v 6 25 -14
v 6 25 -15
v 6 26 -5
v 6 26 -6
v 6 26 -11
v 6 26 -13
v 6 27 -6
v 6 27 -7
v 6 27 -10
v 6 27 -11
v 6 27 -13
v 6 27 -14
v 6 28 -7
v 6 28 -10
v 6 28 -12
v 6 28 -13
v 6 29 -11
v 6 29 -12
v 6 30 3
v 6 30 2
v 6 30 -8
v 6 30 -11
v 6 31 -6
v 6 31 -8
v 6 32 4
v 6 32 3
v 6 32 -4
v 6 32 -6
v 6 33 -3
v 6 33 -4
v 6 34 5
v 6 34 4
v 6 35 -2
v 6 35 -3
v 6 36 7
v 6 36 5
v 6 36 -0
v 6 36 -2
v 6 37 7
v 6 37 -0
v 7 4 12
v 7 4 5
v 7 4 -2
v 7 4 -9
v 7 5 -2
v 7 5 -9
v 7 6 6
v 7 6 5
v 7 6 -2
v 7 6 -5
v 7 7 8
v 7 7 6
v 7 7 5
v 7 7 -5
v 7 7 -6
v 7 8 -4
v 7 8 -6
v 7 9 13
v 7 9 12
v 7 9 8
v 7 9 6
v 7 9 -3
v 7 9 -4
v 7 10 -8
v 7 10 -9
v 7 11 -2
v 7 11 -3
v 7 12 -7
v 7 12 -8
v 7 13 -1
v 7 13 -2
v 7 14 -7
v 7 14 -8
v 7 15 -8
v 7 15 -10
v 7 16 13
v 7 16 12
v 7 16 6
v 7 16 5
v 7 16 -10
v 7 16 -11
v 7 17 -11
v 7 17 -13
v 7 18 -1
v 7 18 -2
v 7 18 -13
v 7 18 -14
v 7 19 12
v 7 19 11
v 7 20 5
v 7 20 4
v 7 20 -14
v 7 20 -15
v 7 21 11
v 7 21 10
v 7 21 4
v 7 21 3
v 7 22 3
v 7 22 2
v 7 22 -2
v 7 22 -3
v 7 24 -3
v 7 24 -4
v 7 24 -14
v 7 24 -15
v 7 25 -4
v 7 25 -5
v 7 25 -13
v 7 25 -14
v 7 26 11
v 7 26 10
v 7 26 -5
v 7 26 -6
v 7 26 -11
v 7 26 -13
v 7 27 -6
v 7 27 -7
v 7 27 -10
v 7 27 -11
v 7 28 12
v 7 28 11
v 7 28 -7
v 7 28 -10
v 7 30 3
v 7 30 2
v 7 32 4
v 7 32 3
v 7 34 5
v 7 34 4
v 7 36 12
v 7 36 5
v -2 31 17
v -2 33 17
v -2 35 17
v -1 32 17
v -1 33 17
v -1 35 17
v 1 32 17
v 1 33 17
v 1 35 17
v 2 31 17
v 2 33 17
v 2 35 17
v -4 36 16
v -4 39 16
v -3 35 16
v -3 36 16
v -3 39 16
v -3 40 16
v -2 35 16
v -2 37 16
v -2 38 16
v -1 35 16
v -1 36 16
v -1 37 16
v -1 38 16
v 1 35 16
v 1 36 16
v 1 37 16
v 1 38 16
v 2 35 16
v 2 37 16
v 2 38 16
v 3 35 16
v 3 36 16
v 3 39 16
v 3 40 16
v 4 36 16
v 4 39 16
v -5 36 15
v -5 38 15
v -4 36 15
v -4 38 15
v 4 36 15
v 4 38 15
v 5 36 15
v 5 38 15
v -7 9 13
v -7 16 13
v -4 9 13
v -4 16 13
v -3 32 13
v -3 35 13
v -2 32 13
v -2 35 13
v 2 32 13
v 2 35 13
v 3 32 13
v 3 35 13
v 4 9 13
v 4 16 13
v 7 9 13
v 7 16 13
v -7 4 12
v -7 9 12
v -7 16 12
v -7 19 12
v -7 28 12
v -7 36 12
v -4 4 12
v -4 9 12
v -4 16 12
v -4 19 12
v -4 28 12
v -4 30 12
v -4 36 12
v -3 32 12
v -3 36 12
v 3 32 12
v 3 36 12
v 4 4 12
v 4 9 12
v 4 16 12
v 4 19 12
v 4 28 12
v 4 30 12
v 4 36 12
v 7 4 12
v 7 9 12
v 7 16 12
v 7 19 12
v 7 28 12
v 7 36 12
v -7 19 11
v -7 21 11
v -7 26 11
v -7 28 11
v -4 19 11
v -4 21 11
v -4 26 11
v -4 28 11
v -4 30 11
v 4 19 11
v 4 21 11
v 4 26 11
v 4 28 11
v 4 30 11
v 7 19 11
v 7 21 11
v 7 26 11
v 7 28 11
v -7 21 10
v -7 26 10
v -4 21 10
v -4 26 10
v -4 27 10
v -4 28 10
v 4 21 10
v 4 26 10
v 4 27 10
v 4 28 10
v 7 21 10
v 7 26 10
v -4 26 9
v -4 27 9
v 4 26 9
v 4 27 9
v -4 25 8
v -4 26 8
v 4 25 8
v 4 26 8
v -6 36 7
v -6 37 7
v -4 36 7
v -4 37 7
v 4 36 7
v 4 37 7
v 6 36 7
v 6 37 7
v -3 24 2
v -3 25 2
v 3 24 2
v 3 25 2
v -6 23 1
v -6 25 1
v -3 24 1
v -3 25 1
v 3 24 1
v 3 25 1
v 6 23 1
v 6 25 1
v -6 21 -0
v -6 23 -0
v 6 21 -0
v 6 23 -0
v -7 13 -1
v -7 18 -1
v -4 13 -1
v -4 18 -1
v 4 13 -1
v 4 18 -1
v 7 13 -1
v 7 18 -1
v -7 4 -2
v -7 5 -2
v -7 6 -2
v -7 11 -2
v -7 13 -2
v -7 18 -2
v -7 22 -2
v -6 21 -2
v -6 22 -2
v -4 4 -2
v -4 5 -2
v -4 6 -2
v -4 11 -2
v -4 13 -2
v -4 18 -2
v -4 20 -2
v 4 4 -2
v 4 5 -2
v 4 6 -2
v 4 11 -2
v 4 13 -2
v 4 18 -2
v 4 20 -2
v 6 21 -2
v 6 22 -2
v 7 4 -2
v 7 5 -2
v 7 6 -2
v 7 11 -2
v 7 13 -2
v 7 18 -2
v 7 22 -2
v -7 9 -3
v -7 11 -3
v -7 22 -3
v -7 24 -3
v -6 22 -3
v -6 24 -3
v -4 9 -3
v -4 11 -3
v 4 9 -3
v 4 11 -3
v 6 22 -3
v 6 24 -3
v 7 9 -3
v 7 11 -3
v 7 22 -3
v 7 24 -3
v -7 8 -4
v -7 9 -4
v -7 24 -4
v -7 25 -4
v -6 24 -4
v -6 25 -4
v -4 8 -4
v -4 9 -4
v 4 8 -4
v 4 9 -4
v 6 24 -4
v 6 25 -4
v 7 8 -4
v 7 9 -4
v 7 24 -4
v 7 25 -4
v -7 6 -5
v -7 7 -5
v -7 25 -5
v -7 26 -5
v -6 25 -5
v -6 26 -5
v -5 6 -5
v -5 7 -5
v 5 6 -5
v 5 7 -5
v 6 25 -5
v 6 26 -5
v 7 6 -5
v 7 7 -5
v 7 25 -5
v 7 26 -5
v -7 7 -6
v -7 8 -6
v -7 26 -6
v -7 27 -6
v -6 26 -6
v -6 27 -6
v -5 6 -6
v -5 7 -6
v -4 6 -6
v -4 8 -6
v 4 6 -6
v 4 8 -6
v 5 6 -6
v 5 7 -6
v 6 26 -6
v 6 27 -6
v 7 7 -6
v 7 8 -6
v 7 26 -6
v 7 27 -6
v -7 27 -7
v -7 28 -7
v -6 27 -7
v -6 28 -7
v 6 27 -7
v 6 28 -7
v 7 27 -7
v 7 28 -7
v -2 31 15
v -2 32 15
v 2 31 15
v 2 32 15
v -5 36 14
v -5 38 14
v -4 36 14
v -4 38 14
v -3 39 14
v -3 40 14
v 3 39 14
v 3 40 14
v 4 36 14
v 4 38 14
v 5 36 14
v 5 38 14
v -7 7 8
v -7 9 8
v -6 7 8
v -6 8 8
v -4 7 8
v -4 8 8
v -4 9 8
v 4 7 8
v 4 8 8
v 4 9 8
v 6 7 8
v 6 8 8
v 7 7 8
v 7 9 8
v -7 9 6
v -7 16 6
v -4 9 6
v -4 16 6
v -4 38 6
v -4 39 6
v 4 9 6
v 4 16 6
v 4 38 6
v 4 39 6
v 7 9 6
v 7 16 6
v -7 4 5
v -7 6 5
v -7 7 5
v -7 16 5
v -7 20 5
v -7 34 5
v -7 36 5
v -6 34 5
v -6 36 5
v -4 4 5
v -4 6 5
v -4 7 5
v -4 16 5
v -4 20 5
v 4 4 5
v 4 6 5
v 4 7 5
v 4 16 5
v 4 20 5
v 6 34 5
v 6 36 5
v 7 4 5
v 7 6 5
v 7 7 5
v 7 16 5
v 7 20 5
v 7 34 5
v 7 36 5
v -7 20 4
v -7 21 4
v -7 32 4
v -7 34 4
v -6 21 4
v -6 25 4
v -6 32 4
v -6 34 4
v -4 20 4
v -4 25 4
v -4 37 4
v -4 38 4
v 4 20 4
v 4 25 4
v 4 37 4
v 4 38 4
v 6 21 4
v 6 25 4
v 6 32 4
v 6 34 4
v 7 20 4
v 7 21 4
v 7 32 4
v 7 34 4
v -7 21 3
v -7 22 3
v -7 30 3
v -7 32 3
v -6 21 3
v -6 22 3
v -6 30 3
v -6 32 3
v 6 21 3
v 6 22 3
v 6 30 3
v 6 32 3
v 7 21 3
v 7 22 3
v 7 30 3
v 7 32 3
v -7 22 2
v -7 30 2
v -6 22 2
v -6 25 2
v -6 30 2
v 6 22 2
v 6 25 2
v 6 30 2
v 7 22 2
v 7 30 2
v -6 36 -0
v -6 37 -0
v 6 36 -0
v 6 37 -0
v -6 35 -2
v -6 36 -2
v 6 35 -2
v 6 36 -2
v -6 33 -3
v -6 35 -3
v 6 33 -3
v 6 35 -3
v -6 32 -4
v -6 33 -4
v 6 32 -4
v 6 33 -4
v -6 31 -6
v -6 32 -6
v 6 31 -6
v 6 32 -6
v -7 12 -7
v -7 14 -7
v -4 12 -7
v -4 14 -7
v 4 12 -7
v 4 14 -7
v 7 12 -7
v 7 14 -7
v -7 10 -8
v -7 12 -8
v -7 14 -8
v -7 15 -8
v -6 30 -8
v -6 31 -8
v -4 10 -8
v -4 12 -8
v -4 14 -8
v -4 15 -8
v 4 10 -8
v 4 12 -8
v 4 14 -8
v 4 15 -8
v 6 30 -8
v 6 31 -8
v 7 10 -8
v 7 12 -8
v 7 14 -8
v 7 15 -8
v -7 4 -9
v -7 5 -9
v -7 10 -9
v -4 4 -9
v -4 5 -9
v -4 10 -9
v 4 4 -9
v 4 5 -9
v 4 10 -9
v 7 4 -9
v 7 5 -9
v 7 10 -9
v -7 15 -10
v -7 16 -10
v -7 27 -10
v -7 28 -10
v -6 27 -10
v -6 28 -10
v -4 15 -10
v -4 16 -10
v 4 15 -10
v 4 16 -10
v 6 27 -10
v 6 28 -10
v 7 15 -10
v 7 16 -10
v 7 27 -10
v 7 28 -10
v -7 16 -11
v -7 17 -11
v -7 26 -11
v -7 27 -11
v -6 26 -11
v -6 27 -11
v -6 29 -11
v -6 30 -11
v -4 16 -11
v -4 17 -11
v 4 16 -11
v 4 17 -11
v 6 26 -11
v 6 27 -11
v 6 29 -11
v 6 30 -11
v 7 16 -11
v 7 17 -11
v 7 26 -11
v 7 27 -11
v -6 28 -12
v -6 29 -12
v 6 28 -12
v 6 29 -12
v -7 17 -13
v -7 18 -13
v -7 25 -13
v -7 26 -13
v -6 25 -13
v -6 26 -13
v -6 27 -13
v -6 28 -13
v -4 17 -13
v -4 18 -13
v 4 17 -13
v 4 18 -13
v 6 25 -13
v 6 26 -13
v 6 27 -13
v 6 28 -13
v 7 17 -13
v 7 18 -13
v 7 25 -13
v 7 26 -13
v -7 18 -14
v -7 20 -14
v -7 24 -14
v -7 25 -14
v -6 24 -14
v -6 25 -14
v -6 27 -14
v -5 25 -14
v -5 26 -14
v -4 18 -14
v -4 20 -14
v -4 21 -14
v -4 26 -14
v -2 21 -14
v -2 26 -14
v 2 21 -14
v 2 26 -14
v 4 18 -14
v 4 20 -14
v 4 21 -14
v 4 26 -14
v 5 25 -14
v 5 26 -14
v 6 24 -14
v 6 25 -14
v 6 27 -14
v 7 18 -14
v 7 20 -14
v 7 24 -14
v 7 25 -14
v -7 20 -15
v -7 24 -15
v -6 24 -15
v -6 25 -15
v -5 22 -15
v -5 25 -15
v -5 26 -15
v -4 20 -15
v -4 21 -15
v -4 22 -15
v -4 25 -15
v -4 26 -15
v -2 21 -15
v -2 22 -15
v -2 25 -15
v -2 26 -15
v -1 22 -15
v -1 25 -15
v 1 22 -15
v 1 25 -15
v 2 21 -15
v 2 22 -15
v 2 25 -15
v 2 26 -15
v 4 20 -15
v 4 21 -15
v 4 22 -15
v 4 25 -15
v 4 26 -15
v 5 22 -15
v 5 25 -15
v 5 26 -15
v 6 24 -15
v 6 25 -15
v 7 20 -15
v 7 24 -15
v -7 4 12
v -4 4 12
v 4 4 12
v 7 4 12
v -6 4 11
v -5 4 11
v -6 4 6
v -5 4 6
v -7 4 5
v -4 4 5
v 4 4 5
v 7 4 5
v -7 4 -2
v -4 4 -2
v 4 4 -2
v 7 4 -2
v -7 4 -9
v -4 4 -9
v 4 4 -9
v 7 4 -9
v -7 8 -4
v -4 8 -4
v 4 8 -4
v 7 8 -4
v -7 8 -6
v -4 8 -6
v 4 8 -6
v 7 8 -6
v -7 9 13
v -4 9 13
v 4 9 13
v 7 9 13
v -7 9 12
v -4 9 12
v 4 9 12
v 7 9 12
v -7 9 8
v -4 9 8
v 4 9 8
v 7 9 8
v -7 9 6
v -4 9 6
v 4 9 6
v 7 9 6
v -7 9 -3
v -4 9 -3
v 4 9 -3
v 7 9 -3
v -7 9 -4
v -4 9 -4
v 4 9 -4
v 7 9 -4
v -7 11 -2
v -4 11 -2
v 4 11 -2
v 7 11 -2
v -7 11 -3
v -4 11 -3
v 4 11 -3
v 7 11 -3
v -7 13 -1
v -4 13 -1
v 4 13 -1
v 7 13 -1
v -7 13 -2
v -4 13 -2
v 4 13 -2
v 7 13 -2
v -7 14 -7
v -4 14 -7
v 4 14 -7
v 7 14 -7
v -7 14 -8
v -4 14 -8
v 4 14 -8
v 7 14 -8
v -7 15 -8
v -4 15 -8
v 4 15 -8
v 7 15 -8
v -7 15 -10
v -4 15 -10
v 4 15 -10
v 7 15 -10
v -7 16 6
v -4 16 6
v 4 16 6
v 7 16 6
v -7 16 5
v -4 16 5
v 4 16 5
v 7 16 5
v -7 16 -10
v -4 16 -10
v 4 16 -10
v 7 16 -10
v -7 16 -11
v -4 16 -11
v 4 16 -11
v 7 16 -11
v -7 17 -11
v -4 17 -11
v 4 17 -11
v 7 17 -11
v -7 17 -13
v -4 17 -13
v 4 17 -13
v 7 17 -13
v -7 18 -13
v -4 18 -13
v 4 18 -13
v 7 18 -13
v -7 18 -14
v -4 18 -14
v 4 18 -14
v 7 18 -14
v -7 20 5
v -4 20 5
v 4 20 5
v 7 20 5
v -7 20 4
v -4 20 4
v 4 20 4
v 7 20 4
v -4 20 -2
v 4 20 -2
v -7 20 -14
v -4 20 -14
v 4 20 -14
v 7 20 -14
v -7 20 -15
v -4 20 -15
v 4 20 -15
v 7 20 -15
v -7 21 4
v -6 21 4
v 6 21 4
v 7 21 4
v -7 21 3
v -6 21 3
v 6 21 3
v 7 21 3
v -6 21 -0
v 6 21 -0
v -6 21 -2
v 6 21 -2
v -4 21 -14
v -2 21 -14
v 2 21 -14
v 4 21 -14
v -4 21 -15
v -2 21 -15
v 2 21 -15
v 4 21 -15
v -7 22 3
v -6 22 3
v 6 22 3
v 7 22 3
v -7 22 2
v -6 22 2
v 6 22 2
v 7 22 2
v -6 23 1
v 6 23 1
v -6 23 -0
v 6 23 -0
v -3 24 2
v 3 24 2
v -3 24 1
v 3 24 1
v -4 25 8
v 4 25 8
v -6 25 4
v -4 25 4
v 4 25 4
v 6 25 4
v -6 25 2
v -3 25 2
v 3 25 2
v 6 25 2
v -6 25 1
v -3 25 1
v 3 25 1
v 6 25 1
v -7 26 11
v -4 26 11
v 4 26 11
v 7 26 11
v -7 26 10
v -4 26 10
v 4 26 10
v 7 26 10
v -4 26 9
v 4 26 9
v -4 26 8
v 4 26 8
v -4 27 10
v 4 27 10
v -4 27 9
v 4 27 9
v -7 28 12
v -4 28 12
v 4 28 12
v 7 28 12
v -7 28 11
v -4 28 11
v 4 28 11
v 7 28 11
v -4 28 10
v 4 28 10
v -4 30 12
v 4 30 12
v -4 30 11
v 4 30 11
v -2 31 17
v 2 31 17
v -2 31 15
v 2 31 15
v -2 32 15
v 2 32 15
v -2 32 14
v 2 32 14
v -3 32 13
v -2 32 13
v 2 32 13
v 3 32 13
v -3 32 12
v 3 32 12
v -3 35 16
v -2 35 16
v 2 35 16
v 3 35 16
v -3 35 13
v -2 35 13
v 2 35 13
v 3 35 13
v -4 36 16
v -3 36 16
v 3 36 16
v 4 36 16
v -5 36 15
v -4 36 15
v 4 36 15
v 5 36 15
v -5 36 14
v -4 36 14
v 4 36 14
v 5 36 14
v -4 36 12
v -3 36 12
v 3 36 12
v 4 36 12
v -7 6 -2
v -4 6 -2
v 4 6 -2
v 7 6 -2
v -7 6 -5
v -5 6 -5
v 5 6 -5
v 7 6 -5
v -5 6 -6
v -4 6 -6
v 4 6 -6
v 5 6 -6
v -7 7 8
v -6 7 8
v -4 7 8
v 4 7 8
v 6 7 8
v 7 7 8
v -7 7 6
v -6 7 6
v 6 7 6
v 7 7 6
v -7 7 5
v -4 7 5
v 4 7 5
v 7 7 5
v -7 7 -5
v -5 7 -5
v 5 7 -5
v 7 7 -5
v -7 7 -6
v -5 7 -6
v 5 7 -6
v 7 7 -6
v -7 10 -8
v -4 10 -8
v 4 10 -8
v 7 10 -8
v -7 10 -9
v -4 10 -9
v 4 10 -9
v 7 10 -9
v -7 12 -7
v -4 12 -7
v 4 12 -7
v 7 12 -7
v -7 12 -8
v -4 12 -8
v 4 12 -8
v 7 12 -8
v -7 16 13
v -4 16 13
v 4 16 13
v 7 16 13
v -7 16 12
v -4 16 12
v 4 16 12
v 7 16 12
v -7 18 -1
v -4 18 -1
v 4 18 -1
v 7 18 -1
v -7 18 -2
v -4 18 -2
v 4 18 -2
v 7 18 -2
v -7 19 12
v -4 19 12
v 4 19 12
v 7 19 12
v -7 19 11
v -4 19 11
v 4 19 11
v 7 19 11
v -7 21 11
v -4 21 11
v 4 21 11
v 7 21 11
v -7 21 10
v -4 21 10
v 4 21 10
v 7 21 10
v -7 22 -2
v -6 22 -2
v 6 22 -2
v 7 22 -2
v -7 22 -3
v -6 22 -3
v 6 22 -3
v 7 22 -3
v -7 24 -3
v -6 24 -3
v 6 24 -3
v 7 24 -3
v -7 24 -4
v -6 24 -4
v 6 24 -4
v 7 24 -4
v -7 24 -14
v -6 24 -14
v 6 24 -14
v 7 24 -14
v -7 24 -15
v -6 24 -15
v 6 24 -15
v 7 24 -15
v -7 25 -4
v -6 25 -4
v 6 25 -4
v 7 25 -4
v -7 25 -5
v -6 25 -5
v 6 25 -5
v 7 25 -5
v -7 25 -13
v -6 25 -13
v 6 25 -13
v 7 25 -13
v -7 25 -14
v -6 25 -14
v -5 25 -14
v 5 25 -14
v 6 25 -14
v 7 25 -14
v -6 25 -15
v -5 25 -15
v 5 25 -15
v 6 25 -15
v -7 26 -5
v -6 26 -5
v 6 26 -5
v 7 26 -5
v -7 26 -6
v -6 26 -6
v 6 26 -6
v 7 26 -6
v -7 26 -11
v -6 26 -11
v 6 26 -11
v 7 26 -11
v -7 26 -13
v -6 26 -13
v 6 26 -13
v 7 26 -13
v -5 26 -14
v -4 26 -14
v -2 26 -14
v 2 26 -14
v 4 26 -14
v 5 26 -14
v -5 26 -15
v -4 26 -15
v -2 26 -15
v 2 26 -15
v 4 26 -15
v 5 26 -15
v -7 27 -6
v -6 27 -6
v 6 27 -6
v 7 27 -6
v -7 27 -7
v -6 27 -7
v 6 27 -7
v 7 27 -7
v -7 27 -10
v -6 27 -10
v 6 27 -10
v 7 27 -10
v -7 27 -11
v -6 27 -11
v 6 27 -11
v 7 27 -11
v -6 27 -13
v 6 27 -13
v -6 27 -14
v 6 27 -14
v -7 28 -7
v -6 28 -7
v 6 28 -7
v 7 28 -7
v -7 28 -10
v -6 28 -10
v 6 28 -10
v 7 28 -10
v -6 28 -12
v 6 28 -12
v -6 28 -13
v 6 28 -13
v -6 29 -11
v 6 29 -11
v -6 29 -12
v 6 29 -12
v -7 30 3
v -6 30 3
v 6 30 3
v 7 30 3
v -7 30 2
v -6 30 2
v 6 30 2
v 7 30 2
v -6 30 -8
v 6 30 -8
v -6 30 -11
v 6 30 -11
v -6 31 -6
v 6 31 -6
v -6 31 -8
v 6 31 -8
v -7 32 4
v -6 32 4
v 6 32 4
v 7 32 4
v -7 32 3
v -6 32 3
v 6 32 3
v 7 32 3
v -6 32 -4
v 6 32 -4
v -6 32 -6
v 6 32 -6
v -6 33 -3
v 6 33 -3
v -6 33 -4
v 6 33 -4
v -7 34 5
v -6 34 5
v 6 34 5
v 7 34 5
v -7 34 4
v -6 34 4
v 6 34 4
v 7 34 4
v -2 35 17
v -1 35 17
v 1 35 17
v 2 35 17
v -2 35 16
v -1 35 16
v 1 35 16
v 2 35 16
v -6 35 -2
v 6 35 -2
v -6 35 -3
v 6 35 -3
v -7 36 12
v -4 36 12
v 4 36 12
v 7 36 12
v -6 36 7
v -4 36 7
v 4 36 7
v 6 36 7
v -7 36 5
v -6 36 5
v 6 36 5
v 7 36 5
v -6 36 -0
v 6 36 -0
v -6 36 -2
v 6 36 -2
v -6 37 7
v -4 37 7
v 4 37 7
v 6 37 7
v -4 37 4
v 4 37 4
v -6 37 -0
v 6 37 -0
v -5 38 15
v -4 38 15
v 4 38 15
v 5 38 15
v -5 38 14
v -4 38 14
v 4 38 14
v 5 38 14
v -4 38 6
v 4 38 6
v -4 38 4
v 4 38 4
v -4 39 16
v -3 39 16
v 3 39 16
v 4 39 16
v -3 39 14
v 3 39 14
v -4 39 6
v 4 39 6
v -3 40 16
v 3 40 16
v -3 40 14
v 3 40 14

# faces
f 5/3/1 4/3/1 3/3/1
f 6/3/1 4/3/1 5/3/1
f 7/4/1 2/4/1 1/4/1
f 8/4/1 2/4/1 7/4/1
f 9/4/1 6/4/1 5/4/1
f 10/4/1 6/4/1 9/4/1
f 11/4/1 7/4/1 1/4/1
f 12/3/1 8/3/1 7/3/1
f 12/4/1 7/4/1 11/4/1
f 13/3/1 8/3/1 12/3/1
f 14/4/1 6/4/1 10/4/1
f 15/4/1 6/4/1 14/4/1
f 17/4/1 6/4/1 15/4/1
f 19/4/1 11/4/1 1/4/1
f 20/4/1 11/4/1 19/4/1
f 23/4/1 17/4/1 16/4/1
f 24/4/1 6/4/1 17/4/1
f 24/4/1 23/4/1 22/4/1
f 24/4/1 17/4/1 23/4/1
f 25/4/1 6/4/1 24/4/1
f 27/4/1 24/4/1 22/4/1
f 28/4/1 24/4/1 27/4/1
f 28/4/1 27/4/1 26/4/1
f 29/4/1 24/4/1 28/4/1
f 31/4/1 28/4/1 26/4/1
f 32/4/1 28/4/1 31/4/1
f 32/4/1 31/4/1 30/4/1
f 34/4/1 33/4/1 32/4/1
f 36/4/1 21/4/1 20/4/1
f 36/4/1 19/4/1 18/4/1
f 36/4/1 20/4/1 19/4/1
f 37/4/1 21/4/1 36/4/1
f 38/4/1 21/4/1 37/4/1
f 40/4/1 35/4/1 34/4/1
f 42/4/1 41/4/1 40/4/1
f 44/4/1 34/4/1 32/4/1
f 44/4/1 43/4/1 42/4/1
f 44/4/1 42/4/1 40/4/1
f 44/4/1 32/4/1 30/4/1
f 44/4/1 40/4/1 34/4/1
f 45/4/1 43/4/1 44/4/1
f 46/4/1 43/4/1 45/4/1
f 48/4/1 38/4/1 37/4/1
f 48/4/1 39/4/1 38/4/1
f 49/4/1 39/4/1 48/4/1
f 50/4/1 39/4/1 49/4/1
f 52/4/1 47/4/1 46/4/1
f 52/4/1 46/4/1 45/4/1
f 54/4/1 51/4/1 50/4/1
f 54/4/1 50/4/1 49/4/1
f 55/4/1 51/4/1 54/4/1
f 56/4/1 51/4/1 55/4/1
f 58/4/1 57/4/1 56/4/1
f 58/4/1 56/4/1 55/4/1
f 60/4/1 53/4/1 52/4/1
f 60/4/1 52/4/1 45/4/1
f 61/4/1 53/4/1 60/4/1
f 62/4/1 53/4/1 61/4/1
f 63/4/1 53/4/1 62/4/1
f 64/4/1 53/4/1 63/4/1
f 65/4/1 53/4/1 64/4/1
f 66/4/1 64/4/1 63/4/1
f 67/4/1 64/4/1 66/4/1
f 68/4/1 64/4/1 67/4/1
f 69/4/1 64/4/1 68/4/1
f 71/4/1 59/4/1 58/4/1
f 71/4/1 58/4/1 55/4/1
f 72/4/1 68/4/1 67/4/1
f 73/4/1 68/4/1 72/4/1
f 74/4/1 68/4/1 73/4/1
f 75/4/1 68/4/1 74/4/1
f 76/4/1 74/4/1 73/4/1
f 77/4/1 74/4/1 76/4/1
f 78/4/1 74/4/1 77/4/1
f 79/4/1 74/4/1 78/4/1
f 81/4/1 71/4/1 70/4/1
f 82/4/1 78/4/1 77/4/1
f 83/4/1 78/4/1 82/4/1
f 84/4/1 81/4/1 80/4/1
f 84/4/1 59/4/1 71/4/1
f 84/4/1 71/4/1 81/4/1
f 85/4/1 59/4/1 84/4/1
f 86/4/1 84/4/1 80/4/1
f 87/4/1 84/4/1 86/4/1
f 88/4/1 86/4/1 80/4/1
f 89/4/1 86/4/1 88/4/1
f 90/4/1 88/4/1 80/4/1
f 91/4/1 88/4/1 90/4/1
f 94/4/1 93/4/1 92/4/1
f 97/4/1 94/4/1 92/4/1
f 97/4/1 95/4/1 94/4/1
f 98/4/1 95/4/1 97/4/1
f 98/4/1 97/4/1 96/4/1
f 103/4/1 98/4/1 96/4/1
f 103/4/1 99/4/1 98/4/1
f 104/4/1 99/4/1 103/4/1
f 107/4/1 101/4/1 100/4/1
f 108/4/1 101/4/1 107/4/1
f 109/4/1 105/4/1 104/4/1
f 109/4/1 103/4/1 102/4/1
f 109/4/1 104/4/1 103/4/1
f 112/4/1 107/4/1 106/4/1
f 113/4/1 110/4/1 109/4/1
f 116/4/1 112/4/1 111/4/1
f 117/4/1 107/4/1 112/4/1
f 117/4/1 112/4/1 116/4/1
f 118/4/1 107/4/1 117/4/1
f 119/4/1 114/4/1 113/4/1
f 120/4/1 116/4/1 115/4/1
f 120/4/1 117/4/1 116/4/1
f 121/4/1 117/4/1 120/4/1
f 122/4/1 117/4/1 121/4/1
f 123/4/1 120/4/1 119/4/1
f 123/4/1 121/4/1 120/4/1
f 124/4/1 121/4/1 123/4/1
f 126/4/1 109/4/1 102/4/1
f 126/4/1 119/4/1 113/4/1
f 126/4/1 123/4/1 119/4/1
f 126/4/1 113/4/1 109/4/1
f 127/4/1 123/4/1 126/4/1
f 128/4/1 123/4/1 127/4/1
f 129/4/1 126/4/1 125/4/1
f 129/4/1 127/4/1 126/4/1
f 130/4/1 127/4/1 129/4/1
f 132/4/1 129/4/1 125/4/1
f 133/4/1 129/4/1 132/4/1
f 134/4/1 129/4/1 133/4/1
f 135/4/1 132/4/1 131/4/1
f 135/4/1 133/4/1 132/4/1
f 136/4/1 133/4/1 135/4/1
f 138/4/1 135/4/1 131/4/1
f 139/4/1 135/4/1 138/4/1
f 139/4/1 138/4/1 137/4/1
f 140/4/1 135/4/1 139/4/1
f 142/4/1 139/4/1 137/4/1
f 143/4/1 139/4/1 142/4/1
f 144/4/1 139/4/1 143/4/1
f 145/4/1 142/4/1 141/4/1
f 145/4/1 143/4/1 142/4/1
f 146/4/1 143/4/1 145/4/1
f 149/4/1 148/4/1 147/4/1
f 150/4/1 148/4/1 149/4/1
f 153/3/1 152/3/1 151/3/1
f 154/3/1 152/3/1 153/3/1
f 160/4/1 158/4/1 157/4/1
f 160/4/1 159/4/1 158/4/1
f 162/4/1 156/4/1 155/4/1
f 163/4/1 161/4/1 160/4/1
f 163/4/1 160/4/1 157/4/1
f 164/4/1 161/4/1 163/4/1
f 165/4/1 161/4/1 164/4/1
f 166/4/1 162/4/1 155/4/1
f 166/4/1 163/4/1 162/4/1
f 166/4/1 164/4/1 163/4/1
f 167/4/1 164/4/1 166/4/1
f 170/4/1 169/4/1 168/4/1
f 171/4/1 169/4/1 170/4/1
f 175/4/1 173/4/1 172/4/1
f 176/4/1 175/4/1 174/4/1
f 177/4/1 173/4/1 175/4/1
f 177/4/1 175/4/1 176/4/1
f 180/4/1 179/4/1 178/4/1
f 181/4/1 179/4/1 180/4/1
f 184/3/1 183/3/1 182/3/1
f 187/3/1 184/3/1 182/3/1
f 187/3/1 185/3/1 184/3/1
f 188/4/1 186/4/1 185/4/1
f 188/3/1 185/3/1 187/3/1
f 189/4/1 188/4/1 187/4/1
f 190/4/1 188/4/1 189/4/1
f 191/4/1 186/4/1 188/4/1
f 191/4/1 188/4/1 190/4/1
f 196/3/1 195/3/1 194/3/1
f 197/3/1 195/3/1 196/3/1
f 198/4/1 193/4/1 192/4/1
f 199/4/1 193/4/1 198/4/1
f 200/4/1 197/4/1 196/4/1
f 201/4/1 197/4/1 200/4/1
f 202/4/1 198/4/1 192/4/1
f 203/3/1 199/3/1 198/3/1
f 203/4/1 198/4/1 202/4/1
f 204/3/1 199/3/1 203/3/1
f 205/3/1 199/3/1 204/3/1
f 206/4/1 202/4/1 192/4/1
f 206/3/1 203/3/1 202/3/1
f 206/3/1 204/3/1 203/3/1
f 207/3/1 204/3/1 206/3/1
f 209/4/1 197/4/1 201/4/1
f 211/4/1 207/4/1 206/4/1
f 211/4/1 206/4/1 192/4/1
f 212/4/1 207/4/1 211/4/1
f 215/4/1 209/4/1 208/4/1
f 216/4/1 197/4/1 209/4/1
f 216/4/1 215/4/1 214/4/1
f 216/4/1 209/4/1 215/4/1
f 217/4/1 197/4/1 216/4/1
f 219/4/1 216/4/1 214/4/1
f 220/4/1 216/4/1 219/4/1
f 220/4/1 219/4/1 218/4/1
f 221/4/1 216/4/1 220/4/1
f 223/4/1 220/4/1 218/4/1
f 224/4/1 220/4/1 223/4/1
f 224/4/1 223/4/1 222/4/1
f 226/4/1 225/4/1 224/4/1
f 228/4/1 213/4/1 212/4/1
f 228/4/1 211/4/1 210/4/1
f 228/4/1 212/4/1 211/4/1
f 229/4/1 213/4/1 228/4/1
f 230/4/1 213/4/1 229/4/1
f 232/4/1 227/4/1 226/4/1
f 234/4/1 233/4/1 232/4/1
f 236/4/1 226/4/1 224/4/1
f 236/4/1 235/4/1 234/4/1
f 236/4/1 234/4/1 232/4/1
f 236/4/1 224/4/1 222/4/1
f 236/4/1 232/4/1 226/4/1
f 237/4/1 235/4/1 236/4/1
f 238/4/1 235/4/1 237/4/1
f 240/4/1 230/4/1 229/4/1
f 240/4/1 231/4/1 230/4/1
f 241/4/1 231/4/1 240/4/1
f 242/4/1 231/4/1 241/4/1
f 244/4/1 239/4/1 238/4/1
f 244/4/1 238/4/1 237/4/1
f 245/4/1 239/4/1 244/4/1
f 247/4/1 243/4/1 242/4/1
f 247/4/1 242/4/1 241/4/1
f 248/4/1 243/4/1 247/4/1
f 249/4/1 246/4/1 245/4/1
f 250/4/1 246/4/1 249/4/1
f 251/4/1 243/4/1 248/4/1
f 252/4/1 243/4/1 251/4/1
f 254/4/1 251/4/1 248/4/1
f 255/4/1 251/4/1 254/4/1
f 256/4/1 251/4/1 255/4/1
f 257/4/1 254/4/1 253/4/1
f 257/4/1 255/4/1 254/4/1
f 258/4/1 255/4/1 257/4/1
f 260/4/1 257/4/1 253/4/1
f 261/4/1 257/4/1 260/4/1
f 262/4/1 260/4/1 259/4/1
f 263/4/1 260/4/1 262/4/1
f 266/4/1 265/4/1 264/4/1
f 267/4/1 265/4/1 266/4/1
f 270/4/1 269/4/1 268/4/1
f 272/4/1 270/4/1 268/4/1
f 272/4/1 271/4/1 270/4/1
f 273/4/1 271/4/1 272/4/1
f 274/4/2 275/4/2 276/4/2
f 274/4/2 276/4/2 278/4/2
f 276/4/2 277/4/2 278/4/2
f 278/4/2 277/4/2 279/4/2
f 280/4/2 281/4/2 282/4/2
f 282/4/2 281/4/2 283/4/2
f 286/3/2 287/3/2 288/3/2
f 288/3/2 287/3/2 289/3/2
f 284/4/2 285/4/2 290/4/2
f 290/4/2 285/4/2 291/4/2
f 288/4/2 289/4/2 292/4/2
f 292/4/2 289/4/2 293/4/2
f 290/3/2 291/3/2 294/3/2
f 294/3/2 291/3/2 295/3/2
f 284/4/2 290/4/2 296/4/2
f 290/3/2 294/3/2 296/3/2
f 296/3/2 294/3/2 297/3/2
f 293/4/2 289/4/2 299/4/2
f 284/4/2 296/4/2 301/4/2
f 296/4/2 297/4/2 301/4/2
f 301/4/2 297/4/2 302/4/2
f 298/4/2 299/4/2 305/4/2
f 299/4/2 289/4/2 306/4/2
f 304/4/2 305/4/2 306/4/2
f 305/4/2 299/4/2 306/4/2
f 306/4/2 289/4/2 307/4/2
f 304/4/2 306/4/2 309/4/2
f 309/4/2 306/4/2 310/4/2
f 308/4/2 309/4/2 310/4/2
f 310/4/2 306/4/2 311/4/2
f 308/4/2 310/4/2 313/4/2
f 313/4/2 310/4/2 314/4/2
f 312/4/2 313/4/2 314/4/2
f 314/4/2 315/4/2 316/4/2
f 302/4/2 303/4/2 318/4/2
f 300/4/2 301/4/2 318/4/2
f 301/4/2 302/4/2 318/4/2
f 318/4/2 303/4/2 319/4/2
f 319/4/2 303/4/2 320/4/2
f 316/4/2 317/4/2 322/4/2
f 322/4/2 323/4/2 324/4/2
f 314/4/2 316/4/2 326/4/2
f 324/4/2 325/4/2 326/4/2
f 322/4/2 324/4/2 326/4/2
f 312/4/2 314/4/2 326/4/2
f 316/4/2 322/4/2 326/4/2
f 326/4/2 325/4/2 327/4/2
f 327/4/2 325/4/2 328/4/2
f 319/4/2 320/4/2 330/4/2
f 320/4/2 321/4/2 330/4/2
f 330/4/2 321/4/2 331/4/2
f 331/4/2 321/4/2 332/4/2
f 328/4/2 329/4/2 334/4/2
f 327/4/2 328/4/2 334/4/2
f 334/4/2 329/4/2 335/4/2
f 332/4/2 333/4/2 337/4/2
f 331/4/2 332/4/2 337/4/2
f 337/4/2 333/4/2 338/4/2
f 335/4/2 336/4/2 339/4/2
f 339/4/2 336/4/2 340/4/2
f 338/4/2 333/4/2 341/4/2
f 341/4/2 333/4/2 342/4/2
f 338/4/2 341/4/2 344/4/2
f 344/4/2 341/4/2 345/4/2
f 345/4/2 341/4/2 346/4/2
f 343/4/2 344/4/2 347/4/2
f 344/4/2 345/4/2 347/4/2
f 347/4/2 345/4/2 348/4/2
f 343/4/2 347/4/2 350/4/2
f 350/4/2 347/4/2 351/4/2
f 349/4/2 350/4/2 352/4/2
f 352/4/2 350/4/2 353/4/2
f 354/3/2 355/3/2 356/3/2
f 354/3/2 356/3/2 359/3/2
f 356/3/2 357/3/2 359/3/2
f 357/4/2 358/4/2 360/4/2
f 359/3/2 357/3/2 360/3/2
f 359/4/2 360/4/2 361/4/2
f 361/4/2 360/4/2 362/4/2
f 360/4/2 358/4/2 363/4/2
f 362/4/2 360/4/2 363/4/2
f 364/4/2 365/4/2 366/4/2
f 366/4/2 365/4/2 367/4/2
f 368/4/2 369/4/2 371/4/2
f 370/4/2 371/4/2 372/4/2
f 371/4/2 369/4/2 373/4/2
f 372/4/2 371/4/2 373/4/2
f 374/4/2 375/4/2 376/4/2
f 376/4/2 375/4/2 377/4/2
f 380/4/2 381/4/2 383/4/2
f 381/4/2 382/4/2 383/4/2
f 378/4/2 379/4/2 385/4/2
f 383/4/2 384/4/2 386/4/2
f 380/4/2 383/4/2 386/4/2
f 386/4/2 384/4/2 387/4/2
f 387/4/2 384/4/2 388/4/2
f 378/4/2 385/4/2 389/4/2
f 385/4/2 386/4/2 389/4/2
f 386/4/2 387/4/2 389/4/2
f 389/4/2 387/4/2 390/4/2
f 391/4/2 392/4/2 393/4/2
f 393/4/2 392/4/2 394/4/2
f 395/3/2 396/3/2 397/3/2
f 397/3/2 396/3/2 398/3/2
f 399/4/2 400/4/2 401/4/2
f 399/4/2 401/4/2 404/4/2
f 401/4/2 402/4/2 404/4/2
f 404/4/2 402/4/2 405/4/2
f 403/4/2 404/4/2 405/4/2
f 403/4/2 405/4/2 410/4/2
f 405/4/2 406/4/2 410/4/2
f 410/4/2 406/4/2 411/4/2
f 407/4/2 408/4/2 414/4/2
f 414/4/2 408/4/2 415/4/2
f 411/4/2 412/4/2 416/4/2
f 409/4/2 410/4/2 416/4/2
f 410/4/2 411/4/2 416/4/2
f 413/4/2 414/4/2 419/4/2
f 416/4/2 417/4/2 420/4/2
f 418/4/2 419/4/2 423/4/2
f 419/4/2 414/4/2 424/4/2
f 423/4/2 419/4/2 424/4/2
f 424/4/2 414/4/2 425/4/2
f 420/4/2 421/4/2 426/4/2
f 422/4/2 423/4/2 427/4/2
f 423/4/2 424/4/2 427/4/2
f 427/4/2 424/4/2 428/4/2
f 428/4/2 424/4/2 429/4/2
f 426/4/2 427/4/2 430/4/2
f 427/4/2 428/4/2 430/4/2
f 430/4/2 428/4/2 431/4/2
f 409/4/2 416/4/2 433/4/2
f 420/4/2 426/4/2 433/4/2
f 426/4/2 430/4/2 433/4/2
f 416/4/2 420/4/2 433/4/2
f 433/4/2 430/4/2 434/4/2
f 434/4/2 430/4/2 435/4/2
f 432/4/2 433/4/2 436/4/2
f 433/4/2 434/4/2 436/4/2
f 436/4/2 434/4/2 437/4/2
f 432/4/2 436/4/2 439/4/2
f 439/4/2 436/4/2 440/4/2
f 440/4/2 436/4/2 441/4/2
f 438/4/2 439/4/2 442/4/2
f 439/4/2 440/4/2 442/4/2
f 442/4/2 440/4/2 443/4/2
f 438/4/2 442/4/2 445/4/2
f 445/4/2 442/4/2 446/4/2
f 444/4/2 445/4/2 446/4/2
f 446/4/2 442/4/2 447/4/2
f 444/4/2 446/4/2 449/4/2
f 449/4/2 446/4/2 450/4/2
f 450/4/2 446/4/2 451/4/2
f 448/4/2 449/4/2 452/4/2
f 449/4/2 450/4/2 452/4/2
f 452/4/2 450/4/2 453/4/2
f 456/3/2 457/3/2 458/3/2
f 458/3/2 457/3/2 459/3/2
f 454/4/2 455/4/2 460/4/2
f 460/4/2 455/4/2 461/4/2
f 458/4/2 459/4/2 462/4/2
f 462/4/2 459/4/2 463/4/2
f 454/4/2 460/4/2 464/4/2
f 460/3/2 461/3/2 465/3/2
f 464/4/2 460/4/2 465/4/2
f 465/3/2 461/3/2 466/3/2
f 463/4/2 459/4/2 467/4/2
f 467/4/2 459/4/2 468/4/2
f 468/4/2 459/4/2 470/4/2
f 454/4/2 464/4/2 472/4/2
f 472/4/2 464/4/2 473/4/2
f 469/4/2 470/4/2 476/4/2
f 470/4/2 459/4/2 477/4/2
f 475/4/2 476/4/2 477/4/2
f 476/4/2 470/4/2 477/4/2
f 477/4/2 459/4/2 478/4/2
f 475/4/2 477/4/2 480/4/2
f 480/4/2 477/4/2 481/4/2
f 479/4/2 480/4/2 481/4/2
f 481/4/2 477/4/2 482/4/2
f 479/4/2 481/4/2 484/4/2
f 484/4/2 481/4/2 485/4/2
f 483/4/2 484/4/2 485/4/2
f 485/4/2 486/4/2 487/4/2
f 473/4/2 474/4/2 489/4/2
f 471/4/2 472/4/2 489/4/2
f 472/4/2 473/4/2 489/4/2
f 489/4/2 474/4/2 490/4/2
f 490/4/2 474/4/2 491/4/2
f 487/4/2 488/4/2 493/4/2
f 493/4/2 494/4/2 495/4/2
f 485/4/2 487/4/2 497/4/2
f 495/4/2 496/4/2 497/4/2
f 493/4/2 495/4/2 497/4/2
f 483/4/2 485/4/2 497/4/2
f 487/4/2 493/4/2 497/4/2
f 497/4/2 496/4/2 498/4/2
f 498/4/2 496/4/2 499/4/2
f 490/4/2 491/4/2 501/4/2
f 491/4/2 492/4/2 501/4/2
f 501/4/2 492/4/2 502/4/2
f 502/4/2 492/4/2 503/4/2
f 499/4/2 500/4/2 505/4/2
f 498/4/2 499/4/2 505/4/2
f 503/4/2 504/4/2 507/4/2
f 502/4/2 503/4/2 507/4/2
f 507/4/2 504/4/2 508/4/2
f 508/4/2 504/4/2 509/4/2
f 509/4/2 510/4/2 511/4/2
f 508/4/2 509/4/2 511/4/2
f 505/4/2 506/4/2 513/4/2
f 498/4/2 505/4/2 513/4/2
f 513/4/2 506/4/2 514/4/2
f 514/4/2 506/4/2 515/4/2
f 515/4/2 506/4/2 516/4/2
f 516/4/2 506/4/2 517/4/2
f 517/4/2 506/4/2 518/4/2
f 516/4/2 517/4/2 519/4/2
f 519/4/2 517/4/2 520/4/2
f 520/4/2 517/4/2 521/4/2
f 521/4/2 517/4/2 522/4/2
f 511/4/2 512/4/2 524/4/2
f 508/4/2 511/4/2 524/4/2
f 520/4/2 521/4/2 525/4/2
f 525/4/2 521/4/2 526/4/2
f 526/4/2 521/4/2 527/4/2
f 527/4/2 521/4/2 528/4/2
f 526/4/2 527/4/2 529/4/2
f 529/4/2 527/4/2 530/4/2
f 530/4/2 527/4/2 531/4/2
f 531/4/2 527/4/2 532/4/2
f 523/4/2 524/4/2 534/4/2
f 530/4/2 531/4/2 535/4/2
f 535/4/2 531/4/2 536/4/2
f 533/4/2 534/4/2 537/4/2
f 524/4/2 512/4/2 537/4/2
f 534/4/2 524/4/2 537/4/2
f 537/4/2 512/4/2 538/4/2
f 533/4/2 537/4/2 539/4/2
f 539/4/2 537/4/2 540/4/2
f 533/4/2 539/4/2 541/4/2
f 541/4/2 539/4/2 542/4/2
f 533/4/2 541/4/2 543/4/2
f 543/4/2 541/4/2 544/4/2
f 548/3/3 546/3/3 545/3/3
f 549/4/3 547/4/3 546/4/3
f 549/3/3 546/3/3 548/3/3
f 550/4/3 547/4/3 549/4/3
f 551/3/3 548/3/3 545/3/3
f 551/1/3 549/1/3 548/1/3
f 552/3/3 550/3/3 549/3/3
f 552/1/3 549/1/3 551/1/3
f 553/3/3 550/3/3 552/3/3
f 554/3/3 551/3/3 545/3/3
f 554/3/3 552/3/3 551/3/3
f 555/4/3 553/4/3 552/4/3
f 555/3/3 552/3/3 554/3/3
f 556/4/3 553/4/3 555/4/3
f 560/4/3 558/4/3 557/4/3
f 561/4/3 558/4/3 560/4/3
f 563/4/3 560/4/3 559/4/3
f 564/3/3 561/3/3 560/3/3
f 565/3/3 561/3/3 564/3/3
f 566/4/3 560/4/3 563/4/3
f 567/3/3 564/3/3 560/3/3
f 567/4/3 560/4/3 566/4/3
f 568/1/3 565/1/3 564/1/3
f 568/3/3 564/3/3 567/3/3
f 569/3/3 561/3/3 565/3/3
f 569/1/3 565/1/3 568/1/3
f 570/3/3 568/3/3 567/3/3
f 570/3/3 567/3/3 566/3/3
f 570/3/3 569/3/3 568/3/3
f 571/3/3 569/3/3 570/3/3
f 572/3/3 569/3/3 571/3/3
f 573/3/3 561/3/3 569/3/3
f 573/3/3 569/3/3 572/3/3
f 574/4/3 571/4/3 570/4/3
f 575/3/3 572/3/3 571/3/3
f 575/1/3 573/1/3 572/1/3
f 576/3/3 561/3/3 573/3/3
f 576/1/3 573/1/3 575/1/3
f 577/4/3 571/4/3 574/4/3
f 578/3/3 575/3/3 571/3/3
f 578/4/3 571/4/3 577/4/3
f 578/3/3 576/3/3 575/3/3
f 579/4/3 562/4/3 561/4/3
f 579/3/3 576/3/3 578/3/3
f 579/3/3 561/3/3 576/3/3
f 580/4/3 562/4/3 579/4/3
f 581/4/3 579/4/3 578/4/3
f 582/4/3 579/4/3 581/4/3
f 585/3/3 584/3/3 583/3/3
f 586/3/3 584/3/3 585/3/3
f 589/3/3 588/3/3 587/3/3
f 590/3/3 588/3/3 589/3/3
f 593/4/3 592/4/3 591/4/3
f 594/4/3 592/4/3 593/4/3
f 597/4/3 596/4/3 595/4/3
f 598/4/3 596/4/3 597/4/3
f 601/4/3 600/4/3 599/4/3
f 602/4/3 600/4/3 601/4/3
f 605/4/3 604/4/3 603/4/3
f 606/4/3 604/4/3 605/4/3
f 613/4/3 608/4/3 607/4/3
f 614/4/3 608/4/3 613/4/3
f 615/4/3 610/4/3 609/4/3
f 616/4/3 610/4/3 615/4/3
f 617/4/3 612/4/3 611/4/3
f 618/4/3 612/4/3 617/4/3
f 619/4/3 612/4/3 618/4/3
f 620/4/3 619/4/3 618/4/3
f 621/4/3 619/4/3 620/4/3
f 622/4/3 620/4/3 618/4/3
f 629/4/3 622/4/3 618/4/3
f 629/4/3 623/4/3 622/4/3
f 630/4/3 623/4/3 629/4/3
f 631/4/3 625/4/3 624/4/3
f 632/4/3 625/4/3 631/4/3
f 633/4/3 627/4/3 626/4/3
f 634/4/3 627/4/3 633/4/3
f 635/4/3 629/4/3 628/4/3
f 635/4/3 630/4/3 629/4/3
f 636/4/3 630/4/3 635/4/3
f 641/4/3 638/4/3 637/4/3
f 642/4/3 638/4/3 641/4/3
f 643/4/3 640/4/3 639/4/3
f 644/4/3 640/4/3 643/4/3
f 649/4/3 645/4/3 644/4/3
f 650/4/3 645/4/3 649/4/3
f 651/4/3 647/4/3 646/4/3
f 652/4/3 647/4/3 651/4/3
f 653/4/3 649/4/3 648/4/3
f 654/4/3 649/4/3 653/4/3
f 657/4/3 656/4/3 655/4/3
f 658/4/3 656/4/3 657/4/3
f 663/4/3 660/4/3 659/4/3
f 664/4/3 660/4/3 663/4/3
f 665/4/3 662/4/3 661/4/3
f 666/4/3 662/4/3 665/4/3
f 669/4/3 668/4/3 667/4/3
f 670/4/3 668/4/3 669/4/3
f 673/4/3 672/4/3 671/4/3
f 674/4/3 672/4/3 673/4/3
f 677/4/3 676/4/3 675/4/3
f 678/4/3 676/4/3 677/4/3
f 681/4/3 680/4/3 679/4/3
f 682/4/3 680/4/3 681/4/3
f 685/4/3 684/4/3 683/4/3
f 686/4/3 684/4/3 685/4/3
f 689/4/3 688/4/3 687/4/3
f 690/4/3 688/4/3 689/4/3
f 691/4/3 689/4/3 687/4/3
f 693/4/3 691/4/3 687/4/3
f 693/4/3 692/4/3 691/4/3
f 694/4/3 692/4/3 693/4/3
f 697/4/3 696/4/3 695/4/3
f 698/4/3 696/4/3 697/4/3
f 701/4/3 700/4/3 699/4/3
f 702/4/3 700/4/3 701/4/3
f 705/4/3 704/4/3 703/4/3
f 706/4/3 704/4/3 705/4/3
f 714/4/3 713/4/3 712/4/3
f 715/4/3 713/4/3 714/4/3
f 716/3/3 708/3/3 707/3/3
f 717/4/3 709/4/3 708/4/3
f 717/3/3 708/3/3 716/3/3
f 718/4/3 709/4/3 717/4/3
f 719/4/3 711/4/3 710/4/3
f 720/4/3 711/4/3 719/4/3
f 721/4/3 714/4/3 712/4/3
f 722/4/3 714/4/3 721/4/3
f 729/4/3 714/4/3 722/4/3
f 730/4/3 714/4/3 729/4/3
f 730/4/3 729/4/3 728/4/3
f 732/3/3 724/3/3 723/3/3
f 733/4/3 725/4/3 724/4/3
f 733/3/3 724/3/3 732/3/3
f 734/4/3 725/4/3 733/4/3
f 735/4/3 727/4/3 726/4/3
f 736/4/3 727/4/3 735/4/3
f 737/4/3 731/4/3 730/4/3
f 737/4/3 730/4/3 728/4/3
f 738/4/3 731/4/3 737/4/3
f 743/4/3 742/4/3 741/4/3
f 744/4/3 742/4/3 743/4/3
f 745/4/3 740/4/3 739/4/3
f 746/4/3 740/4/3 745/4/3
f 751/4/3 748/4/3 747/4/3
f 752/4/3 748/4/3 751/4/3
f 753/4/3 750/4/3 749/4/3
f 754/4/3 750/4/3 753/4/3
f 759/4/3 758/4/3 757/4/3
f 760/4/3 758/4/3 759/4/3
f 761/4/3 756/4/3 755/4/3
f 762/4/3 756/4/3 761/4/3
f 767/4/3 764/4/3 763/4/3
f 768/4/3 764/4/3 767/4/3
f 769/4/3 766/4/3 765/4/3
f 770/4/3 766/4/3 769/4/3
f 775/4/3 774/4/3 773/4/3
f 776/4/3 774/4/3 775/4/3
f 777/4/3 772/4/3 771/4/3
f 778/4/3 772/4/3 777/4/3
f 783/4/3 780/4/3 779/4/3
f 784/4/3 780/4/3 783/4/3
f 785/4/3 782/4/3 781/4/3
f 786/4/3 782/4/3 785/4/3
f 791/4/3 790/4/3 789/4/3
f 792/4/3 790/4/3 791/4/3
f 794/4/3 788/4/3 787/4/3
f 795/4/3 794/4/3 793/4/3
f 796/4/3 788/4/3 794/4/3
f 796/4/3 794/4/3 795/4/3
f 799/4/3 798/4/3 797/4/3
f 800/4/3 798/4/3 799/4/3
f 803/4/3 798/4/3 800/4/3
f 804/4/3 798/4/3 803/4/3
f 805/4/3 802/4/3 801/4/3
f 806/4/3 802/4/3 805/4/3
f 809/4/3 808/4/3 807/4/3
f 810/4/3 808/4/3 809/4/3
f 813/4/3 812/4/3 811/4/3
f 814/4/3 812/4/3 813/4/3
f 815/3/4 816/3/4 817/3/4
f 817/3/4 816/3/4 818/3/4
f 819/3/4 820/3/4 821/3/4
f 821/3/4 820/3/4 822/3/4
f 823/4/4 824/4/4 825/4/4
f 825/4/4 824/4/4 826/4/4
f 827/3/4 828/3/4 829/3/4
f 829/3/4 828/3/4 830/3/4
f 831/4/4 832/4/4 833/4/4
f 833/4/4 832/4/4 834/4/4
f 833/3/4 834/3/4 835/3/4
f 834/4/4 832/4/4 836/4/4
f 835/3/4 834/3/4 836/3/4
f 836/4/4 832/4/4 837/4/4
f 838/3/4 839/3/4 841/3/4
f 839/4/4 840/4/4 842/4/4
f 841/3/4 839/3/4 842/3/4
f 841/4/4 842/4/4 843/4/4
f 842/4/4 840/4/4 844/4/4
f 843/4/4 842/4/4 844/4/4
f 845/4/4 846/4/4 847/4/4
f 847/4/4 846/4/4 848/4/4
f 849/4/4 850/4/4 853/4/4
f 853/4/4 850/4/4 854/4/4
f 851/4/4 852/4/4 855/4/4
f 855/4/4 852/4/4 856/4/4
f 862/4/4 863/4/4 864/4/4
f 864/4/4 863/4/4 865/4/4
f 857/4/4 858/4/4 866/4/4
f 858/3/4 859/3/4 867/3/4
f 866/4/4 858/4/4 867/4/4
f 867/3/4 859/3/4 868/3/4
f 860/4/4 861/4/4 869/4/4
f 869/4/4 861/4/4 870/4/4
f 871/4/4 872/4/4 878/4/4
f 872/3/4 873/3/4 879/3/4
f 878/4/4 872/4/4 879/4/4
f 879/3/4 873/3/4 880/3/4
f 874/4/4 875/4/4 881/4/4
f 881/4/4 875/4/4 882/4/4
f 876/4/4 877/4/4 883/4/4
f 883/4/4 877/4/4 884/4/4
f 885/4/4 886/4/4 889/4/4
f 887/4/4 888/4/4 891/4/4
f 891/4/4 888/4/4 892/4/4
f 889/4/4 890/4/4 893/4/4
f 885/4/4 889/4/4 893/4/4
f 893/4/4 890/4/4 894/4/4
f 895/4/4 896/4/4 899/4/4
f 899/4/4 896/4/4 900/4/4
f 897/4/4 898/4/4 901/4/4
f 901/4/4 898/4/4 902/4/4
f 897/4/4 901/4/4 905/4/4
f 905/4/4 901/4/4 906/4/4
f 903/4/4 904/4/4 907/4/4
f 907/4/4 904/4/4 908/4/4
f 909/4/4 910/4/4 913/4/4
f 913/4/4 910/4/4 914/4/4
f 911/4/4 912/4/4 915/4/4
f 915/4/4 912/4/4 916/4/4
f 917/4/4 918/4/4 921/4/4
f 921/4/4 918/4/4 922/4/4
f 919/4/4 920/4/4 923/4/4
f 923/4/4 920/4/4 924/4/4
f 925/4/4 926/4/4 927/4/4
f 927/4/4 926/4/4 928/4/4
f 928/4/4 926/4/4 929/4/4
f 930/4/4 931/4/4 933/4/4
f 931/4/4 932/4/4 933/4/4
f 933/4/4 932/4/4 934/4/4
f 935/4/4 936/4/4 937/4/4
f 937/4/4 936/4/4 938/4/4
f 939/4/4 940/4/4 941/4/4
f 941/4/4 940/4/4 942/4/4
f 943/4/4 944/4/4 945/4/4
f 945/4/4 944/4/4 946/4/4
f 947/4/4 948/4/4 949/4/4
f 949/4/4 948/4/4 950/4/4
f 951/4/4 952/4/4 953/4/4
f 953/4/4 952/4/4 954/4/4
f 955/4/4 956/4/4 957/4/4
f 957/4/4 956/4/4 958/4/4
f 959/4/4 960/4/4 961/4/4
f 961/4/4 960/4/4 962/4/4
f 963/4/4 964/4/4 969/4/4
f 969/4/4 964/4/4 970/4/4
f 965/4/4 966/4/4 971/4/4
f 971/4/4 966/4/4 972/4/4
f 967/4/4 968/4/4 977/4/4
f 977/4/4 968/4/4 978/4/4
f 973/4/4 974/4/4 979/4/4
f 979/4/4 974/4/4 980/4/4
f 975/4/4 976/4/4 981/4/4
f 981/4/4 976/4/4 982/4/4
f 983/3/4 984/3/4 986/3/4
f 984/4/4 985/4/4 987/4/4
f 986/3/4 984/3/4 987/3/4
f 987/4/4 985/4/4 988/4/4
f 989/3/4 990/3/4 992/3/4
f 990/4/4 991/4/4 993/4/4
f 992/3/4 990/3/4 993/3/4
f 993/4/4 991/4/4 994/4/4
f 997/4/4 998/4/4 999/4/4
f 999/4/4 998/4/4 1000/4/4
f 995/4/4 996/4/4 1001/4/4
f 1001/4/4 996/4/4 1002/4/4
f 1003/4/4 1004/4/4 1007/4/4
f 1007/4/4 1004/4/4 1008/4/4
f 1005/4/4 1006/4/4 1009/4/4
f 1009/4/4 1006/4/4 1010/4/4
f 1013/4/4 1014/4/4 1015/4/4
f 1015/4/4 1014/4/4 1016/4/4
f 1011/4/4 1012/4/4 1019/4/4
f 1019/4/4 1012/4/4 1020/4/4
f 1017/4/4 1018/4/4 1025/4/4
f 1025/4/4 1018/4/4 1026/4/4
f 1021/4/4 1022/4/4 1027/4/4
f 1027/4/4 1022/4/4 1028/4/4
f 1023/4/4 1024/4/4 1029/4/4
f 1029/4/4 1024/4/4 1030/4/4
f 1031/4/4 1032/4/4 1033/4/4
f 1033/4/4 1032/4/4 1034/4/4
f 1037/4/4 1038/4/4 1039/4/4
f 1039/4/4 1038/4/4 1040/4/4
f 1035/4/4 1036/4/4 1043/4/4
f 1043/4/4 1036/4/4 1044/4/4
f 1041/4/4 1042/4/4 1049/4/4
f 1049/4/4 1042/4/4 1050/4/4
f 1045/4/4 1046/4/4 1051/4/4
f 1051/4/4 1046/4/4 1052/4/4
f 1047/4/4 1048/4/4 1053/4/4
f 1053/4/4 1048/4/4 1054/4/4
f 1057/4/4 1058/4/4 1059/4/4
f 1059/4/4 1058/4/4 1060/4/4
f 1060/4/4 1061/4/4 1062/4/4
f 1062/4/4 1061/4/4 1063/4/4
f 1055/4/4 1056/4/4 1064/4/4
f 1064/4/4 1056/4/4 1065/4/4
f 1063/4/4 1061/4/4 1067/4/4
f 1065/4/4 1066/4/4 1068/4/4
f 1067/4/4 1061/4/4 1069/4/4
f 1065/4/4 1068/4/4 1070/4/4
f 1069/4/4 1061/4/4 1071/4/4
f 1065/4/4 1070/4/4 1073/4/4
f 1073/4/4 1070/4/4 1074/4/4
f 1071/4/4 1061/4/4 1075/4/4
f 1075/4/4 1061/4/4 1077/4/4
f 1076/4/4 1077/4/4 1079/4/4
f 1077/4/4 1061/4/4 1080/4/4
f 1079/4/4 1077/4/4 1080/4/4
f 1072/4/4 1073/4/4 1081/4/4
f 1081/4/4 1073/4/4 1082/4/4
f 1078/4/4 1079/4/4 1083/4/4
f 1083/4/4 1079/4/4 1084/4/4
f 1085/4/4 1086/4/4 1087/4/4
f 1085/4/4 1087/4/4 1089/4/4
f 1087/4/4 1088/4/4 1089/4/4
f 1089/4/4 1088/4/4 1090/4/4
f 1085/4/4 1089/4/4 1092/4/4
f 1092/4/4 1089/4/4 1093/4/4
f 1089/3/4 1090/3/4 1094/3/4
f 1093/4/4 1089/4/4 1094/4/4
f 1090/4/4 1091/4/4 1095/4/4
f 1094/3/4 1090/3/4 1095/3/4
f 1095/4/4 1091/4/4 1096/4/4
f 1093/3/4 1094/3/4 1097/3/4
f 1095/3/4 1096/3/4 1097/3/4
f 1094/3/4 1095/3/4 1097/3/4
f 1097/3/4 1096/3/4 1098/3/4
f 1098/3/4 1096/3/4 1099/3/4
f 1099/3/4 1096/3/4 1100/3/4
f 1097/4/4 1098/4/4 1101/4/4
f 1098/3/4 1099/3/4 1101/3/4
f 1099/4/4 1100/4/4 1102/4/4
f 1101/3/4 1099/3/4 1102/3/4
f 1097/4/4 1101/4/4 1103/4/4
f 1101/4/4 1102/4/4 1103/4/4
f 1102/4/4 1100/4/4 1104/4/4
f 1103/4/4 1102/4/4 1104/4/4
f 1097/4/4 1103/4/4 1105/4/4
f 1103/3/4 1104/3/4 1106/3/4
f 1105/4/4 1103/4/4 1106/4/4
f 1104/4/4 1100/4/4 1107/4/4
f 1106/3/4 1104/3/4 1107/3/4
f 1107/4/4 1100/4/4 1108/4/4
f 1105/3/4 1106/3/4 1110/3/4
f 1106/3/4 1107/3/4 1110/3/4
f 1107/3/4 1108/3/4 1110/3/4
f 1110/3/4 1108/3/4 1111/3/4
f 1111/3/4 1108/3/4 1112/3/4
f 1112/3/4 1108/3/4 1113/3/4
f 1109/4/4 1110/4/4 1114/4/4
f 1110/4/4 1111/4/4 1114/4/4
f 1111/3/4 1112/3/4 1114/3/4
f 1112/4/4 1113/4/4 1115/4/4
f 1114/3/4 1112/3/4 1115/3/4
f 1115/4/4 1113/4/4 1116/4/4
f 1114/4/4 1115/4/4 1117/4/4
f 1117/4/4 1115/4/4 1118/4/4
f 1109/4/4 1114/4/4 1119/4/4
f 1114/4/4 1117/4/4 1119/4/4
f 1119/4/4 1117/4/4 1120/4/4
f 1125/4/5 1122/4/5 1121/4/5
f 1126/4/5 1122/4/5 1125/4/5
f 1127/4/5 1125/4/5 1121/4/5
f 1127/3/5 1126/3/5 1125/3/5
f 1128/4/5 1122/4/5 1126/4/5
f 1128/3/5 1126/3/5 1127/3/5
f 1129/4/5 1127/4/5 1121/4/5
f 1129/4/5 1128/4/5 1127/4/5
f 1130/4/5 1122/4/5 1128/4/5
f 1130/4/5 1128/4/5 1129/4/5
f 1131/4/5 1124/4/5 1123/4/5
f 1132/4/5 1124/4/5 1131/4/5
f 1137/3/5 1134/3/5 1133/3/5
f 1138/3/5 1134/3/5 1137/3/5
f 1139/3/5 1136/3/5 1135/3/5
f 1140/3/5 1136/3/5 1139/3/5
f 1145/4/5 1142/4/5 1141/4/5
f 1146/4/5 1142/4/5 1145/4/5
f 1147/4/5 1144/4/5 1143/4/5
f 1148/4/5 1144/4/5 1147/4/5
f 1153/4/5 1150/4/5 1149/4/5
f 1154/4/5 1150/4/5 1153/4/5
f 1155/4/5 1152/4/5 1151/4/5
f 1156/4/5 1152/4/5 1155/4/5
f 1161/4/5 1158/4/5 1157/4/5
f 1162/4/5 1158/4/5 1161/4/5
f 1163/4/5 1160/4/5 1159/4/5
f 1164/4/5 1160/4/5 1163/4/5
f 1169/4/5 1166/4/5 1165/4/5
f 1170/4/5 1166/4/5 1169/4/5
f 1171/4/5 1168/4/5 1167/4/5
f 1172/4/5 1168/4/5 1171/4/5
f 1177/4/5 1174/4/5 1173/4/5
f 1178/4/5 1174/4/5 1177/4/5
f 1179/4/5 1176/4/5 1175/4/5
f 1180/4/5 1176/4/5 1179/4/5
f 1185/4/5 1182/4/5 1181/4/5
f 1186/4/5 1182/4/5 1185/4/5
f 1187/4/5 1184/4/5 1183/4/5
f 1188/4/5 1184/4/5 1187/4/5
f 1193/4/5 1190/4/5 1189/4/5
f 1194/4/5 1190/4/5 1193/4/5
f 1195/4/5 1192/4/5 1191/4/5
f 1196/4/5 1192/4/5 1195/4/5
f 1201/4/5 1198/4/5 1197/4/5
f 1202/4/5 1198/4/5 1201/4/5
f 1203/4/5 1200/4/5 1199/4/5
f 1204/4/5 1200/4/5 1203/4/5
f 1209/4/5 1206/4/5 1205/4/5
f 1210/4/5 1206/4/5 1209/4/5
f 1211/4/5 1208/4/5 1207/4/5
f 1212/4/5 1208/4/5 1211/4/5
f 1217/4/5 1214/4/5 1213/4/5
f 1218/4/5 1214/4/5 1217/4/5
f 1219/4/5 1216/4/5 1215/4/5
f 1220/4/5 1216/4/5 1219/4/5
f 1225/4/5 1222/4/5 1221/4/5
f 1226/4/5 1222/4/5 1225/4/5
f 1227/4/5 1224/4/5 1223/4/5
f 1228/4/5 1224/4/5 1227/4/5
f 1233/4/5 1230/4/5 1229/4/5
f 1234/4/5 1230/4/5 1233/4/5
f 1235/4/5 1232/4/5 1231/4/5
f 1236/4/5 1232/4/5 1235/4/5
f 1241/4/5 1238/4/5 1237/4/5
f 1242/4/5 1238/4/5 1241/4/5
f 1243/4/5 1240/4/5 1239/4/5
f 1244/4/5 1240/4/5 1243/4/5
f 1248/4/5 1246/4/5 1245/4/5
f 1249/4/5 1246/4/5 1248/4/5
f 1251/4/5 1248/4/5 1247/4/5
f 1252/4/5 1248/4/5 1251/4/5
f 1253/4/5 1250/4/5 1249/4/5
f 1254/4/5 1250/4/5 1253/4/5
f 1259/4/5 1256/4/5 1255/4/5
f 1260/4/5 1256/4/5 1259/4/5
f 1261/4/5 1258/4/5 1257/4/5
f 1262/4/5 1258/4/5 1261/4/5
f 1265/4/5 1264/4/5 1263/4/5
f 1266/4/5 1264/4/5 1265/4/5
f 1271/3/5 1268/3/5 1267/3/5
f 1272/4/5 1269/4/5 1268/4/5
f 1272/3/5 1268/3/5 1271/3/5
f 1273/3/5 1270/3/5 1269/3/5
f 1273/4/5 1269/4/5 1272/4/5
f 1274/3/5 1270/3/5 1273/3/5
f 1279/4/5 1276/4/5 1275/4/5
f 1280/4/5 1276/4/5 1279/4/5
f 1281/4/5 1278/4/5 1277/4/5
f 1282/4/5 1278/4/5 1281/4/5
f 1285/4/5 1284/4/5 1283/4/5
f 1286/4/5 1284/4/5 1285/4/5
f 1289/4/5 1288/4/5 1287/4/5
f 1290/4/5 1288/4/5 1289/4/5
f 1294/4/5 1292/4/5 1291/4/5
f 1295/4/5 1292/4/5 1294/4/5
f 1297/4/5 1294/4/5 1293/4/5
f 1297/4/5 1296/4/5 1295/4/5
f 1297/4/5 1295/4/5 1294/4/5
f 1298/4/5 1296/4/5 1297/4/5
f 1299/4/5 1296/4/5 1298/4/5
f 1300/4/5 1296/4/5 1299/4/5
f 1301/4/5 1298/4/5 1297/4/5
f 1302/4/5 1298/4/5 1301/4/5
f 1303/4/5 1300/4/5 1299/4/5
f 1304/4/5 1300/4/5 1303/4/5
f 1309/4/5 1306/4/5 1305/4/5
f 1310/4/5 1306/4/5 1309/4/5
f 1311/4/5 1308/4/5 1307/4/5
f 1312/4/5 1308/4/5 1311/4/5
f 1315/4/5 1314/4/5 1313/4/5
f 1316/4/5 1314/4/5 1315/4/5
f 1319/4/5 1318/4/5 1317/4/5
f 1320/4/5 1318/4/5 1319/4/5
f 1325/4/5 1322/4/5 1321/4/5
f 1326/4/5 1322/4/5 1325/4/5
f 1327/4/5 1324/4/5 1323/4/5
f 1328/4/5 1324/4/5 1327/4/5
f 1329/4/5 1327/4/5 1326/4/5
f 1330/4/5 1327/4/5 1329/4/5
f 1333/4/5 1332/4/5 1331/4/5
f 1334/4/5 1332/4/5 1333/4/5
f 1337/3/5 1336/3/5 1335/3/5
f 1338/3/5 1336/3/5 1337/3/5
f 1341/3/5 1340/3/5 1339/3/5
f 1342/3/5 1340/3/5 1341/3/5
f 1344/4/5 1342/4/5 1341/4/5
f 1345/4/5 1342/4/5 1344/4/5
f 1347/4/5 1345/4/5 1344/4/5
f 1347/4/5 1346/4/5 1345/4/5
f 1347/4/5 1344/4/5 1343/4/5
f 1348/4/5 1346/4/5 1347/4/5
f 1353/4/5 1350/4/5 1349/4/5
f 1354/4/5 1350/4/5 1353/4/5
f 1355/4/5 1352/4/5 1351/4/5
f 1356/4/5 1352/4/5 1355/4/5
f 1362/4/5 1358/4/5 1357/4/5
f 1363/4/5 1360/4/5 1359/4/5
f 1365/3/5 1362/3/5 1361/3/5
f 1366/4/5 1358/4/5 1362/4/5
f 1366/3/5 1362/3/5 1365/3/5
f 1367/3/5 1364/3/5 1363/3/5
f 1367/4/5 1363/4/5 1359/4/5
f 1368/3/5 1364/3/5 1367/3/5
f 1369/4/5 1358/4/5 1366/4/5
f 1370/4/5 1358/4/5 1369/4/5
f 1371/4/5 1367/4/5 1359/4/5
f 1372/4/5 1367/4/5 1371/4/5
f 1373/4/6 1374/4/6 1377/4/6
f 1377/4/6 1374/4/6 1378/4/6
f 1375/4/6 1376/4/6 1379/4/6
f 1379/4/6 1376/4/6 1380/4/6
f 1378/4/6 1374/4/6 1381/4/6
f 1381/4/6 1374/4/6 1382/4/6
f 1375/4/6 1379/4/6 1383/4/6
f 1383/4/6 1379/4/6 1384/4/6
f 1385/4/6 1386/4/6 1391/4/6
f 1386/3/6 1387/3/6 1392/3/6
f 1391/4/6 1386/4/6 1392/4/6
f 1389/4/6 1390/4/6 1393/4/6
f 1388/3/6 1389/3/6 1393/3/6
f 1393/4/6 1390/4/6 1394/4/6
f 1391/3/6 1392/3/6 1395/3/6
f 1392/3/6 1387/3/6 1396/3/6
f 1395/3/6 1392/3/6 1396/3/6
f 1388/3/6 1393/3/6 1397/3/6
f 1393/3/6 1394/3/6 1397/3/6
f 1397/3/6 1394/3/6 1398/3/6
f 1399/4/6 1400/4/6 1403/4/6
f 1403/4/6 1400/4/6 1404/4/6
f 1401/4/6 1402/4/6 1405/4/6
f 1405/4/6 1402/4/6 1406/4/6
f 1407/4/6 1408/4/6 1411/4/6
f 1411/4/6 1408/4/6 1412/4/6
f 1409/4/6 1410/4/6 1413/4/6
f 1413/4/6 1410/4/6 1414/4/6
f 1415/4/6 1416/4/6 1419/4/6
f 1419/4/6 1416/4/6 1420/4/6
f 1417/4/6 1418/4/6 1421/4/6
f 1421/4/6 1418/4/6 1422/4/6
f 1423/4/6 1424/4/6 1427/4/6
f 1427/4/6 1424/4/6 1428/4/6
f 1425/4/6 1426/4/6 1429/4/6
f 1429/4/6 1426/4/6 1430/4/6
f 1431/4/6 1432/4/6 1435/4/6
f 1435/4/6 1432/4/6 1436/4/6
f 1433/4/6 1434/4/6 1437/4/6
f 1437/4/6 1434/4/6 1438/4/6
f 1439/4/6 1440/4/6 1443/4/6
f 1443/4/6 1440/4/6 1444/4/6
f 1441/4/6 1442/4/6 1445/4/6
f 1445/4/6 1442/4/6 1446/4/6
f 1447/4/6 1448/4/6 1451/4/6
f 1451/4/6 1448/4/6 1452/4/6
f 1449/4/6 1450/4/6 1453/4/6
f 1453/4/6 1450/4/6 1454/4/6
f 1455/4/6 1456/4/6 1459/4/6
f 1459/4/6 1456/4/6 1460/4/6
f 1457/4/6 1458/4/6 1461/4/6
f 1461/4/6 1458/4/6 1462/4/6
f 1463/4/6 1464/4/6 1467/4/6
f 1467/4/6 1464/4/6 1468/4/6
f 1465/4/6 1466/4/6 1469/4/6
f 1469/4/6 1466/4/6 1470/4/6
f 1471/4/6 1472/4/6 1475/4/6
f 1475/4/6 1472/4/6 1476/4/6
f 1473/4/6 1474/4/6 1477/4/6
f 1477/4/6 1474/4/6 1478/4/6
f 1479/4/6 1480/4/6 1483/4/6
f 1483/4/6 1480/4/6 1484/4/6
f 1481/4/6 1482/4/6 1485/4/6
f 1485/4/6 1482/4/6 1486/4/6
f 1487/4/6 1488/4/6 1491/4/6
f 1491/4/6 1488/4/6 1492/4/6
f 1489/4/6 1490/4/6 1495/4/6
f 1495/4/6 1490/4/6 1496/4/6
f 1492/4/6 1493/4/6 1497/4/6
f 1497/4/6 1493/4/6 1498/4/6
f 1494/4/6 1495/4/6 1499/4/6
f 1499/4/6 1495/4/6 1500/4/6
f 1501/4/6 1502/4/6 1505/4/6
f 1505/4/6 1502/4/6 1506/4/6
f 1503/4/6 1504/4/6 1507/4/6
f 1507/4/6 1504/4/6 1508/4/6
f 1509/4/6 1510/4/6 1513/4/6
f 1513/4/6 1510/4/6 1514/4/6
f 1511/4/6 1512/4/6 1515/4/6
f 1515/4/6 1512/4/6 1516/4/6
f 1517/4/6 1518/4/6 1523/4/6
f 1518/3/6 1519/3/6 1524/3/6
f 1523/4/6 1518/4/6 1524/4/6
f 1519/4/6 1520/4/6 1525/4/6
f 1524/3/6 1519/3/6 1525/3/6
f 1520/3/6 1521/3/6 1526/3/6
f 1525/4/6 1520/4/6 1526/4/6
f 1521/4/6 1522/4/6 1527/4/6
f 1526/3/6 1521/3/6 1527/3/6
f 1527/4/6 1522/4/6 1528/4/6
f 1529/4/6 1530/4/6 1533/4/6
f 1533/4/6 1530/4/6 1534/4/6
f 1531/4/6 1532/4/6 1535/4/6
f 1535/4/6 1532/4/6 1536/4/6
f 1537/4/6 1538/4/6 1541/4/6
f 1541/4/6 1538/4/6 1542/4/6
f 1539/4/6 1540/4/6 1543/4/6
f 1543/4/6 1540/4/6 1544/4/6
f 1545/4/6 1546/4/6 1547/4/6
f 1547/4/6 1546/4/6 1548/4/6
f 1549/4/6 1550/4/6 1553/4/6
f 1553/4/6 1550/4/6 1554/4/6
f 1551/4/6 1552/4/6 1555/4/6
f 1555/4/6 1552/4/6 1556/4/6
f 1557/4/6 1558/4/6 1559/4/6
f 1559/4/6 1558/4/6 1560/4/6
f 1561/4/6 1562/4/6 1563/4/6
f 1563/4/6 1562/4/6 1564/4/6
f 1565/4/6 1566/4/6 1569/4/6
f 1569/4/6 1566/4/6 1570/4/6
f 1567/4/6 1568/4/6 1571/4/6
f 1571/4/6 1568/4/6 1572/4/6
f 1573/4/6 1574/4/6 1575/4/6
f 1575/4/6 1574/4/6 1576/4/6
f 1577/4/6 1578/4/6 1579/4/6
f 1579/4/6 1578/4/6 1580/4/6
f 1581/4/6 1582/4/6 1585/4/6
f 1585/4/6 1582/4/6 1586/4/6
f 1583/4/6 1584/4/6 1587/4/6
f 1587/4/6 1584/4/6 1588/4/6
f 1589/4/6 1590/4/6 1591/4/6
f 1591/4/6 1590/4/6 1592/4/6
f 1593/4/6 1594/4/6 1595/4/6
f 1595/4/6 1594/4/6 1596/4/6
f 1597/4/6 1598/4/6 1601/4/6
f 1601/4/6 1598/4/6 1602/4/6
f 1599/4/6 1600/4/6 1603/4/6
f 1603/4/6 1600/4/6 1604/4/6
f 1605/4/6 1606/4/6 1609/4/6
f 1606/3/6 1607/3/6 1610/3/6
f 1609/4/6 1606/4/6 1610/4/6
f 1607/4/6 1608/4/6 1611/4/6
f 1610/3/6 1607/3/6 1611/3/6
f 1611/4/6 1608/4/6 1612/4/6
f 1613/4/6 1614/4/6 1615/4/6
f 1615/4/6 1614/4/6 1616/4/6
f 1617/4/6 1618/4/6 1621/4/6
f 1621/4/6 1618/4/6 1622/4/6
f 1619/4/6 1620/4/6 1623/4/6
f 1623/4/6 1620/4/6 1624/4/6
f 1617/4/6 1621/4/6 1625/4/6
f 1625/4/6 1621/4/6 1626/4/6
f 1624/4/6 1620/4/6 1627/4/6
f 1627/4/6 1620/4/6 1628/4/6
f 1629/4/6 1630/4/6 1631/4/6
f 1631/4/6 1630/4/6 1632/4/6
f 1633/4/6 1634/4/6 1637/4/6
f 1635/4/6 1636/4/6 1638/4/6
f 1633/4/6 1637/4/6 1639/4/6
f 1637/4/6 1638/4/6 1639/4/6
f 1638/4/6 1636/4/6 1640/4/6
f 1639/4/6 1638/4/6 1640/4/6
f 1641/3/6 1642/3/6 1645/3/6
f 1645/3/6 1642/3/6 1646/3/6
f 1643/3/6 1644/3/6 1647/3/6
f 1647/3/6 1644/3/6 1648/3/6
f 1649/4/6 1650/4/6 1651/4/6
f 1651/4/6 1650/4/6 1652/4/6
f 1653/4/6 1654/4/6 1657/4/6
f 1655/4/6 1656/4/6 1658/4/6
f 1653/4/6 1657/4/6 1659/4/6
f 1657/4/6 1658/4/6 1659/4/6
f 1658/4/6 1656/4/6 1660/4/6
f 1659/4/6 1658/4/6 1660/4/6
f 1661/4/6 1662/4/6 1663/4/6
f 1663/4/6 1662/4/6 1664/4/6
