# MagicaVoxel @ Ephtracy

# group
g koala

# material
mtllib koala.mtl
usemtl palette

# normals
vn -1 0 0
vn 1 0 0
vn 0 0 1
vn 0 0 -1
vn 0 -1 0
vn 0 1 0

# texcoords
vt 0.962891 0.5
vt 0.986328 0.5
vt 0.994141 0.5

# verts
v -13 0 3.5
v -13 0 2.5
v -13 0 -5.5
v -13 1 3.5
v -13 1 2.5
v -13 3 2.5
v -13 3 -1.5
v -13 6 -5.5
v -13 6 -12.5
v -13 14 -1.5
v -13 14 -12.5
v -13 35 6.5
v -13 35 -1.5
v -13 42 6.5
v -13 42 -1.5
v -11 16 8.5
v -11 16 7.5
v -11 16 -1.5
v -11 18 8.5
v -11 18 7.5
v -11 18 -1.5
v -10 0 3.5
v -10 0 2.5
v -10 1 3.5
v -10 1 2.5
v -8 6 2.5
v -8 6 -1.5
v -8 6 -12.5
v -8 6 -13.5
v -8 7 -13.5
v -8 7 -14.5
v -8 8 -14.5
v -8 8 -15.5
v -8 9 -15.5
v -8 9 -16.5
v -8 14 -1.5
v -8 14 -12.5
v -8 16 2.5
v -8 16 -1.5
v -8 18 2.5
v -8 18 -1.5
v -8 21 13.5
v -8 21 2.5
v -8 22 -15.5
v -8 22 -16.5
v -8 24 -13.5
v -8 24 -15.5
v -8 30 13.5
v -8 30 12.5
v -8 30 -10.5
v -8 30 -13.5
v -8 33 -6.5
v -8 33 -10.5
v -8 35 13.5
v -8 35 12.5
v -8 35 6.5
v -8 35 -1.5
v -8 36 6.5
v -8 36 -2.5
v -8 36 -6.5
v -8 37 13.5
v -8 37 12.5
v -8 38 12.5
v -8 38 9.5
v -8 39 9.5
v -8 39 6.5
v -8 39 -1.5
v -8 39 -2.5
v -3 24 16.5
v -3 24 13.5
v -3 30 13.5
v -3 33 16.5
v -3 33 13.5
v 4 39 6.5
v 4 39 -1.5
v 4 42 6.5
v 4 42 -1.5
v 9 0 3.5
v 9 0 2.5
v 9 0 -5.5
v 9 1 3.5
v 9 1 2.5
v 9 3 2.5
v 9 3 -1.5
v 9 6 -1.5
v 9 6 -5.5
v 9 16 8.5
v 9 16 7.5
v 9 16 2.5
v 9 18 8.5
v 9 18 7.5
v 9 18 2.5
v 12 0 3.5
v 12 0 2.5
v 12 1 3.5
v 12 1 2.5
v -12 0 3.5
v -12 0 2.5
v -12 1 3.5
v -12 1 2.5
v -9 0 3.5
v -9 0 2.5
v -9 0 -5.5
v -9 1 3.5
v -9 1 2.5
v -9 3 2.5
v -9 3 -1.5
v -9 6 -1.5
v -9 6 -5.5
v -9 16 8.5
v -9 16 7.5
v -9 16 2.5
v -9 18 8.5
v -9 18 7.5
v -9 18 2.5
v -4 39 6.5
v -4 39 -1.5
v -4 42 6.5
v -4 42 -1.5
v 3 24 16.5
v 3 24 13.5
v 3 30 13.5
v 3 33 16.5
v 3 33 13.5
v 8 6 2.5
v 8 6 -1.5
v 8 6 -12.5
v 8 6 -13.5
v 8 7 -13.5
v 8 7 -14.5
v 8 8 -14.5
v 8 8 -15.5
v 8 9 -15.5
v 8 9 -16.5
v 8 14 -1.5
v 8 14 -12.5
v 8 16 2.5
v 8 16 -1.5
v 8 18 2.5
v 8 18 -1.5
v 8 21 13.5
v 8 21 2.5
v 8 22 -15.5
v 8 22 -16.5
v 8 24 -13.5
v 8 24 -15.5
v 8 30 13.5
v 8 30 12.5
v 8 30 -10.5
v 8 30 -13.5
v 8 33 -6.5
v 8 33 -10.5
v 8 35 13.5
v 8 35 12.5
v 8 35 6.5
v 8 35 -1.5
v 8 36 6.5
v 8 36 -2.5
v 8 36 -6.5
v 8 37 13.5
v 8 37 12.5
v 8 38 12.5
v 8 38 9.5
v 8 39 9.5
v 8 39 6.5
v 8 39 -1.5
v 8 39 -2.5
v 10 0 3.5
v 10 0 2.5
v 10 1 3.5
v 10 1 2.5
v 11 16 8.5
v 11 16 7.5
v 11 16 -1.5
v 11 18 8.5
v 11 18 7.5
v 11 18 -1.5
v 13 0 3.5
v 13 0 2.5
v 13 0 -5.5
v 13 1 3.5
v 13 1 2.5
v 13 3 2.5
v 13 3 -1.5
v 13 6 -5.5
v 13 6 -12.5
v 13 14 -1.5
v 13 14 -12.5
v 13 35 6.5
v 13 35 -1.5
v 13 42 6.5
v 13 42 -1.5
v -3 24 16.5
v -3 33 16.5
v 3 24 16.5
v 3 33 16.5
v -8 21 13.5
v -8 30 13.5
v -8 35 13.5
v -8 37 13.5
v -7 31 13.5
v -7 34 13.5
v -4 31 13.5
v -4 34 13.5
v -3 22 13.5
v -3 24 13.5
v -3 30 13.5
v -3 33 13.5
v -3 35 13.5
v 3 22 13.5
v 3 24 13.5
v 3 30 13.5
v 3 33 13.5
v 3 35 13.5
v 4 31 13.5
v 4 34 13.5
v 7 31 13.5
v 7 34 13.5
v 8 21 13.5
v 8 30 13.5
v 8 35 13.5
v 8 37 13.5
v -8 37 12.5
v -8 38 12.5
v 8 37 12.5
v 8 38 12.5
v -8 38 9.5
v -8 39 9.5
v 8 38 9.5
v 8 39 9.5
v -11 16 8.5
v -11 18 8.5
v -9 16 8.5
v -9 18 8.5
v 9 16 8.5
v 9 18 8.5
v 11 16 8.5
v 11 18 8.5
v -13 35 6.5
v -13 42 6.5
v -12 36 6.5
v -12 41 6.5
v -8 35 6.5
v -8 36 6.5
v -8 39 6.5
v -6 39 6.5
v -6 41 6.5
v -4 39 6.5
v -4 42 6.5
v 4 39 6.5
v 4 42 6.5
v 6 39 6.5
v 6 41 6.5
v 8 35 6.5
v 8 36 6.5
v 8 39 6.5
v 12 36 6.5
v 12 41 6.5
v 13 35 6.5
v 13 42 6.5
v -13 0 3.5
v -13 1 3.5
v -12 0 3.5
v -12 1 3.5
v -10 0 3.5
v -10 1 3.5
v -9 0 3.5
v -9 1 3.5
v 9 0 3.5
v 9 1 3.5
v 10 0 3.5
v 10 1 3.5
v 12 0 3.5
v 12 1 3.5
v 13 0 3.5
v 13 1 3.5
v -13 1 2.5
v -13 3 2.5
v -12 0 2.5
v -12 1 2.5
v -10 0 2.5
v -10 1 2.5
v -9 1 2.5
v -9 3 2.5
v -9 16 2.5
v -9 18 2.5
v -8 6 2.5
v -8 16 2.5
v -8 18 2.5
v -8 21 2.5
v -5 8 2.5
v -5 21 2.5
v 5 8 2.5
v 5 21 2.5
v 8 6 2.5
v 8 16 2.5
v 8 18 2.5
v 8 21 2.5
v 9 1 2.5
v 9 3 2.5
v 9 16 2.5
v 9 18 2.5
v 10 0 2.5
v 10 1 2.5
v 12 0 2.5
v 12 1 2.5
v 13 1 2.5
v 13 3 2.5
v -13 3 -1.5
v -13 14 -1.5
v -9 3 -1.5
v -9 6 -1.5
v -8 6 -1.5
v -8 14 -1.5
v 8 6 -1.5
v 8 14 -1.5
v 9 3 -1.5
v 9 6 -1.5
v 13 3 -1.5
v 13 14 -1.5
v -13 35 -1.5
v -13 42 -1.5
v -11 16 -1.5
v -11 18 -1.5
v -8 16 -1.5
v -8 18 -1.5
v -8 35 -1.5
v -8 39 -1.5
v -4 39 -1.5
v -4 42 -1.5
v 4 39 -1.5
v 4 42 -1.5
v 8 16 -1.5
v 8 18 -1.5
v 8 35 -1.5
v 8 39 -1.5
v 11 16 -1.5
v 11 18 -1.5
v 13 35 -1.5
v 13 42 -1.5
v -8 36 -2.5
v -8 39 -2.5
v 8 36 -2.5
v 8 39 -2.5
v -13 0 -5.5
v -13 6 -5.5
v -9 0 -5.5
v -9 6 -5.5
v 9 0 -5.5
v 9 6 -5.5
v 13 0 -5.5
v 13 6 -5.5
v -8 33 -6.5
v -8 36 -6.5
v 8 33 -6.5
v 8 36 -6.5
v -8 30 -10.5
v -8 33 -10.5
v 8 30 -10.5
v 8 33 -10.5
v -13 6 -12.5
v -13 14 -12.5
v -8 6 -12.5
v -8 14 -12.5
v 8 6 -12.5
v 8 14 -12.5
v 13 6 -12.5
v 13 14 -12.5
v -8 6 -13.5
v -8 7 -13.5
v -8 24 -13.5
v -8 30 -13.5
v 8 6 -13.5
v 8 7 -13.5
v 8 24 -13.5
v 8 30 -13.5
v -8 7 -14.5
v -8 8 -14.5
v 8 7 -14.5
v 8 8 -14.5
v -8 8 -15.5
v -8 9 -15.5
v -8 22 -15.5
v -8 24 -15.5
v 8 8 -15.5
v 8 9 -15.5
v 8 22 -15.5
v 8 24 -15.5
v -8 9 -16.5
v -8 22 -16.5
v 8 9 -16.5
v 8 22 -16.5
v -13 0 3.5
v -12 0 3.5
v -10 0 3.5
v -9 0 3.5
v 9 0 3.5
v 10 0 3.5
v 12 0 3.5
v 13 0 3.5
v -13 0 2.5
v -12 0 2.5
v -10 0 2.5
v -9 0 2.5
v 9 0 2.5
v 10 0 2.5
v 12 0 2.5
v 13 0 2.5
v -13 0 -5.5
v -9 0 -5.5
v 9 0 -5.5
v 13 0 -5.5
v -8 6 2.5
v 8 6 2.5
v -9 6 -1.5
v -8 6 -1.5
v 8 6 -1.5
v 9 6 -1.5
v -13 6 -5.5
v -9 6 -5.5
v 9 6 -5.5
v 13 6 -5.5
v -13 6 -12.5
v -8 6 -12.5
v 8 6 -12.5
v 13 6 -12.5
v -8 6 -13.5
v 8 6 -13.5
v -8 7 -13.5
v 8 7 -13.5
v -8 7 -14.5
v 8 7 -14.5
v -8 8 -14.5
v 8 8 -14.5
v -8 8 -15.5
v 8 8 -15.5
v -8 9 -15.5
v 8 9 -15.5
v -8 9 -16.5
v 8 9 -16.5
v -11 16 8.5
v -9 16 8.5
v 9 16 8.5
v 11 16 8.5
v -11 16 7.5
v -9 16 7.5
v 9 16 7.5
v 11 16 7.5
v -9 16 2.5
v -8 16 2.5
v 8 16 2.5
v 9 16 2.5
v -11 16 -1.5
v -8 16 -1.5
v 8 16 -1.5
v 11 16 -1.5
v -8 21 13.5
v 8 21 13.5
v -5 21 5.5
v 5 21 5.5
v -8 21 2.5
v -5 21 2.5
v 5 21 2.5
v 8 21 2.5
v -3 24 16.5
v 3 24 16.5
v -3 24 13.5
v 3 24 13.5
v -13 35 6.5
v -8 35 6.5
v 8 35 6.5
v 13 35 6.5
v -13 35 -1.5
v -8 35 -1.5
v 8 35 -1.5
v 13 35 -1.5
v -13 1 3.5
v -12 1 3.5
v -10 1 3.5
v -9 1 3.5
v 9 1 3.5
v 10 1 3.5
v 12 1 3.5
v 13 1 3.5
v -13 1 2.5
v -12 1 2.5
v -10 1 2.5
v -9 1 2.5
v 9 1 2.5
v 10 1 2.5
v 12 1 2.5
v 13 1 2.5
v -13 3 2.5
v -9 3 2.5
v 9 3 2.5
v 13 3 2.5
v -13 3 -1.5
v -9 3 -1.5
v 9 3 -1.5
v 13 3 -1.5
v -13 14 -1.5
v -8 14 -1.5
v 8 14 -1.5
v 13 14 -1.5
v -13 14 -12.5
v -8 14 -12.5
v 8 14 -12.5
v 13 14 -12.5
v -11 18 8.5
v -9 18 8.5
v 9 18 8.5
v 11 18 8.5
v -11 18 7.5
v -9 18 7.5
v 9 18 7.5
v 11 18 7.5
v -9 18 2.5
v -8 18 2.5
v 8 18 2.5
v 9 18 2.5
v -11 18 -1.5
v -8 18 -1.5
v 8 18 -1.5
v 11 18 -1.5
v -8 22 -15.5
v 8 22 -15.5
v -8 22 -16.5
v 8 22 -16.5
v -8 24 -13.5
v 8 24 -13.5
v -8 24 -15.5
v 8 24 -15.5
v -8 30 -10.5
v 8 30 -10.5
v -8 30 -13.5
v 8 30 -13.5
v -3 33 16.5
v 3 33 16.5
v -3 33 13.5
v 3 33 13.5
v -8 33 -6.5
v 8 33 -6.5
v -8 33 -10.5
v 8 33 -10.5
v -8 36 -2.5
v 8 36 -2.5
v -8 36 -6.5
v 8 36 -6.5
v -8 37 13.5
v 8 37 13.5
v -8 37 12.5
v 8 37 12.5
v -8 38 12.5
v 8 38 12.5
v -8 38 9.5
v 8 38 9.5
v -8 39 9.5
v 8 39 9.5
v -8 39 6.5
v -6 39 6.5
v -4 39 6.5
v 4 39 6.5
v 6 39 6.5
v 8 39 6.5
v -8 39 -1.5
v -4 39 -1.5
v 4 39 -1.5
v 8 39 -1.5
v -8 39 -2.5
v 8 39 -2.5
v -13 42 6.5
v -4 42 6.5
v 4 42 6.5
v 13 42 6.5
v -13 42 -1.5
v -4 42 -1.5
v 4 42 -1.5
v 13 42 -1.5

# faces
f 4/3/1 2/3/1 1/3/1
f 5/2/1 3/2/1 2/2/1
f 5/3/1 2/3/1 4/3/1
f 6/2/1 3/2/1 5/2/1
f 7/2/1 3/2/1 6/2/1
f 8/2/1 3/2/1 7/2/1
f 10/2/1 8/2/1 7/2/1
f 10/2/1 9/2/1 8/2/1
f 11/2/1 9/2/1 10/2/1
f 14/2/1 13/2/1 12/2/1
f 15/2/1 13/2/1 14/2/1
f 19/3/1 17/3/1 16/3/1
f 20/2/1 18/2/1 17/2/1
f 20/3/1 17/3/1 19/3/1
f 21/2/1 18/2/1 20/2/1
f 24/3/1 23/3/1 22/3/1
f 25/3/1 23/3/1 24/3/1
f 30/2/1 29/2/1 28/2/1
f 32/2/1 31/2/1 30/2/1
f 34/2/1 33/2/1 32/2/1
f 36/2/1 27/2/1 26/2/1
f 37/2/1 35/2/1 34/2/1
f 37/2/1 30/2/1 28/2/1
f 37/2/1 34/2/1 32/2/1
f 37/2/1 32/2/1 30/2/1
f 38/2/1 36/2/1 26/2/1
f 38/2/1 37/2/1 36/2/1
f 39/2/1 37/2/1 38/2/1
f 41/2/1 37/2/1 39/2/1
f 43/2/1 41/2/1 40/2/1
f 44/2/1 35/2/1 37/2/1
f 44/2/1 43/2/1 42/2/1
f 44/2/1 41/2/1 43/2/1
f 44/2/1 37/2/1 41/2/1
f 45/2/1 35/2/1 44/2/1
f 46/2/1 44/2/1 42/2/1
f 47/2/1 44/2/1 46/2/1
f 48/2/1 46/2/1 42/2/1
f 49/2/1 46/2/1 48/2/1
f 50/2/1 46/2/1 49/2/1
f 51/2/1 46/2/1 50/2/1
f 52/2/1 50/2/1 49/2/1
f 53/2/1 50/2/1 52/2/1
f 54/1/1 49/1/1 48/1/1
f 55/2/1 52/2/1 49/2/1
f 55/1/1 49/1/1 54/1/1
f 56/2/1 52/2/1 55/2/1
f 57/2/1 52/2/1 56/2/1
f 58/2/1 55/2/1 54/2/1
f 58/2/1 56/2/1 55/2/1
f 59/2/1 52/2/1 57/2/1
f 60/2/1 52/2/1 59/2/1
f 61/2/1 58/2/1 54/2/1
f 62/2/1 58/2/1 61/2/1
f 63/2/1 58/2/1 62/2/1
f 64/2/1 58/2/1 63/2/1
f 65/2/1 58/2/1 64/2/1
f 66/2/1 58/2/1 65/2/1
f 67/2/1 59/2/1 57/2/1
f 68/2/1 59/2/1 67/2/1
f 71/3/1 70/3/1 69/3/1
f 72/3/1 71/3/1 69/3/1
f 73/3/1 71/3/1 72/3/1
f 76/2/1 75/2/1 74/2/1
f 77/2/1 75/2/1 76/2/1
f 81/3/1 79/3/1 78/3/1
f 82/2/1 80/2/1 79/2/1
f 82/3/1 79/3/1 81/3/1
f 83/2/1 80/2/1 82/2/1
f 84/2/1 80/2/1 83/2/1
f 85/2/1 80/2/1 84/2/1
f 86/2/1 80/2/1 85/2/1
f 90/3/1 88/3/1 87/3/1
f 91/2/1 89/2/1 88/2/1
f 91/3/1 88/3/1 90/3/1
f 92/2/1 89/2/1 91/2/1
f 95/3/1 94/3/1 93/3/1
f 96/3/1 94/3/1 95/3/1
f 97/3/2 98/3/2 99/3/2
f 99/3/2 98/3/2 100/3/2
f 101/3/2 102/3/2 104/3/2
f 102/2/2 103/2/2 105/2/2
f 104/3/2 102/3/2 105/3/2
f 105/2/2 103/2/2 106/2/2
f 106/2/2 103/2/2 107/2/2
f 107/2/2 103/2/2 108/2/2
f 108/2/2 103/2/2 109/2/2
f 110/3/2 111/3/2 113/3/2
f 111/2/2 112/2/2 114/2/2
f 113/3/2 111/3/2 114/3/2
f 114/2/2 112/2/2 115/2/2
f 116/2/2 117/2/2 118/2/2
f 118/2/2 117/2/2 119/2/2
f 120/3/2 121/3/2 122/3/2
f 120/3/2 122/3/2 123/3/2
f 123/3/2 122/3/2 124/3/2
f 127/2/2 128/2/2 129/2/2
f 129/2/2 130/2/2 131/2/2
f 131/2/2 132/2/2 133/2/2
f 125/2/2 126/2/2 135/2/2
f 133/2/2 134/2/2 136/2/2
f 127/2/2 129/2/2 136/2/2
f 131/2/2 133/2/2 136/2/2
f 129/2/2 131/2/2 136/2/2
f 125/2/2 135/2/2 137/2/2
f 135/2/2 136/2/2 137/2/2
f 137/2/2 136/2/2 138/2/2
f 138/2/2 136/2/2 140/2/2
f 139/2/2 140/2/2 142/2/2
f 136/2/2 134/2/2 143/2/2
f 141/2/2 142/2/2 143/2/2
f 142/2/2 140/2/2 143/2/2
f 140/2/2 136/2/2 143/2/2
f 143/2/2 134/2/2 144/2/2
f 141/2/2 143/2/2 145/2/2
f 145/2/2 143/2/2 146/2/2
f 141/2/2 145/2/2 147/2/2
f 147/2/2 145/2/2 148/2/2
f 148/2/2 145/2/2 149/2/2
f 149/2/2 145/2/2 150/2/2
f 148/2/2 149/2/2 151/2/2
f 151/2/2 149/2/2 152/2/2
f 147/1/2 148/1/2 153/1/2
f 148/2/2 151/2/2 154/2/2
f 153/1/2 148/1/2 154/1/2
f 154/2/2 151/2/2 155/2/2
f 155/2/2 151/2/2 156/2/2
f 153/2/2 154/2/2 157/2/2
f 154/2/2 155/2/2 157/2/2
f 156/2/2 151/2/2 158/2/2
f 158/2/2 151/2/2 159/2/2
f 153/2/2 157/2/2 160/2/2
f 160/2/2 157/2/2 161/2/2
f 161/2/2 157/2/2 162/2/2
f 162/2/2 157/2/2 163/2/2
f 163/2/2 157/2/2 164/2/2
f 164/2/2 157/2/2 165/2/2
f 156/2/2 158/2/2 166/2/2
f 166/2/2 158/2/2 167/2/2
f 168/3/2 169/3/2 170/3/2
f 170/3/2 169/3/2 171/3/2
f 172/3/2 173/3/2 175/3/2
f 173/2/2 174/2/2 176/2/2
f 175/3/2 173/3/2 176/3/2
f 176/2/2 174/2/2 177/2/2
f 178/3/2 179/3/2 181/3/2
f 179/2/2 180/2/2 182/2/2
f 181/3/2 179/3/2 182/3/2
f 182/2/2 180/2/2 183/2/2
f 183/2/2 180/2/2 184/2/2
f 184/2/2 180/2/2 185/2/2
f 184/2/2 185/2/2 187/2/2
f 185/2/2 186/2/2 187/2/2
f 187/2/2 186/2/2 188/2/2
f 189/2/2 190/2/2 191/2/2
f 191/2/2 190/2/2 192/2/2
f 195/3/3 194/3/3 193/3/3
f 196/3/3 194/3/3 195/3/3
f 201/1/3 199/1/3 198/1/3
f 202/1/3 199/1/3 201/1/3
f 203/1/3 201/1/3 198/1/3
f 203/3/3 202/3/3 201/3/3
f 204/1/3 199/1/3 202/1/3
f 204/3/3 202/3/3 203/3/3
f 205/2/3 198/2/3 197/2/3
f 206/2/3 198/2/3 205/2/3
f 207/1/3 203/1/3 198/1/3
f 207/2/3 198/2/3 206/2/3
f 207/1/3 204/1/3 203/1/3
f 208/1/3 204/1/3 207/1/3
f 209/1/3 199/1/3 204/1/3
f 209/1/3 204/1/3 208/1/3
f 209/2/3 200/2/3 199/2/3
f 210/1/3 206/1/3 205/1/3
f 210/2/3 205/2/3 197/2/3
f 211/1/3 206/1/3 210/1/3
f 213/2/3 209/2/3 208/2/3
f 214/2/3 200/2/3 209/2/3
f 214/2/3 209/2/3 213/2/3
f 215/1/3 213/1/3 212/1/3
f 215/1/3 214/1/3 213/1/3
f 216/1/3 214/1/3 215/1/3
f 217/1/3 215/1/3 212/1/3
f 217/3/3 216/3/3 215/3/3
f 218/1/3 214/1/3 216/1/3
f 218/3/3 216/3/3 217/3/3
f 219/2/3 212/2/3 211/2/3
f 219/2/3 210/2/3 197/2/3
f 219/2/3 211/2/3 210/2/3
f 220/1/3 218/1/3 217/1/3
f 220/2/3 212/2/3 219/2/3
f 220/1/3 217/1/3 212/1/3
f 221/2/3 200/2/3 214/2/3
f 221/1/3 218/1/3 220/1/3
f 221/1/3 214/1/3 218/1/3
f 222/2/3 200/2/3 221/2/3
f 225/2/3 224/2/3 223/2/3
f 226/2/3 224/2/3 225/2/3
f 229/2/3 228/2/3 227/2/3
f 230/2/3 228/2/3 229/2/3
f 233/3/3 232/3/3 231/3/3
f 234/3/3 232/3/3 233/3/3
f 237/3/3 236/3/3 235/3/3
f 238/3/3 236/3/3 237/3/3
f 241/2/3 240/2/3 239/2/3
f 242/2/3 240/2/3 241/2/3
f 243/2/3 241/2/3 239/2/3
f 244/1/3 242/1/3 241/1/3
f 244/2/3 241/2/3 243/2/3
f 245/1/3 242/1/3 244/1/3
f 246/1/3 242/1/3 245/1/3
f 247/2/3 240/2/3 242/2/3
f 247/1/3 242/1/3 246/1/3
f 248/2/3 247/2/3 246/2/3
f 249/2/3 240/2/3 247/2/3
f 249/2/3 247/2/3 248/2/3
f 252/2/3 251/2/3 250/2/3
f 253/2/3 251/2/3 252/2/3
f 256/1/3 253/1/3 252/1/3
f 257/2/3 255/2/3 254/2/3
f 257/1/3 256/1/3 255/1/3
f 258/1/3 253/1/3 256/1/3
f 258/1/3 256/1/3 257/1/3
f 258/2/3 251/2/3 253/2/3
f 259/2/3 257/2/3 254/2/3
f 259/2/3 258/2/3 257/2/3
f 260/2/3 251/2/3 258/2/3
f 260/2/3 258/2/3 259/2/3
f 263/3/3 262/3/3 261/3/3
f 264/3/3 262/3/3 263/3/3
f 267/3/3 266/3/3 265/3/3
f 268/3/3 266/3/3 267/3/3
f 271/3/3 270/3/3 269/3/3
f 272/3/3 270/3/3 271/3/3
f 275/3/3 274/3/3 273/3/3
f 276/3/3 274/3/3 275/3/3
f 280/2/3 278/2/3 277/2/3
f 281/2/3 280/2/3 279/2/3
f 282/2/3 278/2/3 280/2/3
f 282/2/3 280/2/3 281/2/3
f 283/2/3 278/2/3 282/2/3
f 284/2/3 278/2/3 283/2/3
f 288/2/3 286/2/3 285/2/3
f 289/2/3 286/2/3 288/2/3
f 291/2/3 288/2/3 287/2/3
f 291/2/3 290/2/3 289/2/3
f 291/2/3 289/2/3 288/2/3
f 292/2/3 290/2/3 291/2/3
f 293/2/3 291/2/3 287/2/3
f 293/1/3 292/1/3 291/1/3
f 294/1/3 292/1/3 293/1/3
f 295/2/3 293/2/3 287/2/3
f 295/2/3 294/2/3 293/2/3
f 296/2/3 294/2/3 295/2/3
f 297/2/3 294/2/3 296/2/3
f 298/2/3 294/2/3 297/2/3
f 301/2/3 297/2/3 296/2/3
f 302/2/3 297/2/3 301/2/3
f 304/2/3 300/2/3 299/2/3
f 305/2/3 304/2/3 303/2/3
f 306/2/3 300/2/3 304/2/3
f 306/2/3 304/2/3 305/2/3
f 307/2/3 300/2/3 306/2/3
f 308/2/3 300/2/3 307/2/3
f 311/2/3 310/2/3 309/2/3
f 312/2/3 310/2/3 311/2/3
f 313/2/3 310/2/3 312/2/3
f 314/2/3 310/2/3 313/2/3
f 318/2/3 316/2/3 315/2/3
f 319/2/3 318/2/3 317/2/3
f 320/2/3 316/2/3 318/2/3
f 320/2/3 318/2/3 319/2/3
f 323/2/4 324/2/4 325/2/4
f 325/2/4 324/2/4 326/2/4
f 321/2/4 322/2/4 327/2/4
f 327/2/4 322/2/4 328/2/4
f 328/2/4 322/2/4 329/2/4
f 329/2/4 322/2/4 330/2/4
f 331/2/4 332/2/4 336/2/4
f 333/2/4 334/2/4 337/2/4
f 337/2/4 334/2/4 338/2/4
f 335/2/4 336/2/4 339/2/4
f 336/2/4 332/2/4 340/2/4
f 339/2/4 336/2/4 340/2/4
f 341/2/4 342/2/4 343/2/4
f 343/2/4 342/2/4 344/2/4
f 345/2/4 346/2/4 347/2/4
f 347/2/4 346/2/4 348/2/4
f 349/2/4 350/2/4 351/2/4
f 351/2/4 350/2/4 352/2/4
f 353/2/4 354/2/4 355/2/4
f 355/2/4 354/2/4 356/2/4
f 357/2/4 358/2/4 359/2/4
f 359/2/4 358/2/4 360/2/4
f 361/2/4 362/2/4 363/2/4
f 363/2/4 362/2/4 364/2/4
f 365/2/4 366/2/4 367/2/4
f 367/2/4 366/2/4 368/2/4
f 369/2/4 370/2/4 373/2/4
f 373/2/4 370/2/4 374/2/4
f 371/2/4 372/2/4 375/2/4
f 375/2/4 372/2/4 376/2/4
f 377/2/4 378/2/4 379/2/4
f 379/2/4 378/2/4 380/2/4
f 381/2/4 382/2/4 385/2/4
f 385/2/4 382/2/4 386/2/4
f 383/2/4 384/2/4 387/2/4
f 387/2/4 384/2/4 388/2/4
f 389/2/4 390/2/4 391/2/4
f 391/2/4 390/2/4 392/2/4
f 401/3/5 394/3/5 393/3/5
f 402/3/5 394/3/5 401/3/5
f 403/3/5 396/3/5 395/3/5
f 404/3/5 396/3/5 403/3/5
f 405/3/5 398/3/5 397/3/5
f 406/3/5 398/3/5 405/3/5
f 407/3/5 400/3/5 399/3/5
f 408/3/5 400/3/5 407/3/5
f 409/2/5 402/2/5 401/2/5
f 409/2/5 404/2/5 403/2/5
f 409/2/5 403/2/5 402/2/5
f 410/2/5 404/2/5 409/2/5
f 411/2/5 406/2/5 405/2/5
f 411/2/5 408/2/5 407/2/5
f 411/2/5 407/2/5 406/2/5
f 412/2/5 408/2/5 411/2/5
f 416/2/5 414/2/5 413/2/5
f 417/2/5 414/2/5 416/2/5
f 420/2/5 416/2/5 415/2/5
f 420/2/5 418/2/5 417/2/5
f 420/2/5 417/2/5 416/2/5
f 421/2/5 418/2/5 420/2/5
f 423/2/5 420/2/5 419/2/5
f 423/2/5 422/2/5 421/2/5
f 423/2/5 421/2/5 420/2/5
f 424/2/5 422/2/5 423/2/5
f 425/2/5 422/2/5 424/2/5
f 426/2/5 422/2/5 425/2/5
f 427/2/5 425/2/5 424/2/5
f 428/2/5 425/2/5 427/2/5
f 431/2/5 430/2/5 429/2/5
f 432/2/5 430/2/5 431/2/5
f 435/2/5 434/2/5 433/2/5
f 436/2/5 434/2/5 435/2/5
f 439/2/5 438/2/5 437/2/5
f 440/2/5 438/2/5 439/2/5
f 445/3/5 442/3/5 441/3/5
f 446/3/5 442/3/5 445/3/5
f 447/3/5 444/3/5 443/3/5
f 448/3/5 444/3/5 447/3/5
f 449/2/5 446/2/5 445/2/5
f 452/2/5 448/2/5 447/2/5
f 453/2/5 450/2/5 449/2/5
f 453/2/5 449/2/5 445/2/5
f 454/2/5 450/2/5 453/2/5
f 455/2/5 452/2/5 451/2/5
f 456/2/5 448/2/5 452/2/5
f 456/2/5 452/2/5 455/2/5
f 459/2/5 458/2/5 457/2/5
f 460/2/5 458/2/5 459/2/5
f 461/2/5 459/2/5 457/2/5
f 462/1/5 460/1/5 459/1/5
f 462/2/5 459/2/5 461/2/5
f 463/2/5 458/2/5 460/2/5
f 463/1/5 460/1/5 462/1/5
f 464/2/5 458/2/5 463/2/5
f 467/3/5 466/3/5 465/3/5
f 468/3/5 466/3/5 467/3/5
f 473/2/5 470/2/5 469/2/5
f 474/2/5 470/2/5 473/2/5
f 475/2/5 472/2/5 471/2/5
f 476/2/5 472/2/5 475/2/5
f 477/3/6 478/3/6 485/3/6
f 485/3/6 478/3/6 486/3/6
f 479/3/6 480/3/6 487/3/6
f 487/3/6 480/3/6 488/3/6
f 481/3/6 482/3/6 489/3/6
f 489/3/6 482/3/6 490/3/6
f 483/3/6 484/3/6 491/3/6
f 491/3/6 484/3/6 492/3/6
f 493/2/6 494/2/6 497/2/6
f 497/2/6 494/2/6 498/2/6
f 495/2/6 496/2/6 499/2/6
f 499/2/6 496/2/6 500/2/6
f 501/2/6 502/2/6 505/2/6
f 505/2/6 502/2/6 506/2/6
f 503/2/6 504/2/6 507/2/6
f 507/2/6 504/2/6 508/2/6
f 509/3/6 510/3/6 513/3/6
f 513/3/6 510/3/6 514/3/6
f 511/3/6 512/3/6 515/3/6
f 515/3/6 512/3/6 516/3/6
f 513/2/6 514/2/6 517/2/6
f 515/2/6 516/2/6 520/2/6
f 517/2/6 518/2/6 521/2/6
f 513/2/6 517/2/6 521/2/6
f 521/2/6 518/2/6 522/2/6
f 519/2/6 520/2/6 523/2/6
f 520/2/6 516/2/6 524/2/6
f 523/2/6 520/2/6 524/2/6
f 525/2/6 526/2/6 527/2/6
f 527/2/6 526/2/6 528/2/6
f 529/2/6 530/2/6 531/2/6
f 531/2/6 530/2/6 532/2/6
f 533/2/6 534/2/6 535/2/6
f 535/2/6 534/2/6 536/2/6
f 537/3/6 538/3/6 539/3/6
f 539/3/6 538/3/6 540/3/6
f 541/2/6 542/2/6 543/2/6
f 543/2/6 542/2/6 544/2/6
f 545/2/6 546/2/6 547/2/6
f 547/2/6 546/2/6 548/2/6
f 549/2/6 550/2/6 551/2/6
f 551/2/6 550/2/6 552/2/6
f 553/2/6 554/2/6 555/2/6
f 555/2/6 554/2/6 556/2/6
f 557/2/6 558/2/6 559/2/6
f 559/2/6 558/2/6 560/2/6
f 560/2/6 558/2/6 561/2/6
f 561/2/6 558/2/6 562/2/6
f 562/2/6 558/2/6 563/2/6
f 563/2/6 558/2/6 564/2/6
f 561/2/6 562/2/6 566/2/6
f 566/2/6 562/2/6 567/2/6
f 565/2/6 566/2/6 569/2/6
f 567/2/6 568/2/6 569/2/6
f 566/2/6 567/2/6 569/2/6
f 569/2/6 568/2/6 570/2/6
f 571/2/6 572/2/6 575/2/6
f 575/2/6 572/2/6 576/2/6
f 573/2/6 574/2/6 577/2/6
f 577/2/6 574/2/6 578/2/6
