# MagicaVoxel @ Ephtracy

# group
g rhino

# material
mtllib rhino.mtl
usemtl palette

# normals
vn -1 0 0
vn 1 0 0
vn 0 0 1
vn 0 0 -1
vn 0 -1 0
vn 0 1 0

# texcoords
vt 0.505859 0.5
vt 0.958984 0.5
vt 0.962891 0.5
vt 0.974609 0.5
vt 0.978516 0.5
vt 0.986328 0.5
vt 0.994141 0.5

# verts
v -5 5 4.5
v -5 5 1.5
v -5 6 3.5
v -5 6 2.5
v -5 7 3.5
v -5 7 2.5
v -5 7 1.5
v -5 7 0.5
v -5 7 -7.5
v -5 7 -11.5
v -5 8 -6.5
v -5 8 -7.5
v -5 8 -10.5
v -5 8 -11.5
v -5 9 0.5
v -5 9 -0.5
v -5 9 -10.5
v -5 9 -11.5
v -5 10 5.5
v -5 10 4.5
v -5 10 1.5
v -5 10 0.5
v -5 10 -0.5
v -5 10 -6.5
v -5 10 -9.5
v -5 10 -10.5
v -5 11 1.5
v -5 11 0.5
v -5 11 -5.5
v -5 11 -6.5
v -5 11 -9.5
v -5 11 -10.5
v -5 12 -5.5
v -5 12 -6.5
v -5 13 2.5
v -5 13 1.5
v -5 13 -0.5
v -5 13 -1.5
v -5 13 -5.5
v -5 13 -6.5
v -5 14 2.5
v -5 14 1.5
v -5 14 -0.5
v -5 14 -1.5
v -5 14 -5.5
v -5 14 -6.5
v -5 14 -10.5
v -5 14 -11.5
v -5 15 -9.5
v -5 15 -10.5
v -5 16 5.5
v -5 16 4.5
v -5 16 -3.5
v -5 16 -9.5
v -5 17 4.5
v -5 17 -3.5
v -4 0 3.5
v -4 0 1.5
v -4 0 -8.5
v -4 0 -10.5
v -4 5 3.5
v -4 5 1.5
v -4 7 -8.5
v -4 7 -10.5
v -4 8 0.5
v -4 8 -2.5
v -4 9 0.5
v -4 9 -0.5
v -4 9 -2.5
v -4 9 -6.5
v -4 10 10.5
v -4 10 9.5
v -4 10 8.5
v -4 10 7.5
v -4 10 -0.5
v -4 10 -6.5
v -4 11 9.5
v -4 11 8.5
v -4 12 10.5
v -4 12 7.5
v -4 14 -10.5
v -4 14 -11.5
v -4 15 -9.5
v -4 15 -10.5
v -4 15 -11.5
v -4 16 5.5
v -4 16 4.5
v -4 16 -9.5
v -4 16 -10.5
v -4 17 5.5
v -4 17 4.5
v -4 17 -1.5
v -4 18 4.5
v -4 18 -1.5
v -3 5 13.5
v -3 5 8.5
v -3 5 7.5
v -3 6 10.5
v -3 6 8.5
v -3 6 7.5
v -3 6 6.5
v -3 7 12.5
v -3 7 10.5
v -3 8 6.5
v -3 8 5.5
v -3 8 -2.5
v -3 8 -3.5
v -3 9 13.5
v -3 9 12.5
v -3 9 10.5
v -3 9 -2.5
v -3 9 -3.5
v -3 10 10.5
v -3 10 9.5
v -3 10 8.5
v -3 10 7.5
v -3 10 5.5
v -3 12 10.5
v -3 12 7.5
v -3 14 10.5
v -3 14 9.5
v -3 14 8.5
v -3 15 9.5
v -3 15 8.5
v -3 15 7.5
v -3 15 6.5
v -3 15 5.5
v -3 17 7.5
v -3 17 6.5
v -2 9 11.5
v -2 9 10.5
v -2 9 5.5
v -2 9 4.5
v -2 10 5.5
v -2 10 4.5
v -2 12 11.5
v -2 12 10.5
v -2 12 -7.5
v -2 12 -8.5
v -2 13 -7.5
v -2 13 -8.5
v -2 15 8.5
v -2 15 7.5
v -2 15 6.5
v -2 15 5.5
v -2 16 8.5
v -2 16 7.5
v -2 16 6.5
v -2 16 5.5
v -1 7 2.5
v -1 7 1.5
v -1 8 2.5
v -1 8 1.5
v -1 9 13.5
v -1 9 11.5
v -1 10 14.5
v -1 10 13.5
v -1 11 15.5
v -1 11 14.5
v -1 11 12.5
v -1 11 11.5
v -1 12 16.5
v -1 12 15.5
v -1 12 13.5
v -1 12 12.5
v -1 12 -11.5
v -1 12 -12.5
v -1 13 14.5
v -1 13 13.5
v -1 14 16.5
v -1 14 14.5
v -1 15 -11.5
v -1 15 -12.5
v 0 12 7.5
v 0 12 6.5
v 0 13 7.5
v 0 13 6.5
v 0 13 0.5
v 0 13 -2.5
v 0 14 0.5
v 0 14 -2.5
v 1 10 8.5
v 1 10 7.5
v 1 11 7.5
v 1 12 8.5
v 1 12 7.5
v 2 0 3.5
v 2 0 1.5
v 2 0 -8.5
v 2 0 -10.5
v 2 5 3.5
v 2 5 1.5
v 2 6 3.5
v 2 6 1.5
v 2 7 1.5
v 2 7 -7.5
v 2 7 -8.5
v 2 7 -10.5
v 2 7 -11.5
v 2 8 3.5
v 2 8 1.5
v 2 8 -6.5
v 2 8 -7.5
v 2 8 -9.5
v 2 8 -11.5
v 2 9 -6.5
v 2 9 -9.5
v 2 16 7.5
v 2 16 6.5
v 2 17 7.5
v 2 17 6.5
v 3 11 4.5
v 3 11 3.5
v 3 12 3.5
v 3 12 2.5
v 3 12 -7.5
v 3 12 -8.5
v 3 13 -7.5
v 3 13 -8.5
v 3 14 4.5
v 3 14 2.5
v -3 11 4.5
v -3 11 3.5
v -3 12 3.5
v -3 12 2.5
v -3 12 -7.5
v -3 12 -8.5
v -3 13 -7.5
v -3 13 -8.5
v -3 14 4.5
v -3 14 2.5
v -2 0 3.5
v -2 0 1.5
v -2 0 -8.5
v -2 0 -10.5
v -2 5 3.5
v -2 5 1.5
v -2 6 3.5
v -2 6 1.5
v -2 7 1.5
v -2 7 -7.5
v -2 7 -8.5
v -2 7 -10.5
v -2 7 -11.5
v -2 8 3.5
v -2 8 1.5
v -2 8 -6.5
v -2 8 -7.5
v -2 8 -9.5
v -2 8 -11.5
v -2 9 -6.5
v -2 9 -9.5
v -2 13 0.5
v -2 13 -0.5
v -2 14 0.5
v -2 14 -0.5
v -2 16 7.5
v -2 16 6.5
v -2 17 7.5
v -2 17 6.5
v -1 12 7.5
v -1 12 6.5
v -1 13 7.5
v -1 13 6.5
v -1 13 -0.5
v -1 13 -2.5
v -1 14 -0.5
v -1 14 -2.5
v 0 10 8.5
v 0 10 7.5
v 0 11 7.5
v 0 12 8.5
v 0 12 7.5
v 0 12 -11.5
v 0 12 -12.5
v 0 14 -11.5
v 0 14 -12.5
v 1 7 2.5
v 1 7 1.5
v 1 8 2.5
v 1 8 1.5
v 1 9 13.5
v 1 9 11.5
v 1 10 14.5
v 1 10 13.5
v 1 11 15.5
v 1 11 14.5
v 1 11 12.5
v 1 11 11.5
v 1 12 16.5
v 1 12 15.5
v 1 12 13.5
v 1 12 12.5
v 1 13 14.5
v 1 13 13.5
v 1 14 16.5
v 1 14 14.5
v 1 14 -11.5
v 1 14 -12.5
v 1 15 -11.5
v 1 15 -12.5
v 2 9 11.5
v 2 9 10.5
v 2 9 5.5
v 2 9 4.5
v 2 10 5.5
v 2 10 4.5
v 2 12 11.5
v 2 12 10.5
v 2 12 -7.5
v 2 12 -8.5
v 2 13 -7.5
v 2 13 -8.5
v 2 15 8.5
v 2 15 7.5
v 2 15 6.5
v 2 15 5.5
v 2 16 8.5
v 2 16 7.5
v 2 16 6.5
v 2 16 5.5
v 3 5 13.5
v 3 5 8.5
v 3 5 7.5
v 3 6 10.5
v 3 6 8.5
v 3 6 7.5
v 3 6 6.5
v 3 7 12.5
v 3 7 10.5
v 3 8 6.5
v 3 8 5.5
v 3 8 -2.5
v 3 8 -3.5
v 3 9 13.5
v 3 9 12.5
v 3 9 10.5
v 3 9 -2.5
v 3 9 -3.5
v 3 10 10.5
v 3 10 9.5
v 3 10 8.5
v 3 10 7.5
v 3 10 5.5
v 3 12 10.5
v 3 12 7.5
v 3 14 10.5
v 3 14 9.5
v 3 14 8.5
v 3 14 7.5
v 3 15 9.5
v 3 15 8.5
v 3 15 7.5
v 3 15 6.5
v 3 15 5.5
v 3 17 7.5
v 3 17 6.5
v 4 0 3.5
v 4 0 1.5
v 4 0 -8.5
v 4 0 -10.5
v 4 5 3.5
v 4 5 1.5
v 4 7 -8.5
v 4 7 -10.5
v 4 8 0.5
v 4 8 -2.5
v 4 9 0.5
v 4 9 -0.5
v 4 9 -2.5
v 4 9 -6.5
v 4 10 10.5
v 4 10 9.5
v 4 10 8.5
v 4 10 7.5
v 4 10 -0.5
v 4 10 -6.5
v 4 11 9.5
v 4 11 8.5
v 4 12 10.5
v 4 12 7.5
v 4 14 -10.5
v 4 14 -11.5
v 4 15 -9.5
v 4 15 -10.5
v 4 15 -11.5
v 4 16 5.5
v 4 16 4.5
v 4 16 -9.5
v 4 16 -10.5
v 4 17 5.5
v 4 17 4.5
v 4 17 3.5
v 4 17 2.5
v 4 17 0.5
v 4 17 -0.5
v 4 17 -1.5
v 4 18 4.5
v 4 18 3.5
v 4 18 2.5
v 4 18 0.5
v 4 18 -0.5
v 4 18 -1.5
v 5 5 4.5
v 5 5 1.5
v 5 6 3.5
v 5 6 2.5
v 5 7 3.5
v 5 7 2.5
v 5 7 1.5
v 5 7 0.5
v 5 7 -7.5
v 5 7 -11.5
v 5 8 -6.5
v 5 8 -7.5
v 5 8 -10.5
v 5 8 -11.5
v 5 9 0.5
v 5 9 -0.5
v 5 9 -10.5
v 5 9 -11.5
v 5 10 5.5
v 5 10 4.5
v 5 10 1.5
v 5 10 0.5
v 5 10 -0.5
v 5 10 -6.5
v 5 10 -9.5
v 5 10 -10.5
v 5 11 1.5
v 5 11 0.5
v 5 11 -5.5
v 5 11 -6.5
v 5 11 -9.5
v 5 11 -10.5
v 5 12 -5.5
v 5 12 -6.5
v 5 13 2.5
v 5 13 1.5
v 5 13 -0.5
v 5 13 -1.5
v 5 13 -5.5
v 5 13 -6.5
v 5 14 2.5
v 5 14 1.5
v 5 14 -0.5
v 5 14 -1.5
v 5 14 -5.5
v 5 14 -6.5
v 5 14 -10.5
v 5 14 -11.5
v 5 15 -9.5
v 5 15 -10.5
v 5 16 5.5
v 5 16 4.5
v 5 16 -2.5
v 5 16 -3.5
v 5 16 -9.5
v 5 17 4.5
v 5 17 -2.5
v 5 17 -3.5
v -1 12 16.5
v -1 14 16.5
v 1 12 16.5
v 1 14 16.5
v -1 11 15.5
v -1 12 15.5
v 1 11 15.5
v 1 12 15.5
v -1 10 14.5
v -1 11 14.5
v 1 10 14.5
v 1 11 14.5
v -3 5 13.5
v -3 9 13.5
v -2 8 13.5
v -2 9 13.5
v -1 7 13.5
v -1 8 13.5
v -1 9 13.5
v -1 10 13.5
v 1 7 13.5
v 1 8 13.5
v 1 9 13.5
v 1 10 13.5
v 2 8 13.5
v 2 9 13.5
v 3 5 13.5
v 3 9 13.5
v -2 9 11.5
v -2 12 11.5
v -1 9 11.5
v -1 11 11.5
v 1 9 11.5
v 1 11 11.5
v 2 9 11.5
v 2 12 11.5
v -4 10 10.5
v -4 12 10.5
v -3 9 10.5
v -3 10 10.5
v -3 12 10.5
v -3 14 10.5
v -2 9 10.5
v -2 12 10.5
v -1 13 10.5
v -1 14 10.5
v 0 13 10.5
v 0 14 10.5
v 2 9 10.5
v 2 12 10.5
v 3 9 10.5
v 3 10 10.5
v 3 12 10.5
v 3 14 10.5
v 4 10 10.5
v 4 12 10.5
v -3 14 9.5
v -3 15 9.5
v -2 14 9.5
v -2 15 9.5
v -1 14 9.5
v 0 14 9.5
v 3 14 9.5
v 3 15 9.5
v -2 15 8.5
v -2 16 8.5
v 2 15 8.5
v 2 16 8.5
v -3 15 7.5
v -3 17 7.5
v -2 15 7.5
v -2 16 7.5
v -2 17 7.5
v 0 10 7.5
v 0 11 7.5
v 0 12 7.5
v 1 10 7.5
v 1 11 7.5
v 1 12 7.5
v 2 15 7.5
v 2 16 7.5
v 2 17 7.5
v 3 15 7.5
v 3 17 7.5
v -1 12 6.5
v -1 13 6.5
v 0 12 6.5
v 0 13 6.5
v -5 10 5.5
v -5 16 5.5
v -4 16 5.5
v -4 17 5.5
v -3 10 5.5
v -3 15 5.5
v -2 15 5.5
v -2 16 5.5
v 2 15 5.5
v 2 16 5.5
v 3 10 5.5
v 3 15 5.5
v 4 16 5.5
v 4 17 5.5
v 5 10 5.5
v 5 16 5.5
v -5 5 4.5
v -5 10 4.5
v -5 16 4.5
v -5 17 4.5
v -4 16 4.5
v -4 17 4.5
v -4 18 4.5
v -2 9 4.5
v -2 10 4.5
v 2 9 4.5
v 2 10 4.5
v 4 16 4.5
v 4 17 4.5
v 4 18 4.5
v 5 5 4.5
v 5 10 4.5
v 5 16 4.5
v 5 17 4.5
v -4 0 3.5
v -4 5 3.5
v -3 11 3.5
v -3 12 3.5
v -2 0 3.5
v -2 5 3.5
v -2 11 3.5
v -2 12 3.5
v 2 0 3.5
v 2 5 3.5
v 2 11 3.5
v 2 12 3.5
v 3 11 3.5
v 3 12 3.5
v 4 0 3.5
v 4 5 3.5
v -3 12 2.5
v -3 14 2.5
v -2 12 2.5
v -2 14 2.5
v -1 7 2.5
v -1 8 2.5
v 1 7 2.5
v 1 8 2.5
v 2 12 2.5
v 2 14 2.5
v 3 12 2.5
v 3 14 2.5
v -2 7 1.5
v -2 8 1.5
v -1 7 1.5
v -1 8 1.5
v 1 7 1.5
v 1 8 1.5
v 2 7 1.5
v 2 8 1.5
v -2 13 -0.5
v -2 14 -0.5
v -1 13 -0.5
v -1 14 -0.5
v -1 13 -2.5
v -1 14 -2.5
v 0 13 -2.5
v 0 14 -2.5
v -5 8 -6.5
v -5 10 -6.5
v -4 9 -6.5
v -4 10 -6.5
v -2 8 -6.5
v -2 9 -6.5
v 2 8 -6.5
v 2 9 -6.5
v 4 9 -6.5
v 4 10 -6.5
v 5 8 -6.5
v 5 10 -6.5
v -5 7 -7.5
v -5 8 -7.5
v -2 7 -7.5
v -2 8 -7.5
v 2 7 -7.5
v 2 8 -7.5
v 5 7 -7.5
v 5 8 -7.5
v -4 0 -8.5
v -4 7 -8.5
v -3 12 -8.5
v -3 13 -8.5
v -2 0 -8.5
v -2 7 -8.5
v -2 12 -8.5
v -2 13 -8.5
v 2 0 -8.5
v 2 7 -8.5
v 2 12 -8.5
v 2 13 -8.5
v 3 12 -8.5
v 3 13 -8.5
v 4 0 -8.5
v 4 7 -8.5
v -2 8 -9.5
v -2 9 -9.5
v 2 8 -9.5
v 2 9 -9.5
v -1 13 14.5
v -1 14 14.5
v 1 13 14.5
v 1 14 14.5
v -1 12 13.5
v -1 13 13.5
v 1 12 13.5
v 1 13 13.5
v -1 11 12.5
v -1 12 12.5
v 1 11 12.5
v 1 12 12.5
v 0 10 8.5
v 0 12 8.5
v 1 10 8.5
v 1 12 8.5
v -4 10 7.5
v -4 12 7.5
v -3 5 7.5
v -3 6 7.5
v -3 10 7.5
v -3 12 7.5
v -1 12 7.5
v -1 13 7.5
v 0 12 7.5
v 0 13 7.5
v 3 5 7.5
v 3 6 7.5
v 3 10 7.5
v 3 12 7.5
v 4 10 7.5
v 4 12 7.5
v -3 6 6.5
v -3 8 6.5
v -3 15 6.5
v -3 17 6.5
v -2 15 6.5
v -2 16 6.5
v -2 17 6.5
v 2 15 6.5
v 2 16 6.5
v 2 17 6.5
v 3 6 6.5
v 3 8 6.5
v 3 15 6.5
v 3 17 6.5
v -3 8 5.5
v -3 10 5.5
v -2 9 5.5
v -2 10 5.5
v 2 9 5.5
v 2 10 5.5
v 3 8 5.5
v 3 10 5.5
v -3 11 4.5
v -3 14 4.5
v -2 11 4.5
v -2 13 4.5
v -2 14 4.5
v 2 11 4.5
v 2 13 4.5
v 2 14 4.5
v 3 11 4.5
v 3 14 4.5
v -2 6 3.5
v -2 8 3.5
v 2 6 3.5
v 2 8 3.5
v -5 5 1.5
v -5 7 1.5
v -4 0 1.5
v -4 5 1.5
v -2 0 1.5
v -2 5 1.5
v -2 6 1.5
v -2 7 1.5
v 2 0 1.5
v 2 5 1.5
v 2 6 1.5
v 2 7 1.5
v 4 0 1.5
v 4 5 1.5
v 5 5 1.5
v 5 7 1.5
v -5 7 0.5
v -5 9 0.5
v -4 8 0.5
v -4 9 0.5
v -2 13 0.5
v -2 14 0.5
v 0 13 0.5
v 0 14 0.5
v 4 8 0.5
v 4 9 0.5
v 5 7 0.5
v 5 9 0.5
v -5 9 -0.5
v -5 10 -0.5
v -4 9 -0.5
v -4 10 -0.5
v 4 9 -0.5
v 4 10 -0.5
v 5 9 -0.5
v 5 10 -0.5
v -4 17 -1.5
v -4 18 -1.5
v -3 17 -1.5
v 4 17 -1.5
v 4 18 -1.5
v -4 8 -2.5
v -4 9 -2.5
v -3 8 -2.5
v -3 9 -2.5
v 3 8 -2.5
v 3 9 -2.5
v 4 8 -2.5
v 4 9 -2.5
v -5 16 -3.5
v -5 17 -3.5
v -4 16 -3.5
v -3 8 -3.5
v -3 9 -3.5
v -3 16 -3.5
v 2 16 -3.5
v 3 8 -3.5
v 3 9 -3.5
v 3 16 -3.5
v 4 16 -3.5
v 4 17 -3.5
v 5 16 -3.5
v 5 17 -3.5
v -3 12 -7.5
v -3 13 -7.5
v -2 12 -7.5
v -2 13 -7.5
v 2 12 -7.5
v 2 13 -7.5
v 3 12 -7.5
v 3 13 -7.5
v -5 15 -9.5
v -5 16 -9.5
v -4 15 -9.5
v -4 16 -9.5
v 4 15 -9.5
v 4 16 -9.5
v 5 15 -9.5
v 5 16 -9.5
v -5 14 -10.5
v -5 15 -10.5
v -4 0 -10.5
v -4 7 -10.5
v -4 14 -10.5
v -4 15 -10.5
v -4 16 -10.5
v -3 15 -10.5
v -2 0 -10.5
v -2 7 -10.5
v -1 15 -10.5
v -1 16 -10.5
v 0 15 -10.5
v 0 16 -10.5
v 2 0 -10.5
v 2 7 -10.5
v 3 15 -10.5
v 4 0 -10.5
v 4 7 -10.5
v 4 14 -10.5
v 4 15 -10.5
v 4 16 -10.5
v 5 14 -10.5
v 5 15 -10.5
v -5 7 -11.5
v -5 8 -11.5
v -5 9 -11.5
v -5 14 -11.5
v -4 8 -11.5
v -4 9 -11.5
v -4 14 -11.5
v -4 15 -11.5
v -3 14 -11.5
v -3 15 -11.5
v -2 7 -11.5
v -2 8 -11.5
v -1 12 -11.5
v -1 15 -11.5
v 0 12 -11.5
v 0 14 -11.5
v 1 14 -11.5
v 1 15 -11.5
v 2 7 -11.5
v 2 8 -11.5
v 3 14 -11.5
v 3 15 -11.5
v 4 8 -11.5
v 4 9 -11.5
v 4 14 -11.5
v 4 15 -11.5
v 5 7 -11.5
v 5 8 -11.5
v 5 9 -11.5
v 5 14 -11.5
v -1 12 -12.5
v -1 15 -12.5
v 0 12 -12.5
v 0 14 -12.5
v 1 14 -12.5
v 1 15 -12.5
v -4 0 3.5
v -2 0 3.5
v 2 0 3.5
v 4 0 3.5
v -4 0 1.5
v -2 0 1.5
v 2 0 1.5
v 4 0 1.5
v -4 0 -8.5
v -2 0 -8.5
v 2 0 -8.5
v 4 0 -8.5
v -4 0 -10.5
v -2 0 -10.5
v 2 0 -10.5
v 4 0 -10.5
v -3 5 13.5
v 3 5 13.5
v -3 5 8.5
v 3 5 8.5
v -3 5 7.5
v 3 5 7.5
v -5 5 4.5
v 5 5 4.5
v -4 5 3.5
v -2 5 3.5
v 2 5 3.5
v 4 5 3.5
v -5 5 1.5
v -4 5 1.5
v -2 5 1.5
v 2 5 1.5
v 4 5 1.5
v 5 5 1.5
v -3 6 7.5
v 3 6 7.5
v -3 6 6.5
v 3 6 6.5
v -1 7 2.5
v 1 7 2.5
v -5 7 1.5
v -2 7 1.5
v -1 7 1.5
v 1 7 1.5
v 2 7 1.5
v 5 7 1.5
v -5 7 0.5
v 5 7 0.5
v -5 7 -7.5
v -2 7 -7.5
v 2 7 -7.5
v 5 7 -7.5
v -4 7 -8.5
v -2 7 -8.5
v 2 7 -8.5
v 4 7 -8.5
v -4 7 -10.5
v -2 7 -10.5
v 2 7 -10.5
v 4 7 -10.5
v -5 7 -11.5
v -2 7 -11.5
v 2 7 -11.5
v 5 7 -11.5
v -3 8 6.5
v 3 8 6.5
v -3 8 5.5
v 3 8 5.5
v -2 8 3.5
v 2 8 3.5
v -1 8 2.5
v 1 8 2.5
v -2 8 1.5
v -1 8 1.5
v 1 8 1.5
v 2 8 1.5
v -4 8 0.5
v 4 8 0.5
v -4 8 -2.5
v -3 8 -2.5
v 3 8 -2.5
v 4 8 -2.5
v -3 8 -3.5
v 3 8 -3.5
v -5 8 -6.5
v -2 8 -6.5
v 2 8 -6.5
v 5 8 -6.5
v -5 8 -7.5
v -2 8 -7.5
v 2 8 -7.5
v 5 8 -7.5
v -2 8 -9.5
v 2 8 -9.5
v -2 8 -11.5
v 2 8 -11.5
v -2 9 5.5
v 2 9 5.5
v -2 9 4.5
v 2 9 4.5
v -5 9 0.5
v -4 9 0.5
v 4 9 0.5
v 5 9 0.5
v -5 9 -0.5
v -4 9 -0.5
v 4 9 -0.5
v 5 9 -0.5
v -4 9 -2.5
v -3 9 -2.5
v 3 9 -2.5
v 4 9 -2.5
v -3 9 -3.5
v 3 9 -3.5
v -4 9 -6.5
v -2 9 -6.5
v 2 9 -6.5
v 4 9 -6.5
v -2 9 -9.5
v 2 9 -9.5
v -1 10 14.5
v 1 10 14.5
v -1 10 13.5
v 1 10 13.5
v -4 10 10.5
v -3 10 10.5
v 3 10 10.5
v 4 10 10.5
v -4 10 9.5
v -3 10 9.5
v 3 10 9.5
v 4 10 9.5
v -4 10 8.5
v -3 10 8.5
v 3 10 8.5
v 4 10 8.5
v -4 10 7.5
v -3 10 7.5
v 3 10 7.5
v 4 10 7.5
v -5 10 5.5
v -3 10 5.5
v -2 10 5.5
v 2 10 5.5
v 3 10 5.5
v 5 10 5.5
v -5 10 4.5
v -2 10 4.5
v 2 10 4.5
v 5 10 4.5
v -5 10 -0.5
v -4 10 -0.5
v 4 10 -0.5
v 5 10 -0.5
v -5 10 -6.5
v -4 10 -6.5
v 4 10 -6.5
v 5 10 -6.5
v -1 11 15.5
v 1 11 15.5
v -1 11 14.5
v 1 11 14.5
v -1 12 16.5
v 1 12 16.5
v -1 12 15.5
v 1 12 15.5
v 0 12 8.5
v 1 12 8.5
v 0 12 7.5
v 1 12 7.5
v -1 12 -11.5
v 0 12 -11.5
v -1 12 -12.5
v 0 12 -12.5
v -1 13 7.5
v 0 13 7.5
v -1 13 6.5
v 0 13 6.5
v -3 13 -7.5
v -2 13 -7.5
v 2 13 -7.5
v 3 13 -7.5
v -3 13 -8.5
v -2 13 -8.5
v 2 13 -8.5
v 3 13 -8.5
v -3 14 4.5
v -2 14 4.5
v 2 14 4.5
v 3 14 4.5
v -3 14 2.5
v -2 14 2.5
v 2 14 2.5
v 3 14 2.5
v -2 14 0.5
v 0 14 0.5
v -2 14 -0.5
v -1 14 -0.5
v -1 14 -2.5
v 0 14 -2.5
v 0 14 -11.5
v 1 14 -11.5
v 0 14 -12.5
v 1 14 -12.5
v -2 6 3.5
v 2 6 3.5
v -2 6 1.5
v 2 6 1.5
v -3 9 13.5
v -2 9 13.5
v -1 9 13.5
v 1 9 13.5
v 2 9 13.5
v 3 9 13.5
v -3 9 12.5
v -2 9 12.5
v 2 9 12.5
v 3 9 12.5
v -2 9 11.5
v -1 9 11.5
v 1 9 11.5
v 2 9 11.5
v -3 9 10.5
v -2 9 10.5
v 2 9 10.5
v 3 9 10.5
v 0 10 8.5
v 1 10 8.5
v 0 10 7.5
v 1 10 7.5
v -1 11 12.5
v 1 11 12.5
v -1 11 11.5
v 1 11 11.5
v -3 11 4.5
v -2 11 4.5
v 2 11 4.5
v 3 11 4.5
v -3 11 3.5
v -2 11 3.5
v 2 11 3.5
v 3 11 3.5
v -1 12 13.5
v 1 12 13.5
v -1 12 12.5
v 1 12 12.5
v -2 12 11.5
v 2 12 11.5
v -4 12 10.5
v -3 12 10.5
v -2 12 10.5
v 2 12 10.5
v 3 12 10.5
v 4 12 10.5
v -4 12 7.5
v -3 12 7.5
v -1 12 7.5
v 0 12 7.5
v 3 12 7.5
v 4 12 7.5
v -1 12 6.5
v 0 12 6.5
v -3 12 3.5
v -2 12 3.5
v 2 12 3.5
v 3 12 3.5
v -3 12 2.5
v -2 12 2.5
v 2 12 2.5
v 3 12 2.5
v -3 12 -7.5
v -2 12 -7.5
v 2 12 -7.5
v 3 12 -7.5
v -3 12 -8.5
v -2 12 -8.5
v 2 12 -8.5
v 3 12 -8.5
v -1 13 14.5
v 1 13 14.5
v -1 13 13.5
v 1 13 13.5
v -2 13 0.5
v 0 13 0.5
v -2 13 -0.5
v -1 13 -0.5
v -1 13 -2.5
v 0 13 -2.5
v -1 14 16.5
v 1 14 16.5
v -1 14 14.5
v 1 14 14.5
v -3 14 10.5
v -1 14 10.5
v 0 14 10.5
v 3 14 10.5
v -3 14 9.5
v -2 14 9.5
v -1 14 9.5
v 0 14 9.5
v 3 14 9.5
v -5 14 -10.5
v -4 14 -10.5
v 4 14 -10.5
v 5 14 -10.5
v -5 14 -11.5
v -4 14 -11.5
v 4 14 -11.5
v 5 14 -11.5
v -3 15 9.5
v -2 15 9.5
v 3 15 9.5
v -3 15 8.5
v -2 15 8.5
v 2 15 8.5
v 3 15 8.5
v -3 15 7.5
v -2 15 7.5
v 2 15 7.5
v 3 15 7.5
v -3 15 6.5
v -2 15 6.5
v 2 15 6.5
v 3 15 6.5
v -3 15 5.5
v -2 15 5.5
v 2 15 5.5
v 3 15 5.5
v -5 15 -9.5
v -4 15 -9.5
v 4 15 -9.5
v 5 15 -9.5
v -5 15 -10.5
v -4 15 -10.5
v -3 15 -10.5
v -1 15 -10.5
v 0 15 -10.5
v 3 15 -10.5
v 4 15 -10.5
v 5 15 -10.5
v -4 15 -11.5
v -3 15 -11.5
v -1 15 -11.5
v 1 15 -11.5
v 3 15 -11.5
v 4 15 -11.5
v -1 15 -12.5
v 1 15 -12.5
v -2 16 8.5
v 2 16 8.5
v -2 16 7.5
v -1 16 7.5
v 0 16 7.5
v 2 16 7.5
v -2 16 6.5
v -1 16 6.5
v 0 16 6.5
v 2 16 6.5
v -5 16 5.5
v -4 16 5.5
v -2 16 5.5
v 2 16 5.5
v 4 16 5.5
v 5 16 5.5
v -5 16 4.5
v -4 16 4.5
v 4 16 4.5
v 5 16 4.5
v -5 16 -3.5
v -4 16 -3.5
v -3 16 -3.5
v 2 16 -3.5
v 3 16 -3.5
v 4 16 -3.5
v 5 16 -3.5
v -4 16 -4.5
v -3 16 -4.5
v 0 16 -4.5
v 1 16 -4.5
v 2 16 -4.5
v 3 16 -4.5
v 0 16 -5.5
v 1 16 -5.5
v -3 16 -6.5
v -2 16 -6.5
v 3 16 -6.5
v 4 16 -6.5
v -3 16 -7.5
v -2 16 -7.5
v 3 16 -7.5
v 4 16 -7.5
v -5 16 -9.5
v -4 16 -9.5
v -1 16 -9.5
v 0 16 -9.5
v 4 16 -9.5
v 5 16 -9.5
v -4 16 -10.5
v -1 16 -10.5
v 0 16 -10.5
v 4 16 -10.5
v -3 17 7.5
v -2 17 7.5
v 2 17 7.5
v 3 17 7.5
v -3 17 6.5
v -2 17 6.5
v 2 17 6.5
v 3 17 6.5
v -4 17 5.5
v 4 17 5.5
v -5 17 4.5
v -4 17 4.5
v 4 17 4.5
v 5 17 4.5
v 4 17 3.5
v 4 17 2.5
v 4 17 0.5
v 4 17 -0.5
v -4 17 -1.5
v -3 17 -1.5
v 4 17 -1.5
v -4 17 -2.5
v -3 17 -2.5
v 4 17 -2.5
v 5 17 -2.5
v -5 17 -3.5
v 4 17 -3.5
v 5 17 -3.5
v -4 18 4.5
v 4 18 4.5
v 3 18 3.5
v 4 18 3.5
v -1 18 2.5
v 0 18 2.5
v 3 18 2.5
v 4 18 2.5
v -1 18 1.5
v 0 18 1.5
v 3 18 0.5
v 4 18 0.5
v 3 18 -0.5
v 4 18 -0.5
v -4 18 -1.5
v 4 18 -1.5

# faces
f 3/4/1 2/4/1 1/4/1
f 4/4/1 2/4/1 3/4/1
f 5/4/1 3/4/1 1/4/1
f 5/5/1 4/5/1 3/5/1
f 6/4/1 2/4/1 4/4/1
f 6/5/1 4/5/1 5/5/1
f 7/4/1 2/4/1 6/4/1
f 12/4/1 10/4/1 9/4/1
f 13/4/1 10/4/1 12/4/1
f 14/4/1 10/4/1 13/4/1
f 15/4/1 6/4/1 5/4/1
f 15/4/1 7/4/1 6/4/1
f 15/4/1 8/4/1 7/4/1
f 17/5/1 14/5/1 13/5/1
f 17/4/1 13/4/1 12/4/1
f 17/4/1 12/4/1 11/4/1
f 18/5/1 14/5/1 17/5/1
f 20/4/1 5/4/1 1/4/1
f 20/4/1 16/4/1 15/4/1
f 20/4/1 15/4/1 5/4/1
f 21/4/1 16/4/1 20/4/1
f 22/4/1 16/4/1 21/4/1
f 23/4/1 16/4/1 22/4/1
f 24/4/1 18/4/1 17/4/1
f 24/4/1 17/4/1 11/4/1
f 25/4/1 18/4/1 24/4/1
f 26/4/1 18/4/1 25/4/1
f 27/5/1 22/5/1 21/5/1
f 27/4/1 20/4/1 19/4/1
f 27/4/1 21/4/1 20/4/1
f 28/4/1 23/4/1 22/4/1
f 28/5/1 22/5/1 27/5/1
f 28/4/1 25/4/1 24/4/1
f 28/4/1 24/4/1 23/4/1
f 29/4/1 25/4/1 28/4/1
f 30/4/1 25/4/1 29/4/1
f 31/5/1 26/5/1 25/5/1
f 31/4/1 25/4/1 30/4/1
f 32/4/1 18/4/1 26/4/1
f 32/5/1 26/5/1 31/5/1
f 33/5/1 30/5/1 29/5/1
f 33/4/1 28/4/1 27/4/1
f 33/4/1 29/4/1 28/4/1
f 34/4/1 31/4/1 30/4/1
f 34/5/1 30/5/1 33/5/1
f 34/4/1 32/4/1 31/4/1
f 35/4/1 27/4/1 19/4/1
f 35/4/1 33/4/1 27/4/1
f 35/4/1 34/4/1 33/4/1
f 36/4/1 34/4/1 35/4/1
f 37/4/1 34/4/1 36/4/1
f 38/4/1 34/4/1 37/4/1
f 39/4/1 34/4/1 38/4/1
f 40/4/1 32/4/1 34/4/1
f 40/4/1 34/4/1 39/4/1
f 41/4/1 35/4/1 19/4/1
f 41/5/1 36/5/1 35/5/1
f 42/4/1 37/4/1 36/4/1
f 42/5/1 36/5/1 41/5/1
f 43/5/1 38/5/1 37/5/1
f 43/4/1 37/4/1 42/4/1
f 44/4/1 39/4/1 38/4/1
f 44/5/1 38/5/1 43/5/1
f 45/5/1 40/5/1 39/5/1
f 45/4/1 39/4/1 44/4/1
f 46/4/1 32/4/1 40/4/1
f 46/5/1 40/5/1 45/5/1
f 47/4/1 18/4/1 32/4/1
f 47/4/1 32/4/1 46/4/1
f 48/4/1 18/4/1 47/4/1
f 49/4/1 43/4/1 42/4/1
f 49/4/1 46/4/1 45/4/1
f 49/4/1 47/4/1 46/4/1
f 49/4/1 42/4/1 41/4/1
f 49/4/1 45/4/1 44/4/1
f 49/4/1 44/4/1 43/4/1
f 50/4/1 47/4/1 49/4/1
f 51/4/1 41/4/1 19/4/1
f 51/4/1 49/4/1 41/4/1
f 52/4/1 49/4/1 51/4/1
f 53/4/1 49/4/1 52/4/1
f 54/4/1 49/4/1 53/4/1
f 55/4/1 53/4/1 52/4/1
f 56/4/1 53/4/1 55/4/1
f 61/4/1 58/4/1 57/4/1
f 62/4/1 58/4/1 61/4/1
f 63/4/1 60/4/1 59/4/1
f 64/4/1 60/4/1 63/4/1
f 67/4/1 66/4/1 65/4/1
f 68/4/1 66/4/1 67/4/1
f 69/4/1 66/4/1 68/4/1
f 75/4/1 70/4/1 69/4/1
f 75/4/1 69/4/1 68/4/1
f 76/4/1 70/4/1 75/4/1
f 77/7/1 73/7/1 72/7/1
f 77/4/1 72/4/1 71/4/1
f 78/4/1 74/4/1 73/4/1
f 78/7/1 73/7/1 77/7/1
f 79/4/1 77/4/1 71/4/1
f 79/4/1 78/4/1 77/4/1
f 80/4/1 74/4/1 78/4/1
f 80/4/1 78/4/1 79/4/1
f 84/1/1 82/1/1 81/1/1
f 85/1/1 82/1/1 84/1/1
f 88/4/1 84/4/1 83/4/1
f 89/4/1 84/4/1 88/4/1
f 90/4/1 87/4/1 86/4/1
f 91/4/1 87/4/1 90/4/1
f 93/4/1 92/4/1 91/4/1
f 94/4/1 92/4/1 93/4/1
f 98/5/1 96/5/1 95/5/1
f 99/4/1 97/4/1 96/4/1
f 99/5/1 96/5/1 98/5/1
f 100/4/1 97/4/1 99/4/1
f 102/5/1 98/5/1 95/5/1
f 103/4/1 101/4/1 100/4/1
f 103/5/1 98/5/1 102/5/1
f 103/4/1 99/4/1 98/4/1
f 103/4/1 100/4/1 99/4/1
f 104/4/1 103/4/1 102/4/1
f 104/4/1 101/4/1 103/4/1
f 108/5/1 102/5/1 95/5/1
f 109/4/1 104/4/1 102/4/1
f 109/5/1 102/5/1 108/5/1
f 109/4/1 105/4/1 104/4/1
f 110/4/1 105/4/1 109/4/1
f 111/4/1 107/4/1 106/4/1
f 112/4/1 107/4/1 111/4/1
f 113/4/1 105/4/1 110/4/1
f 114/4/1 105/4/1 113/4/1
f 115/4/1 105/4/1 114/4/1
f 116/4/1 105/4/1 115/4/1
f 117/4/1 105/4/1 116/4/1
f 119/4/1 117/4/1 116/4/1
f 120/4/1 119/4/1 118/4/1
f 121/4/1 119/4/1 120/4/1
f 122/4/1 119/4/1 121/4/1
f 123/5/1 122/5/1 121/5/1
f 124/4/1 119/4/1 122/4/1
f 124/5/1 122/5/1 123/5/1
f 125/4/1 117/4/1 119/4/1
f 125/4/1 119/4/1 124/4/1
f 126/4/1 117/4/1 125/4/1
f 127/4/1 117/4/1 126/4/1
f 128/4/1 126/4/1 125/4/1
f 129/4/1 126/4/1 128/4/1
f 134/4/1 133/4/1 132/4/1
f 135/4/1 133/4/1 134/4/1
f 136/4/1 131/4/1 130/4/1
f 137/4/1 131/4/1 136/4/1
f 140/1/1 139/1/1 138/1/1
f 141/1/1 139/1/1 140/1/1
f 146/4/1 143/4/1 142/4/1
f 147/4/1 143/4/1 146/4/1
f 148/4/1 145/4/1 144/4/1
f 149/4/1 145/4/1 148/4/1
f 152/4/1 151/4/1 150/4/1
f 153/4/1 151/4/1 152/4/1
f 157/2/1 155/2/1 154/2/1
f 159/2/1 157/2/1 156/2/1
f 160/2/1 155/2/1 157/2/1
f 160/2/1 157/2/1 159/2/1
f 161/2/1 155/2/1 160/2/1
f 163/2/1 159/2/1 158/2/1
f 163/2/1 160/2/1 159/2/1
f 164/2/1 160/2/1 163/2/1
f 165/2/1 160/2/1 164/2/1
f 168/2/1 164/2/1 163/2/1
f 168/2/1 163/2/1 162/2/1
f 169/2/1 164/2/1 168/2/1
f 170/2/1 168/2/1 162/2/1
f 171/2/1 168/2/1 170/2/1
f 172/3/1 167/3/1 166/3/1
f 173/3/1 167/3/1 172/3/1
f 176/4/1 175/4/1 174/4/1
f 177/4/1 175/4/1 176/4/1
f 180/1/1 179/1/1 178/1/1
f 181/1/1 179/1/1 180/1/1
f 184/4/1 183/4/1 182/4/1
f 185/4/1 184/4/1 182/4/1
f 186/4/1 184/4/1 185/4/1
f 191/4/1 188/4/1 187/4/1
f 192/4/1 188/4/1 191/4/1
f 195/4/1 194/4/1 193/4/1
f 197/4/1 190/4/1 189/4/1
f 198/4/1 190/4/1 197/4/1
f 200/4/1 195/4/1 193/4/1
f 201/4/1 195/4/1 200/4/1
f 203/4/1 199/4/1 198/4/1
f 203/4/1 197/4/1 196/4/1
f 203/4/1 198/4/1 197/4/1
f 204/4/1 199/4/1 203/4/1
f 205/4/1 199/4/1 204/4/1
f 206/4/1 203/4/1 202/4/1
f 206/4/1 204/4/1 203/4/1
f 207/4/1 204/4/1 206/4/1
f 210/4/1 209/4/1 208/4/1
f 211/4/1 209/4/1 210/4/1
f 214/4/1 213/4/1 212/4/1
f 218/4/1 217/4/1 216/4/1
f 219/4/1 217/4/1 218/4/1
f 220/4/1 214/4/1 212/4/1
f 220/4/1 215/4/1 214/4/1
f 221/4/1 215/4/1 220/4/1
f 222/4/2 223/4/2 224/4/2
f 226/4/2 227/4/2 228/4/2
f 228/4/2 227/4/2 229/4/2
f 222/4/2 224/4/2 230/4/2
f 224/4/2 225/4/2 230/4/2
f 230/4/2 225/4/2 231/4/2
f 232/4/2 233/4/2 236/4/2
f 236/4/2 233/4/2 237/4/2
f 238/4/2 239/4/2 240/4/2
f 234/4/2 235/4/2 242/4/2
f 242/4/2 235/4/2 243/4/2
f 238/4/2 240/4/2 245/4/2
f 245/4/2 240/4/2 246/4/2
f 243/4/2 244/4/2 248/4/2
f 241/4/2 242/4/2 248/4/2
f 242/4/2 243/4/2 248/4/2
f 248/4/2 244/4/2 249/4/2
f 249/4/2 244/4/2 250/4/2
f 247/4/2 248/4/2 251/4/2
f 248/4/2 249/4/2 251/4/2
f 251/4/2 249/4/2 252/4/2
f 253/4/2 254/4/2 255/4/2
f 255/4/2 254/4/2 256/4/2
f 257/4/2 258/4/2 259/4/2
f 259/4/2 258/4/2 260/4/2
f 261/4/2 262/4/2 263/4/2
f 263/4/2 262/4/2 264/4/2
f 265/1/2 266/1/2 267/1/2
f 267/1/2 266/1/2 268/1/2
f 269/4/2 270/4/2 271/4/2
f 269/4/2 271/4/2 272/4/2
f 272/4/2 271/4/2 273/4/2
f 274/3/2 275/3/2 276/3/2
f 276/3/2 275/3/2 277/3/2
f 278/4/2 279/4/2 280/4/2
f 280/4/2 279/4/2 281/4/2
f 282/2/2 283/2/2 285/2/2
f 284/2/2 285/2/2 287/2/2
f 285/2/2 283/2/2 288/2/2
f 287/2/2 285/2/2 288/2/2
f 288/2/2 283/2/2 289/2/2
f 286/2/2 287/2/2 291/2/2
f 287/2/2 288/2/2 291/2/2
f 291/2/2 288/2/2 292/2/2
f 292/2/2 288/2/2 293/2/2
f 290/2/2 291/2/2 294/2/2
f 291/2/2 292/2/2 294/2/2
f 294/2/2 292/2/2 295/2/2
f 290/2/2 294/2/2 296/2/2
f 296/2/2 294/2/2 297/2/2
f 298/3/2 299/3/2 300/3/2
f 300/3/2 299/3/2 301/3/2
f 304/4/2 305/4/2 306/4/2
f 306/4/2 305/4/2 307/4/2
f 302/4/2 303/4/2 308/4/2
f 308/4/2 303/4/2 309/4/2
f 310/1/2 311/1/2 312/1/2
f 312/1/2 311/1/2 313/1/2
f 314/4/2 315/4/2 318/4/2
f 318/4/2 315/4/2 319/4/2
f 316/4/2 317/4/2 320/4/2
f 320/4/2 317/4/2 321/4/2
f 322/5/2 323/5/2 325/5/2
f 323/4/2 324/4/2 326/4/2
f 325/5/2 323/5/2 326/5/2
f 326/4/2 324/4/2 327/4/2
f 322/5/2 325/5/2 329/5/2
f 327/4/2 328/4/2 330/4/2
f 329/5/2 325/5/2 330/5/2
f 325/4/2 326/4/2 330/4/2
f 326/4/2 327/4/2 330/4/2
f 329/4/2 330/4/2 331/4/2
f 330/4/2 328/4/2 331/4/2
f 322/5/2 329/5/2 335/5/2
f 329/4/2 331/4/2 336/4/2
f 335/5/2 329/5/2 336/5/2
f 331/4/2 332/4/2 336/4/2
f 336/4/2 332/4/2 337/4/2
f 333/4/2 334/4/2 338/4/2
f 338/4/2 334/4/2 339/4/2
f 337/4/2 332/4/2 340/4/2
f 340/4/2 332/4/2 341/4/2
f 341/4/2 332/4/2 342/4/2
f 342/4/2 332/4/2 343/4/2
f 343/4/2 332/4/2 344/4/2
f 343/4/2 344/4/2 346/4/2
f 345/4/2 346/4/2 347/4/2
f 347/4/2 346/4/2 348/4/2
f 348/4/2 346/4/2 349/4/2
f 346/4/2 344/4/2 350/4/2
f 349/4/2 346/4/2 350/4/2
f 348/4/2 349/4/2 351/4/2
f 349/5/2 350/5/2 352/5/2
f 351/4/2 349/4/2 352/4/2
f 350/4/2 344/4/2 353/4/2
f 352/5/2 350/5/2 353/5/2
f 353/4/2 344/4/2 354/4/2
f 354/4/2 344/4/2 355/4/2
f 353/4/2 354/4/2 356/4/2
f 356/4/2 354/4/2 357/4/2
f 358/4/2 359/4/2 362/4/2
f 362/4/2 359/4/2 363/4/2
f 360/4/2 361/4/2 364/4/2
f 364/4/2 361/4/2 365/4/2
f 366/4/2 367/4/2 368/4/2
f 368/4/2 367/4/2 369/4/2
f 369/4/2 367/4/2 370/4/2
f 370/4/2 371/4/2 376/4/2
f 369/4/2 370/4/2 376/4/2
f 376/4/2 371/4/2 377/4/2
f 373/7/2 374/7/2 378/7/2
f 372/4/2 373/4/2 378/4/2
f 374/4/2 375/4/2 379/4/2
f 378/7/2 374/7/2 379/7/2
f 372/4/2 378/4/2 380/4/2
f 378/4/2 379/4/2 380/4/2
f 379/4/2 375/4/2 381/4/2
f 380/4/2 379/4/2 381/4/2
f 382/1/2 383/1/2 385/1/2
f 385/1/2 383/1/2 386/1/2
f 384/4/2 385/4/2 389/4/2
f 389/4/2 385/4/2 390/4/2
f 387/4/2 388/4/2 391/4/2
f 391/4/2 388/4/2 392/4/2
f 392/4/2 393/4/2 398/4/2
f 393/5/2 394/5/2 399/5/2
f 398/4/2 393/4/2 399/4/2
f 394/4/2 395/4/2 400/4/2
f 399/5/2 394/5/2 400/5/2
f 395/5/2 396/5/2 401/5/2
f 400/4/2 395/4/2 401/4/2
f 396/4/2 397/4/2 402/4/2
f 401/5/2 396/5/2 402/5/2
f 402/4/2 397/4/2 403/4/2
f 404/4/2 405/4/2 406/4/2
f 406/4/2 405/4/2 407/4/2
f 404/4/2 406/4/2 408/4/2
f 406/5/2 407/5/2 408/5/2
f 407/4/2 405/4/2 409/4/2
f 408/5/2 407/5/2 409/5/2
f 409/4/2 405/4/2 410/4/2
f 412/4/2 413/4/2 415/4/2
f 415/4/2 413/4/2 416/4/2
f 416/4/2 413/4/2 417/4/2
f 408/4/2 409/4/2 418/4/2
f 409/4/2 410/4/2 418/4/2
f 410/4/2 411/4/2 418/4/2
f 416/5/2 417/5/2 420/5/2
f 415/4/2 416/4/2 420/4/2
f 414/4/2 415/4/2 420/4/2
f 420/5/2 417/5/2 421/5/2
f 404/4/2 408/4/2 423/4/2
f 418/4/2 419/4/2 423/4/2
f 408/4/2 418/4/2 423/4/2
f 423/4/2 419/4/2 424/4/2
f 424/4/2 419/4/2 425/4/2
f 425/4/2 419/4/2 426/4/2
f 420/4/2 421/4/2 427/4/2
f 414/4/2 420/4/2 427/4/2
f 427/4/2 421/4/2 428/4/2
f 428/4/2 421/4/2 429/4/2
f 424/5/2 425/5/2 430/5/2
f 422/4/2 423/4/2 430/4/2
f 423/4/2 424/4/2 430/4/2
f 425/4/2 426/4/2 431/4/2
f 430/5/2 425/5/2 431/5/2
f 427/4/2 428/4/2 431/4/2
f 426/4/2 427/4/2 431/4/2
f 431/4/2 428/4/2 432/4/2
f 432/4/2 428/4/2 433/4/2
f 428/5/2 429/5/2 434/5/2
f 433/4/2 428/4/2 434/4/2
f 429/4/2 421/4/2 435/4/2
f 434/5/2 429/5/2 435/5/2
f 432/5/2 433/5/2 436/5/2
f 430/4/2 431/4/2 436/4/2
f 431/4/2 432/4/2 436/4/2
f 433/4/2 434/4/2 437/4/2
f 436/5/2 433/5/2 437/5/2
f 434/4/2 435/4/2 437/4/2
f 422/4/2 430/4/2 438/4/2
f 430/4/2 436/4/2 438/4/2
f 436/4/2 437/4/2 438/4/2
f 438/4/2 437/4/2 439/4/2
f 439/4/2 437/4/2 440/4/2
f 440/4/2 437/4/2 441/4/2
f 441/4/2 437/4/2 442/4/2
f 437/4/2 435/4/2 443/4/2
f 442/4/2 437/4/2 443/4/2
f 422/4/2 438/4/2 444/4/2
f 438/5/2 439/5/2 444/5/2
f 439/4/2 440/4/2 445/4/2
f 444/5/2 439/5/2 445/5/2
f 440/5/2 441/5/2 446/5/2
f 445/4/2 440/4/2 446/4/2
f 441/4/2 442/4/2 447/4/2
f 446/5/2 441/5/2 447/5/2
f 442/5/2 443/5/2 448/5/2
f 447/4/2 442/4/2 448/4/2
f 443/4/2 435/4/2 449/4/2
f 448/5/2 443/5/2 449/5/2
f 435/4/2 421/4/2 450/4/2
f 449/4/2 435/4/2 450/4/2
f 450/4/2 421/4/2 451/4/2
f 445/4/2 446/4/2 452/4/2
f 448/4/2 449/4/2 452/4/2
f 449/4/2 450/4/2 452/4/2
f 444/4/2 445/4/2 452/4/2
f 447/4/2 448/4/2 452/4/2
f 446/4/2 447/4/2 452/4/2
f 452/4/2 450/4/2 453/4/2
f 422/4/2 444/4/2 454/4/2
f 444/4/2 452/4/2 454/4/2
f 454/4/2 452/4/2 455/4/2
f 455/4/2 452/4/2 456/4/2
f 456/4/2 452/4/2 457/4/2
f 457/4/2 452/4/2 458/4/2
f 455/4/2 456/4/2 459/4/2
f 456/5/2 457/5/2 460/5/2
f 459/4/2 456/4/2 460/4/2
f 460/5/2 457/5/2 461/5/2
f 464/2/3 463/2/3 462/2/3
f 465/2/3 463/2/3 464/2/3
f 468/2/3 467/2/3 466/2/3
f 469/2/3 467/2/3 468/2/3
f 472/2/3 471/2/3 470/2/3
f 473/2/3 471/2/3 472/2/3
f 476/5/3 475/5/3 474/5/3
f 477/5/3 475/5/3 476/5/3
f 478/5/3 476/5/3 474/5/3
f 479/4/3 477/4/3 476/4/3
f 479/5/3 476/5/3 478/5/3
f 480/4/3 477/4/3 479/4/3
f 482/4/3 480/4/3 479/4/3
f 482/5/3 478/5/3 474/5/3
f 482/4/3 479/4/3 478/4/3
f 483/4/3 480/4/3 482/4/3
f 484/2/3 481/2/3 480/2/3
f 484/4/3 480/4/3 483/4/3
f 485/2/3 481/2/3 484/2/3
f 486/5/3 483/5/3 482/5/3
f 486/4/3 484/4/3 483/4/3
f 487/4/3 484/4/3 486/4/3
f 488/5/3 482/5/3 474/5/3
f 488/5/3 486/5/3 482/5/3
f 488/5/3 487/5/3 486/5/3
f 489/5/3 487/5/3 488/5/3
f 492/4/3 491/4/3 490/4/3
f 493/4/3 491/4/3 492/4/3
f 495/4/3 491/4/3 493/4/3
f 496/4/3 495/4/3 494/4/3
f 497/4/3 491/4/3 495/4/3
f 497/4/3 495/4/3 496/4/3
f 501/4/3 499/4/3 498/4/3
f 502/4/3 499/4/3 501/4/3
f 504/4/3 501/4/3 500/4/3
f 504/4/3 503/4/3 502/4/3
f 504/4/3 502/4/3 501/4/3
f 505/4/3 503/4/3 504/4/3
f 506/4/3 503/4/3 505/4/3
f 507/4/3 503/4/3 506/4/3
f 508/4/3 506/4/3 505/4/3
f 508/5/3 507/5/3 506/5/3
f 509/5/3 507/5/3 508/5/3
f 511/4/3 508/4/3 505/4/3
f 511/4/3 509/4/3 508/4/3
f 512/4/3 511/4/3 510/4/3
f 513/4/3 511/4/3 512/4/3
f 514/4/3 509/4/3 511/4/3
f 514/4/3 511/4/3 513/4/3
f 515/4/3 509/4/3 514/4/3
f 516/4/3 514/4/3 513/4/3
f 517/4/3 514/4/3 516/4/3
f 520/5/3 519/5/3 518/5/3
f 521/5/3 519/5/3 520/5/3
f 522/4/3 521/4/3 520/4/3
f 523/4/3 521/4/3 522/4/3
f 524/4/3 521/4/3 523/4/3
f 525/4/3 521/4/3 524/4/3
f 528/4/3 527/4/3 526/4/3
f 529/4/3 527/4/3 528/4/3
f 532/4/3 531/4/3 530/4/3
f 533/4/3 531/4/3 532/4/3
f 534/4/3 531/4/3 533/4/3
f 538/1/3 536/1/3 535/1/3
f 539/4/3 537/4/3 536/4/3
f 539/1/3 536/1/3 538/1/3
f 540/4/3 537/4/3 539/4/3
f 544/4/3 542/4/3 541/4/3
f 544/4/3 543/4/3 542/4/3
f 545/4/3 543/4/3 544/4/3
f 548/1/3 547/1/3 546/1/3
f 549/1/3 547/1/3 548/1/3
f 552/4/3 551/4/3 550/4/3
f 554/4/3 552/4/3 550/4/3
f 554/4/3 553/4/3 552/4/3
f 555/4/3 553/4/3 554/4/3
f 556/4/3 553/4/3 555/4/3
f 557/4/3 553/4/3 556/4/3
f 559/4/3 553/4/3 557/4/3
f 561/4/3 559/4/3 558/4/3
f 562/4/3 553/4/3 559/4/3
f 562/4/3 561/4/3 560/4/3
f 562/4/3 559/4/3 561/4/3
f 563/4/3 553/4/3 562/4/3
f 564/4/3 562/4/3 560/4/3
f 565/4/3 562/4/3 564/4/3
f 570/4/3 569/4/3 568/4/3
f 571/4/3 569/4/3 570/4/3
f 573/4/3 567/4/3 566/4/3
f 574/4/3 567/4/3 573/4/3
f 575/4/3 573/4/3 566/4/3
f 578/4/3 572/4/3 571/4/3
f 579/4/3 572/4/3 578/4/3
f 580/4/3 575/4/3 566/4/3
f 580/4/3 576/4/3 575/4/3
f 581/4/3 576/4/3 580/4/3
f 582/4/3 578/4/3 577/4/3
f 583/4/3 578/4/3 582/4/3
f 588/4/3 585/4/3 584/4/3
f 589/4/3 585/4/3 588/4/3
f 590/4/3 587/4/3 586/4/3
f 591/4/3 587/4/3 590/4/3
f 594/1/3 591/1/3 590/1/3
f 595/1/3 591/1/3 594/1/3
f 596/4/3 595/4/3 594/4/3
f 597/4/3 595/4/3 596/4/3
f 598/4/3 593/4/3 592/4/3
f 599/4/3 593/4/3 598/4/3
f 602/4/3 601/4/3 600/4/3
f 603/4/3 601/4/3 602/4/3
f 606/4/3 605/4/3 604/4/3
f 607/4/3 605/4/3 606/4/3
f 608/1/3 603/1/3 602/1/3
f 609/1/3 603/1/3 608/1/3
f 610/4/3 609/4/3 608/4/3
f 611/4/3 609/4/3 610/4/3
f 614/4/3 613/4/3 612/4/3
f 615/4/3 613/4/3 614/4/3
f 618/4/3 617/4/3 616/4/3
f 619/4/3 617/4/3 618/4/3
f 622/1/3 621/1/3 620/1/3
f 623/1/3 621/1/3 622/1/3
f 626/1/3 625/1/3 624/1/3
f 627/1/3 625/1/3 626/1/3
f 630/4/3 629/4/3 628/4/3
f 631/4/3 629/4/3 630/4/3
f 632/4/3 630/4/3 628/4/3
f 633/4/3 630/4/3 632/4/3
f 636/4/3 635/4/3 634/4/3
f 638/4/3 636/4/3 634/4/3
f 638/4/3 637/4/3 636/4/3
f 639/4/3 637/4/3 638/4/3
f 642/4/3 641/4/3 640/4/3
f 643/4/3 641/4/3 642/4/3
f 646/4/3 645/4/3 644/4/3
f 647/4/3 645/4/3 646/4/3
f 652/4/3 649/4/3 648/4/3
f 653/4/3 649/4/3 652/4/3
f 654/1/3 651/1/3 650/1/3
f 655/1/3 651/1/3 654/1/3
f 660/1/3 659/1/3 658/1/3
f 661/1/3 659/1/3 660/1/3
f 662/4/3 657/4/3 656/4/3
f 663/4/3 657/4/3 662/4/3
f 666/4/3 665/4/3 664/4/3
f 667/4/3 665/4/3 666/4/3
f 668/2/4 669/2/4 670/2/4
f 670/2/4 669/2/4 671/2/4
f 672/2/4 673/2/4 674/2/4
f 674/2/4 673/2/4 675/2/4
f 676/2/4 677/2/4 678/2/4
f 678/2/4 677/2/4 679/2/4
f 680/4/4 681/4/4 682/4/4
f 682/4/4 681/4/4 683/4/4
f 684/4/4 685/4/4 688/4/4
f 688/4/4 685/4/4 689/4/4
f 690/4/4 691/4/4 692/4/4
f 692/4/4 691/4/4 693/4/4
f 686/4/4 687/4/4 694/4/4
f 694/4/4 687/4/4 695/4/4
f 696/4/4 697/4/4 698/4/4
f 698/4/4 697/4/4 699/4/4
f 702/4/4 703/4/4 704/4/4
f 704/4/4 703/4/4 705/4/4
f 705/4/4 703/4/4 706/4/4
f 700/4/4 701/4/4 710/4/4
f 710/4/4 701/4/4 711/4/4
f 708/4/4 709/4/4 712/4/4
f 707/4/4 708/4/4 712/4/4
f 712/4/4 709/4/4 713/4/4
f 714/4/4 715/4/4 716/4/4
f 716/4/4 715/4/4 717/4/4
f 714/4/4 716/4/4 718/4/4
f 714/4/4 718/4/4 720/4/4
f 718/4/4 719/4/4 720/4/4
f 720/4/4 719/4/4 721/4/4
f 722/4/4 723/4/4 724/4/4
f 724/4/4 723/4/4 725/4/4
f 725/4/4 723/4/4 726/4/4
f 724/1/4 725/1/4 727/1/4
f 725/4/4 726/4/4 728/4/4
f 727/1/4 725/1/4 728/1/4
f 728/4/4 726/4/4 729/4/4
f 727/4/4 728/4/4 730/4/4
f 728/4/4 729/4/4 730/4/4
f 730/4/4 729/4/4 731/4/4
f 732/4/4 733/4/4 734/4/4
f 734/4/4 733/4/4 735/4/4
f 736/4/4 737/4/4 739/4/4
f 738/4/4 739/4/4 740/4/4
f 739/4/4 737/4/4 741/4/4
f 740/4/4 739/4/4 741/4/4
f 741/4/4 737/4/4 742/4/4
f 742/4/4 737/4/4 743/4/4
f 741/4/4 742/4/4 745/4/4
f 745/4/4 742/4/4 746/4/4
f 744/4/4 745/4/4 748/4/4
f 746/4/4 747/4/4 748/4/4
f 745/4/4 746/4/4 748/4/4
f 748/4/4 747/4/4 749/4/4
f 749/4/4 747/4/4 750/4/4
f 750/4/4 747/4/4 751/4/4
f 752/4/4 753/4/4 754/4/4
f 754/4/4 753/4/4 755/4/4
f 756/1/4 757/1/4 758/1/4
f 758/1/4 757/1/4 759/1/4
f 752/4/4 754/4/4 760/4/4
f 752/4/4 760/4/4 762/4/4
f 760/4/4 761/4/4 762/4/4
f 762/4/4 761/4/4 763/4/4
f 764/4/4 765/4/4 766/4/4
f 766/4/4 765/4/4 767/4/4
f 768/4/4 769/4/4 770/4/4
f 770/4/4 769/4/4 771/4/4
f 772/4/4 773/4/4 774/4/4
f 774/4/4 773/4/4 775/4/4
f 775/4/4 773/4/4 776/4/4
f 777/4/4 778/4/4 779/4/4
f 779/4/4 778/4/4 780/4/4
f 781/4/4 782/4/4 783/4/4
f 783/4/4 782/4/4 784/4/4
f 785/4/4 786/4/4 787/4/4
f 787/4/4 786/4/4 790/4/4
f 790/4/4 786/4/4 791/4/4
f 788/4/4 789/4/4 792/4/4
f 792/4/4 789/4/4 793/4/4
f 791/4/4 786/4/4 794/4/4
f 794/4/4 786/4/4 795/4/4
f 795/4/4 786/4/4 796/4/4
f 795/5/4 796/5/4 797/5/4
f 797/5/4 796/5/4 798/5/4
f 799/1/4 800/1/4 801/1/4
f 801/1/4 800/1/4 802/1/4
f 803/1/4 804/1/4 805/1/4
f 805/1/4 804/1/4 806/1/4
f 807/4/4 808/4/4 809/4/4
f 809/4/4 808/4/4 810/4/4
f 811/4/4 812/4/4 813/4/4
f 813/4/4 812/4/4 814/4/4
f 815/4/4 816/4/4 819/4/4
f 819/4/4 816/4/4 820/4/4
f 820/4/4 821/4/4 822/4/4
f 817/4/4 818/4/4 823/4/4
f 823/4/4 818/4/4 824/4/4
f 822/4/4 821/4/4 825/4/4
f 825/4/4 821/4/4 826/4/4
f 825/5/4 826/5/4 827/5/4
f 827/5/4 826/5/4 828/5/4
f 827/4/4 828/4/4 831/4/4
f 829/4/4 830/4/4 832/4/4
f 832/4/4 830/4/4 833/4/4
f 831/4/4 828/4/4 835/4/4
f 835/4/4 828/4/4 836/4/4
f 834/4/4 835/4/4 837/4/4
f 837/4/4 835/4/4 838/4/4
f 839/4/4 840/4/4 843/4/4
f 840/5/4 841/5/4 843/5/4
f 841/4/4 842/4/4 844/4/4
f 843/5/4 841/5/4 844/5/4
f 844/4/4 842/4/4 845/4/4
f 843/4/4 844/4/4 847/4/4
f 845/1/4 846/1/4 847/1/4
f 844/4/4 845/4/4 847/4/4
f 847/1/4 846/1/4 848/1/4
f 839/4/4 843/4/4 849/4/4
f 843/4/4 847/4/4 849/4/4
f 847/4/4 848/4/4 849/4/4
f 849/4/4 848/4/4 850/4/4
f 850/4/4 848/4/4 851/4/4
f 851/4/4 848/4/4 852/4/4
f 850/4/4 851/4/4 853/4/4
f 853/4/4 854/4/4 855/4/4
f 850/4/4 853/4/4 858/4/4
f 855/4/4 856/4/4 858/4/4
f 853/4/4 855/4/4 858/4/4
f 858/4/4 856/4/4 859/4/4
f 857/4/4 858/4/4 859/4/4
f 859/4/4 856/4/4 860/4/4
f 857/4/4 859/4/4 861/4/4
f 861/4/4 859/4/4 862/4/4
f 859/1/4 860/1/4 863/1/4
f 862/4/4 859/4/4 863/4/4
f 863/1/4 860/1/4 864/1/4
f 857/4/4 861/4/4 865/4/4
f 861/5/4 862/5/4 866/5/4
f 865/4/4 861/4/4 866/4/4
f 862/4/4 863/4/4 867/4/4
f 866/5/4 862/5/4 867/5/4
f 867/4/4 863/4/4 868/4/4
f 869/3/4 870/3/4 871/3/4
f 871/3/4 870/3/4 872/3/4
f 872/3/4 870/3/4 873/3/4
f 873/3/4 870/3/4 874/3/4
f 879/4/5 876/4/5 875/4/5
f 880/4/5 876/4/5 879/4/5
f 881/4/5 878/4/5 877/4/5
f 882/4/5 878/4/5 881/4/5
f 887/4/5 884/4/5 883/4/5
f 888/4/5 884/4/5 887/4/5
f 889/4/5 886/4/5 885/4/5
f 890/4/5 886/4/5 889/4/5
f 893/5/5 892/5/5 891/5/5
f 894/5/5 892/5/5 893/5/5
f 895/4/5 894/4/5 893/4/5
f 896/4/5 894/4/5 895/4/5
f 899/4/5 898/4/5 897/4/5
f 900/4/5 898/4/5 899/4/5
f 901/4/5 898/4/5 900/4/5
f 902/4/5 898/4/5 901/4/5
f 903/4/5 899/4/5 897/4/5
f 904/4/5 899/4/5 903/4/5
f 905/4/5 901/4/5 900/4/5
f 906/4/5 901/4/5 905/4/5
f 907/4/5 898/4/5 902/4/5
f 908/4/5 898/4/5 907/4/5
f 911/4/5 910/4/5 909/4/5
f 912/4/5 910/4/5 911/4/5
f 917/4/5 914/4/5 913/4/5
f 918/4/5 914/4/5 917/4/5
f 921/4/5 916/4/5 915/4/5
f 921/4/5 920/4/5 919/4/5
f 921/4/5 919/4/5 918/4/5
f 921/4/5 918/4/5 917/4/5
f 921/4/5 917/4/5 916/4/5
f 922/4/5 920/4/5 921/4/5
f 927/4/5 924/4/5 923/4/5
f 928/4/5 924/4/5 927/4/5
f 929/4/5 926/4/5 925/4/5
f 930/4/5 926/4/5 929/4/5
f 931/4/5 927/4/5 923/4/5
f 934/4/5 926/4/5 930/4/5
f 935/4/5 932/4/5 931/4/5
f 935/4/5 931/4/5 923/4/5
f 936/4/5 932/4/5 935/4/5
f 937/4/5 934/4/5 933/4/5
f 938/4/5 926/4/5 934/4/5
f 938/4/5 934/4/5 937/4/5
f 941/4/5 940/4/5 939/4/5
f 942/4/5 940/4/5 941/4/5
f 945/4/5 944/4/5 943/4/5
f 946/4/5 944/4/5 945/4/5
f 947/4/5 945/4/5 943/4/5
f 948/4/5 945/4/5 947/4/5
f 949/4/5 944/4/5 946/4/5
f 950/4/5 944/4/5 949/4/5
f 953/4/5 952/4/5 951/4/5
f 954/4/5 952/4/5 953/4/5
f 955/4/5 952/4/5 954/4/5
f 956/4/5 952/4/5 955/4/5
f 957/4/5 955/4/5 954/4/5
f 958/4/5 955/4/5 957/4/5
f 963/4/5 960/4/5 959/4/5
f 964/4/5 960/4/5 963/4/5
f 965/4/5 962/4/5 961/4/5
f 966/4/5 962/4/5 965/4/5
f 969/4/5 968/4/5 967/4/5
f 970/4/5 968/4/5 969/4/5
f 973/4/5 972/4/5 971/4/5
f 974/4/5 972/4/5 973/4/5
f 979/4/5 976/4/5 975/4/5
f 980/4/5 976/4/5 979/4/5
f 981/4/5 978/4/5 977/4/5
f 982/4/5 978/4/5 981/4/5
f 987/4/5 984/4/5 983/4/5
f 988/4/5 986/4/5 985/4/5
f 989/4/5 987/4/5 983/4/5
f 989/4/5 988/4/5 987/4/5
f 990/4/5 988/4/5 989/4/5
f 991/4/5 988/4/5 990/4/5
f 992/4/5 986/4/5 988/4/5
f 992/4/5 988/4/5 991/4/5
f 993/4/5 991/4/5 990/4/5
f 994/4/5 991/4/5 993/4/5
f 997/2/5 996/2/5 995/2/5
f 998/2/5 996/2/5 997/2/5
f 1003/4/5 1000/4/5 999/4/5
f 1004/4/5 1000/4/5 1003/4/5
f 1005/4/5 1002/4/5 1001/4/5
f 1006/4/5 1002/4/5 1005/4/5
f 1007/7/5 1004/7/5 1003/7/5
f 1008/7/5 1004/7/5 1007/7/5
f 1009/7/5 1006/7/5 1005/7/5
f 1010/7/5 1006/7/5 1009/7/5
f 1011/4/5 1008/4/5 1007/4/5
f 1012/4/5 1008/4/5 1011/4/5
f 1013/4/5 1010/4/5 1009/4/5
f 1014/4/5 1010/4/5 1013/4/5
f 1021/4/5 1017/4/5 1016/4/5
f 1021/4/5 1016/4/5 1015/4/5
f 1022/4/5 1017/4/5 1021/4/5
f 1023/4/5 1019/4/5 1018/4/5
f 1023/4/5 1020/4/5 1019/4/5
f 1024/4/5 1020/4/5 1023/4/5
f 1029/4/5 1026/4/5 1025/4/5
f 1030/4/5 1026/4/5 1029/4/5
f 1031/4/5 1028/4/5 1027/4/5
f 1032/4/5 1028/4/5 1031/4/5
f 1035/2/5 1034/2/5 1033/2/5
f 1036/2/5 1034/2/5 1035/2/5
f 1039/2/5 1038/2/5 1037/2/5
f 1040/2/5 1038/2/5 1039/2/5
f 1043/4/5 1042/4/5 1041/4/5
f 1044/4/5 1042/4/5 1043/4/5
f 1047/3/5 1046/3/5 1045/3/5
f 1048/3/5 1046/3/5 1047/3/5
f 1051/4/5 1050/4/5 1049/4/5
f 1052/4/5 1050/4/5 1051/4/5
f 1057/1/5 1054/1/5 1053/1/5
f 1058/1/5 1054/1/5 1057/1/5
f 1059/1/5 1056/1/5 1055/1/5
f 1060/1/5 1056/1/5 1059/1/5
f 1065/4/5 1062/4/5 1061/4/5
f 1066/1/5 1063/1/5 1062/1/5
f 1066/4/5 1062/4/5 1065/4/5
f 1067/4/5 1064/4/5 1063/4/5
f 1067/1/5 1063/1/5 1066/1/5
f 1068/4/5 1064/4/5 1067/4/5
f 1071/1/5 1070/1/5 1069/1/5
f 1072/1/5 1070/1/5 1071/1/5
f 1073/1/5 1070/1/5 1072/1/5
f 1074/1/5 1070/1/5 1073/1/5
f 1077/3/5 1076/3/5 1075/3/5
f 1078/3/5 1076/3/5 1077/3/5
f 1079/4/6 1080/4/6 1081/4/6
f 1081/4/6 1080/4/6 1082/4/6
f 1083/5/6 1084/5/6 1089/5/6
f 1084/4/6 1085/4/6 1090/4/6
f 1089/5/6 1084/5/6 1090/5/6
f 1087/5/6 1088/5/6 1091/5/6
f 1086/4/6 1087/4/6 1091/4/6
f 1091/5/6 1088/5/6 1092/5/6
f 1090/4/6 1085/4/6 1093/4/6
f 1089/4/6 1090/4/6 1093/4/6
f 1093/4/6 1085/4/6 1094/4/6
f 1091/4/6 1092/4/6 1095/4/6
f 1086/4/6 1091/4/6 1095/4/6
f 1095/4/6 1092/4/6 1096/4/6
f 1089/4/6 1093/4/6 1097/4/6
f 1097/4/6 1093/4/6 1098/4/6
f 1096/4/6 1092/4/6 1099/4/6
f 1099/4/6 1092/4/6 1100/4/6
f 1101/4/6 1102/4/6 1103/4/6
f 1103/4/6 1102/4/6 1104/4/6
f 1105/2/6 1106/2/6 1107/2/6
f 1107/2/6 1106/2/6 1108/2/6
f 1109/4/6 1110/4/6 1113/4/6
f 1110/1/6 1111/1/6 1114/1/6
f 1113/4/6 1110/4/6 1114/4/6
f 1111/4/6 1112/4/6 1115/4/6
f 1114/1/6 1111/1/6 1115/1/6
f 1115/4/6 1112/4/6 1116/4/6
f 1117/2/6 1118/2/6 1119/2/6
f 1119/2/6 1118/2/6 1120/2/6
f 1121/4/6 1122/4/6 1125/4/6
f 1125/4/6 1122/4/6 1126/4/6
f 1123/4/6 1124/4/6 1129/4/6
f 1129/4/6 1124/4/6 1130/4/6
f 1127/4/6 1128/4/6 1133/4/6
f 1133/4/6 1128/4/6 1134/4/6
f 1131/4/6 1132/4/6 1135/4/6
f 1135/4/6 1132/4/6 1136/4/6
f 1137/4/6 1138/4/6 1141/4/6
f 1138/1/6 1139/1/6 1142/1/6
f 1141/4/6 1138/4/6 1142/4/6
f 1139/4/6 1140/4/6 1143/4/6
f 1142/1/6 1139/1/6 1143/1/6
f 1143/4/6 1140/4/6 1144/4/6
f 1145/1/6 1146/1/6 1149/1/6
f 1149/1/6 1146/1/6 1150/1/6
f 1147/1/6 1148/1/6 1151/1/6
f 1151/1/6 1148/1/6 1152/1/6
f 1153/2/6 1154/2/6 1155/2/6
f 1155/2/6 1154/2/6 1156/2/6
f 1157/1/6 1158/1/6 1159/1/6
f 1159/1/6 1158/1/6 1160/1/6
f 1160/1/6 1158/1/6 1161/1/6
f 1161/1/6 1158/1/6 1162/1/6
f 1163/2/6 1164/2/6 1165/2/6
f 1165/2/6 1164/2/6 1166/2/6
f 1167/4/6 1168/4/6 1171/4/6
f 1171/4/6 1168/4/6 1172/4/6
f 1168/5/6 1169/5/6 1173/5/6
f 1172/4/6 1168/4/6 1173/4/6
f 1169/4/6 1170/4/6 1174/4/6
f 1173/5/6 1169/5/6 1174/5/6
f 1174/4/6 1170/4/6 1175/4/6
f 1176/4/6 1177/4/6 1180/4/6
f 1180/4/6 1177/4/6 1181/4/6
f 1178/4/6 1179/4/6 1182/4/6
f 1182/4/6 1179/4/6 1183/4/6
f 1184/5/6 1185/5/6 1187/5/6
f 1185/4/6 1186/4/6 1188/4/6
f 1187/5/6 1185/5/6 1188/5/6
f 1188/4/6 1186/4/6 1189/4/6
f 1189/4/6 1186/4/6 1190/4/6
f 1187/4/6 1188/4/6 1191/4/6
f 1191/4/6 1188/4/6 1192/4/6
f 1189/5/6 1190/5/6 1193/5/6
f 1193/5/6 1190/5/6 1194/5/6
f 1195/4/6 1196/4/6 1199/4/6
f 1199/4/6 1196/4/6 1200/4/6
f 1197/4/6 1198/4/6 1201/4/6
f 1201/4/6 1198/4/6 1202/4/6
f 1203/4/6 1204/4/6 1207/4/6
f 1207/4/6 1204/4/6 1208/4/6
f 1205/4/6 1206/4/6 1213/4/6
f 1213/4/6 1206/4/6 1214/4/6
f 1208/1/6 1209/1/6 1215/1/6
f 1211/4/6 1212/4/6 1216/4/6
f 1215/1/6 1209/1/6 1216/1/6
f 1209/4/6 1210/4/6 1216/4/6
f 1210/4/6 1211/4/6 1216/4/6
f 1216/4/6 1212/4/6 1217/4/6
f 1217/4/6 1212/4/6 1218/4/6
f 1212/1/6 1213/1/6 1219/1/6
f 1218/4/6 1212/4/6 1219/4/6
f 1219/1/6 1213/1/6 1220/1/6
f 1217/3/6 1218/3/6 1221/3/6
f 1221/3/6 1218/3/6 1222/3/6
f 1223/4/6 1224/4/6 1225/4/6
f 1225/4/6 1224/4/6 1226/4/6
f 1226/4/6 1224/4/6 1227/4/6
f 1227/4/6 1224/4/6 1228/4/6
f 1225/4/6 1226/4/6 1229/4/6
f 1226/5/6 1227/5/6 1230/5/6
f 1229/4/6 1226/4/6 1230/4/6
f 1227/4/6 1228/4/6 1231/4/6
f 1230/5/6 1227/5/6 1231/5/6
f 1231/4/6 1228/4/6 1232/4/6
f 1229/4/6 1230/4/6 1235/4/6
f 1230/4/6 1231/4/6 1235/4/6
f 1231/4/6 1232/4/6 1235/4/6
f 1235/4/6 1232/4/6 1236/4/6
f 1233/4/6 1234/4/6 1239/4/6
f 1239/4/6 1234/4/6 1240/4/6
f 1237/4/6 1238/4/6 1241/4/6
f 1241/4/6 1238/4/6 1242/4/6
f 1243/4/6 1244/4/6 1250/4/6
f 1244/5/6 1245/5/6 1250/5/6
f 1245/4/6 1246/4/6 1251/4/6
f 1250/5/6 1245/5/6 1251/5/6
f 1251/4/6 1246/4/6 1252/4/6
f 1252/4/6 1246/4/6 1253/4/6
f 1246/5/6 1247/5/6 1254/5/6
f 1253/4/6 1246/4/6 1254/4/6
f 1248/4/6 1249/4/6 1255/4/6
f 1254/5/6 1247/5/6 1255/5/6
f 1247/4/6 1248/4/6 1255/4/6
f 1251/4/6 1252/4/6 1256/4/6
f 1252/5/6 1253/5/6 1256/5/6
f 1250/4/6 1251/4/6 1256/4/6
f 1253/4/6 1254/4/6 1257/4/6
f 1256/5/6 1253/5/6 1257/5/6
f 1254/4/6 1255/4/6 1257/4/6
f 1250/4/6 1256/4/6 1258/4/6
f 1256/4/6 1257/4/6 1258/4/6
f 1258/4/6 1257/4/6 1259/4/6
f 1257/4/6 1255/4/6 1260/4/6
f 1259/4/6 1257/4/6 1260/4/6
f 1255/4/6 1249/4/6 1260/4/6
f 1260/4/6 1249/4/6 1261/4/6
f 1258/5/6 1259/5/6 1262/5/6
f 1250/4/6 1258/4/6 1262/4/6
f 1259/4/6 1260/4/6 1263/4/6
f 1262/5/6 1259/5/6 1263/5/6
f 1260/5/6 1261/5/6 1264/5/6
f 1263/4/6 1260/4/6 1264/4/6
f 1261/4/6 1249/4/6 1265/4/6
f 1264/5/6 1261/5/6 1265/5/6
f 1263/4/6 1264/4/6 1266/4/6
f 1262/4/6 1263/4/6 1266/4/6
f 1264/4/6 1265/4/6 1266/4/6
f 1250/4/6 1262/4/6 1266/4/6
f 1243/4/6 1250/4/6 1266/4/6
f 1266/4/6 1265/4/6 1267/4/6
f 1267/4/6 1265/4/6 1268/4/6
f 1268/4/6 1265/4/6 1269/4/6
f 1265/4/6 1249/4/6 1270/4/6
f 1269/4/6 1265/4/6 1270/4/6
f 1270/4/6 1249/4/6 1271/4/6
f 1267/4/6 1268/4/6 1272/4/6
f 1268/5/6 1269/5/6 1273/5/6
f 1272/4/6 1268/4/6 1273/4/6
f 1269/4/6 1270/4/6 1274/4/6
f 1273/5/6 1269/5/6 1274/5/6
f 1274/4/6 1270/4/6 1275/4/6
f 1276/4/6 1277/4/6 1280/4/6
f 1280/4/6 1277/4/6 1281/4/6
f 1278/4/6 1279/4/6 1282/4/6
f 1282/4/6 1279/4/6 1283/4/6
f 1284/4/6 1285/4/6 1287/4/6
f 1287/4/6 1285/4/6 1288/4/6
f 1288/4/6 1289/4/6 1290/4/6
f 1290/4/6 1289/4/6 1291/4/6
f 1291/4/6 1289/4/6 1292/4/6
f 1292/4/6 1289/4/6 1293/4/6
f 1286/4/6 1287/4/6 1294/4/6
f 1293/4/6 1289/4/6 1296/4/6
f 1294/5/6 1295/5/6 1297/5/6
f 1286/4/6 1294/4/6 1297/4/6
f 1295/4/6 1296/4/6 1298/4/6
f 1297/5/6 1295/5/6 1298/5/6
f 1296/4/6 1289/4/6 1299/4/6
f 1298/4/6 1296/4/6 1299/4/6
f 1299/4/6 1289/4/6 1300/4/6
f 1286/4/6 1297/4/6 1301/4/6
f 1297/4/6 1298/4/6 1301/4/6
f 1298/4/6 1299/4/6 1301/4/6
f 1299/5/6 1300/5/6 1302/5/6
f 1301/4/6 1299/4/6 1302/4/6
f 1302/5/6 1300/5/6 1303/5/6
f 1304/4/6 1305/4/6 1306/4/6
f 1306/4/6 1305/4/6 1307/4/6
f 1304/4/6 1306/4/6 1308/4/6
f 1308/4/6 1306/4/6 1309/4/6
f 1306/5/6 1307/5/6 1310/5/6
f 1309/4/6 1306/4/6 1310/4/6
f 1310/5/6 1307/5/6 1311/5/6
f 1308/5/6 1309/5/6 1312/5/6
f 1304/4/6 1308/4/6 1312/4/6
f 1310/4/6 1311/4/6 1313/4/6
f 1312/5/6 1309/5/6 1313/5/6
f 1309/4/6 1310/4/6 1313/4/6
f 1312/4/6 1313/4/6 1314/4/6
f 1313/4/6 1311/4/6 1314/4/6
f 1314/4/6 1311/4/6 1315/4/6
f 1312/4/6 1314/4/6 1316/4/6
f 1314/5/6 1315/5/6 1316/5/6
f 1316/5/6 1315/5/6 1317/5/6
f 1304/4/6 1312/4/6 1318/4/6
f 1312/4/6 1316/4/6 1318/4/6
f 1316/4/6 1317/4/6 1318/4/6
f 1318/4/6 1317/4/6 1319/4/6
